{
  "bestKnownCost": 0.1,
  "bestKnownDistance": 0.0,
  "bestKnownSolution": "",
  "bestKnownTrucks": 0,
  "bestKnownWorkers": 1,
  "bestSolutionTime": "",
  "clients": [
    {
      "demand": 10.0,
      "est": 0.0,
      "id": 1,
      "lst": 240.0,
      "st": 5.0,
      "x": 0.0,
      "y": 10.0
    }
  ],
  "costDistance": 0.0001,
  "costTruck": 1,
  "costWorker": 0.1,
  "depot": {
    "est": 0.0,
    "id": 0,
    "lst": 480.0,
    "x": 0.0,
    "y": 0.0
  },
  "description": "This instance is trivial to solve. It should be solvable to optimality by any heuristic. There is only 1 depot and 1 customer. It is assumed that a ",
  "name": "trivial no parking",
  "optimumKnown": true,
  "parkings": [
  ],
  "truckCapacity": 100.0,
  "walkingSpeed": 0.2
}
