{
  "bestKnownCost": 9.223372036854776e+18,
  "bestKnownDistance": 9.223372036854776e+18,
  "bestKnownSolution": "",
  "bestKnownTrucks": 9223372036854775807,
  "bestKnownWorkers": 9223372036854775807,
  "bestSolutionTime": "",
  "clients": [
    {
      "demand": 2.0,
      "est": 372.0,
      "id": 151,
      "lst": 400.0,
      "st": 12.0,
      "x": 48.0,
      "y": -1.0
    },
    {
      "demand": 3.0,
      "est": 357.0,
      "id": 152,
      "lst": 411.0,
      "st": 15.0,
      "x": 0.0,
      "y": 16.0
    },
    {
      "demand": 5.0,
      "est": 368.0,
      "id": 153,
      "lst": 414.0,
      "st": 5.0,
      "x": 34.0,
      "y": -35.0
    },
    {
      "demand": 1.0,
      "est": 173.0,
      "id": 154,
      "lst": 189.0,
      "st": 14.0,
      "x": 44.0,
      "y": 35.0
    },
    {
      "demand": 3.0,
      "est": 162.0,
      "id": 155,
      "lst": 192.0,
      "st": 9.0,
      "x": 25.0,
      "y": 22.0
    },
    {
      "demand": 1.0,
      "est": 83.0,
      "id": 156,
      "lst": 121.0,
      "st": 14.0,
      "x": 7.0,
      "y": 18.0
    },
    {
      "demand": 1.0,
      "est": 163.0,
      "id": 157,
      "lst": 183.0,
      "st": 8.0,
      "x": -46.0,
      "y": 37.0
    },
    {
      "demand": 2.0,
      "est": 230.0,
      "id": 158,
      "lst": 250.0,
      "st": 6.0,
      "x": 43.0,
      "y": -3.0
    },
    {
      "demand": 3.0,
      "est": 55.0,
      "id": 159,
      "lst": 73.0,
      "st": 3.0,
      "x": 34.0,
      "y": 8.0
    },
    {
      "demand": 1.0,
      "est": 116.0,
      "id": 160,
      "lst": 140.0,
      "st": 11.0,
      "x": 31.0,
      "y": 22.0
    },
    {
      "demand": 1.0,
      "est": 111.0,
      "id": 161,
      "lst": 131.0,
      "st": 8.0,
      "x": 14.0,
      "y": -36.0
    },
    {
      "demand": 2.0,
      "est": 400.0,
      "id": 162,
      "lst": 418.0,
      "st": 5.0,
      "x": 11.0,
      "y": 17.0
    },
    {
      "demand": 4.0,
      "est": 72.0,
      "id": 163,
      "lst": 128.0,
      "st": 11.0,
      "x": 24.0,
      "y": 11.0
    },
    {
      "demand": 2.0,
      "est": 168.0,
      "id": 164,
      "lst": 194.0,
      "st": 13.0,
      "x": 48.0,
      "y": 8.0
    },
    {
      "demand": 4.0,
      "est": 101.0,
      "id": 165,
      "lst": 159.0,
      "st": 13.0,
      "x": 43.0,
      "y": -43.0
    },
    {
      "demand": 3.0,
      "est": 331.0,
      "id": 166,
      "lst": 369.0,
      "st": 12.0,
      "x": 30.0,
      "y": 47.0
    },
    {
      "demand": 1.0,
      "est": 311.0,
      "id": 167,
      "lst": 369.0,
      "st": 11.0,
      "x": 33.0,
      "y": 47.0
    },
    {
      "demand": 3.0,
      "est": 149.0,
      "id": 168,
      "lst": 197.0,
      "st": 12.0,
      "x": 6.0,
      "y": 36.0
    },
    {
      "demand": 4.0,
      "est": 215.0,
      "id": 169,
      "lst": 231.0,
      "st": 15.0,
      "x": -15.0,
      "y": -17.0
    },
    {
      "demand": 2.0,
      "est": 104.0,
      "id": 170,
      "lst": 154.0,
      "st": 9.0,
      "x": 29.0,
      "y": 15.0
    },
    {
      "demand": 2.0,
      "est": 267.0,
      "id": 171,
      "lst": 327.0,
      "st": 12.0,
      "x": -39.0,
      "y": -35.0
    },
    {
      "demand": 1.0,
      "est": 152.0,
      "id": 172,
      "lst": 176.0,
      "st": 8.0,
      "x": 39.0,
      "y": -32.0
    },
    {
      "demand": 4.0,
      "est": 211.0,
      "id": 173,
      "lst": 267.0,
      "st": 13.0,
      "x": 40.0,
      "y": -42.0
    },
    {
      "demand": 3.0,
      "est": 125.0,
      "id": 174,
      "lst": 181.0,
      "st": 6.0,
      "x": -46.0,
      "y": -41.0
    },
    {
      "demand": 1.0,
      "est": 252.0,
      "id": 175,
      "lst": 292.0,
      "st": 13.0,
      "x": 43.0,
      "y": -40.0
    },
    {
      "demand": 4.0,
      "est": 162.0,
      "id": 176,
      "lst": 210.0,
      "st": 6.0,
      "x": 49.0,
      "y": 3.0
    },
    {
      "demand": 2.0,
      "est": 303.0,
      "id": 177,
      "lst": 325.0,
      "st": 9.0,
      "x": -41.0,
      "y": -43.0
    },
    {
      "demand": 4.0,
      "est": 312.0,
      "id": 178,
      "lst": 364.0,
      "st": 3.0,
      "x": -35.0,
      "y": 29.0
    },
    {
      "demand": 2.0,
      "est": 259.0,
      "id": 179,
      "lst": 281.0,
      "st": 12.0,
      "x": -39.0,
      "y": 29.0
    },
    {
      "demand": 3.0,
      "est": 55.0,
      "id": 180,
      "lst": 113.0,
      "st": 3.0,
      "x": 44.0,
      "y": -2.0
    },
    {
      "demand": 4.0,
      "est": 331.0,
      "id": 181,
      "lst": 351.0,
      "st": 15.0,
      "x": 12.0,
      "y": -37.0
    },
    {
      "demand": 2.0,
      "est": 142.0,
      "id": 182,
      "lst": 180.0,
      "st": 7.0,
      "x": 36.0,
      "y": 43.0
    },
    {
      "demand": 3.0,
      "est": 233.0,
      "id": 183,
      "lst": 281.0,
      "st": 7.0,
      "x": -6.0,
      "y": 29.0
    },
    {
      "demand": 3.0,
      "est": 190.0,
      "id": 184,
      "lst": 234.0,
      "st": 9.0,
      "x": 25.0,
      "y": -24.0
    },
    {
      "demand": 4.0,
      "est": 155.0,
      "id": 185,
      "lst": 185.0,
      "st": 6.0,
      "x": -41.0,
      "y": -31.0
    },
    {
      "demand": 1.0,
      "est": 112.0,
      "id": 186,
      "lst": 158.0,
      "st": 5.0,
      "x": 43.0,
      "y": 32.0
    },
    {
      "demand": 2.0,
      "est": 309.0,
      "id": 187,
      "lst": 365.0,
      "st": 11.0,
      "x": -45.0,
      "y": 34.0
    },
    {
      "demand": 2.0,
      "est": 165.0,
      "id": 188,
      "lst": 213.0,
      "st": 15.0,
      "x": 46.0,
      "y": 39.0
    },
    {
      "demand": 3.0,
      "est": 287.0,
      "id": 189,
      "lst": 343.0,
      "st": 7.0,
      "x": 46.0,
      "y": -2.0
    },
    {
      "demand": 2.0,
      "est": 282.0,
      "id": 190,
      "lst": 302.0,
      "st": 12.0,
      "x": -6.0,
      "y": 16.0
    },
    {
      "demand": 5.0,
      "est": 182.0,
      "id": 191,
      "lst": 224.0,
      "st": 6.0,
      "x": 18.0,
      "y": -13.0
    },
    {
      "demand": 3.0,
      "est": 282.0,
      "id": 192,
      "lst": 330.0,
      "st": 10.0,
      "x": -14.0,
      "y": -10.0
    },
    {
      "demand": 2.0,
      "est": 282.0,
      "id": 193,
      "lst": 296.0,
      "st": 4.0,
      "x": 39.0,
      "y": -30.0
    },
    {
      "demand": 1.0,
      "est": 259.0,
      "id": 194,
      "lst": 309.0,
      "st": 11.0,
      "x": 45.0,
      "y": 13.0
    },
    {
      "demand": 4.0,
      "est": 248.0,
      "id": 195,
      "lst": 294.0,
      "st": 12.0,
      "x": -22.0,
      "y": -4.0
    },
    {
      "demand": 1.0,
      "est": 331.0,
      "id": 196,
      "lst": 357.0,
      "st": 6.0,
      "x": 39.0,
      "y": -36.0
    },
    {
      "demand": 3.0,
      "est": 74.0,
      "id": 197,
      "lst": 128.0,
      "st": 9.0,
      "x": -22.0,
      "y": 3.0
    },
    {
      "demand": 1.0,
      "est": 146.0,
      "id": 198,
      "lst": 204.0,
      "st": 8.0,
      "x": 48.0,
      "y": 30.0
    },
    {
      "demand": 2.0,
      "est": 242.0,
      "id": 199,
      "lst": 258.0,
      "st": 12.0,
      "x": 34.0,
      "y": 48.0
    },
    {
      "demand": 4.0,
      "est": 303.0,
      "id": 200,
      "lst": 331.0,
      "st": 11.0,
      "x": -43.0,
      "y": 35.0
    },
    {
      "demand": 2.0,
      "est": 285.0,
      "id": 201,
      "lst": 303.0,
      "st": 12.0,
      "x": 24.0,
      "y": 27.0
    },
    {
      "demand": 3.0,
      "est": 319.0,
      "id": 202,
      "lst": 357.0,
      "st": 3.0,
      "x": 47.0,
      "y": 25.0
    },
    {
      "demand": 2.0,
      "est": 201.0,
      "id": 203,
      "lst": 247.0,
      "st": 8.0,
      "x": 45.0,
      "y": 32.0
    },
    {
      "demand": 4.0,
      "est": 342.0,
      "id": 204,
      "lst": 382.0,
      "st": 5.0,
      "x": 49.0,
      "y": 31.0
    },
    {
      "demand": 3.0,
      "est": 241.0,
      "id": 205,
      "lst": 261.0,
      "st": 10.0,
      "x": 45.0,
      "y": -1.0
    },
    {
      "demand": 3.0,
      "est": 360.0,
      "id": 206,
      "lst": 392.0,
      "st": 12.0,
      "x": 11.0,
      "y": 41.0
    },
    {
      "demand": 2.0,
      "est": 274.0,
      "id": 207,
      "lst": 304.0,
      "st": 15.0,
      "x": 35.0,
      "y": -19.0
    },
    {
      "demand": 3.0,
      "est": 346.0,
      "id": 208,
      "lst": 364.0,
      "st": 8.0,
      "x": -14.0,
      "y": -14.0
    },
    {
      "demand": 5.0,
      "est": 55.0,
      "id": 209,
      "lst": 101.0,
      "st": 14.0,
      "x": 31.0,
      "y": -16.0
    },
    {
      "demand": 1.0,
      "est": 237.0,
      "id": 210,
      "lst": 281.0,
      "st": 15.0,
      "x": 4.0,
      "y": -36.0
    },
    {
      "demand": 1.0,
      "est": 374.0,
      "id": 211,
      "lst": 396.0,
      "st": 5.0,
      "x": 41.0,
      "y": -33.0
    },
    {
      "demand": 4.0,
      "est": 295.0,
      "id": 212,
      "lst": 313.0,
      "st": 5.0,
      "x": 11.0,
      "y": -32.0
    },
    {
      "demand": 5.0,
      "est": 280.0,
      "id": 213,
      "lst": 338.0,
      "st": 12.0,
      "x": -46.0,
      "y": 31.0
    },
    {
      "demand": 1.0,
      "est": 247.0,
      "id": 214,
      "lst": 301.0,
      "st": 3.0,
      "x": -37.0,
      "y": 39.0
    },
    {
      "demand": 3.0,
      "est": 115.0,
      "id": 215,
      "lst": 137.0,
      "st": 6.0,
      "x": 48.0,
      "y": 0.0
    },
    {
      "demand": 1.0,
      "est": 63.0,
      "id": 216,
      "lst": 97.0,
      "st": 5.0,
      "x": 45.0,
      "y": -3.0
    },
    {
      "demand": 2.0,
      "est": 118.0,
      "id": 217,
      "lst": 160.0,
      "st": 6.0,
      "x": 7.0,
      "y": -31.0
    },
    {
      "demand": 3.0,
      "est": 308.0,
      "id": 218,
      "lst": 364.0,
      "st": 4.0,
      "x": -14.0,
      "y": 24.0
    },
    {
      "demand": 5.0,
      "est": 255.0,
      "id": 219,
      "lst": 279.0,
      "st": 8.0,
      "x": -49.0,
      "y": 43.0
    },
    {
      "demand": 4.0,
      "est": 375.0,
      "id": 220,
      "lst": 407.0,
      "st": 5.0,
      "x": 31.0,
      "y": 30.0
    },
    {
      "demand": 5.0,
      "est": 334.0,
      "id": 221,
      "lst": 382.0,
      "st": 8.0,
      "x": 33.0,
      "y": 46.0
    },
    {
      "demand": 3.0,
      "est": 175.0,
      "id": 222,
      "lst": 221.0,
      "st": 13.0,
      "x": -25.0,
      "y": 4.0
    },
    {
      "demand": 4.0,
      "est": 129.0,
      "id": 223,
      "lst": 177.0,
      "st": 4.0,
      "x": -40.0,
      "y": 46.0
    },
    {
      "demand": 3.0,
      "est": 257.0,
      "id": 224,
      "lst": 287.0,
      "st": 8.0,
      "x": 30.0,
      "y": 16.0
    },
    {
      "demand": 1.0,
      "est": 156.0,
      "id": 225,
      "lst": 182.0,
      "st": 15.0,
      "x": 38.0,
      "y": 46.0
    },
    {
      "demand": 2.0,
      "est": 339.0,
      "id": 226,
      "lst": 379.0,
      "st": 10.0,
      "x": 34.0,
      "y": 42.0
    },
    {
      "demand": 1.0,
      "est": 58.0,
      "id": 227,
      "lst": 112.0,
      "st": 7.0,
      "x": 24.0,
      "y": -14.0
    },
    {
      "demand": 2.0,
      "est": 247.0,
      "id": 228,
      "lst": 265.0,
      "st": 11.0,
      "x": 50.0,
      "y": 30.0
    },
    {
      "demand": 2.0,
      "est": 214.0,
      "id": 229,
      "lst": 266.0,
      "st": 12.0,
      "x": -38.0,
      "y": -48.0
    },
    {
      "demand": 5.0,
      "est": 125.0,
      "id": 230,
      "lst": 173.0,
      "st": 13.0,
      "x": 6.0,
      "y": -40.0
    },
    {
      "demand": 2.0,
      "est": 254.0,
      "id": 231,
      "lst": 304.0,
      "st": 8.0,
      "x": 27.0,
      "y": -23.0
    },
    {
      "demand": 2.0,
      "est": 322.0,
      "id": 232,
      "lst": 342.0,
      "st": 9.0,
      "x": -45.0,
      "y": -47.0
    },
    {
      "demand": 2.0,
      "est": 174.0,
      "id": 233,
      "lst": 234.0,
      "st": 7.0,
      "x": -36.0,
      "y": 38.0
    },
    {
      "demand": 1.0,
      "est": 104.0,
      "id": 234,
      "lst": 120.0,
      "st": 10.0,
      "x": 7.0,
      "y": -38.0
    },
    {
      "demand": 2.0,
      "est": 31.0,
      "id": 235,
      "lst": 87.0,
      "st": 14.0,
      "x": -13.0,
      "y": 1.0
    },
    {
      "demand": 3.0,
      "est": 367.0,
      "id": 236,
      "lst": 417.0,
      "st": 14.0,
      "x": 10.0,
      "y": -31.0
    },
    {
      "demand": 3.0,
      "est": 300.0,
      "id": 237,
      "lst": 328.0,
      "st": 11.0,
      "x": 35.0,
      "y": -31.0
    },
    {
      "demand": 4.0,
      "est": 219.0,
      "id": 238,
      "lst": 259.0,
      "st": 5.0,
      "x": 33.0,
      "y": -41.0
    },
    {
      "demand": 5.0,
      "est": 104.0,
      "id": 239,
      "lst": 152.0,
      "st": 11.0,
      "x": -15.0,
      "y": 4.0
    },
    {
      "demand": 1.0,
      "est": 319.0,
      "id": 240,
      "lst": 359.0,
      "st": 5.0,
      "x": 31.0,
      "y": 46.0
    },
    {
      "demand": 4.0,
      "est": 344.0,
      "id": 241,
      "lst": 398.0,
      "st": 4.0,
      "x": -40.0,
      "y": 38.0
    },
    {
      "demand": 1.0,
      "est": 87.0,
      "id": 242,
      "lst": 115.0,
      "st": 5.0,
      "x": 49.0,
      "y": 33.0
    },
    {
      "demand": 3.0,
      "est": 334.0,
      "id": 243,
      "lst": 392.0,
      "st": 7.0,
      "x": -14.0,
      "y": 21.0
    },
    {
      "demand": 4.0,
      "est": 163.0,
      "id": 244,
      "lst": 203.0,
      "st": 9.0,
      "x": 34.0,
      "y": -23.0
    },
    {
      "demand": 1.0,
      "est": 238.0,
      "id": 245,
      "lst": 280.0,
      "st": 10.0,
      "x": 17.0,
      "y": -12.0
    },
    {
      "demand": 5.0,
      "est": 174.0,
      "id": 246,
      "lst": 192.0,
      "st": 3.0,
      "x": -26.0,
      "y": -10.0
    },
    {
      "demand": 1.0,
      "est": 347.0,
      "id": 247,
      "lst": 379.0,
      "st": 6.0,
      "x": 32.0,
      "y": 22.0
    },
    {
      "demand": 3.0,
      "est": 80.0,
      "id": 248,
      "lst": 136.0,
      "st": 14.0,
      "x": 28.0,
      "y": 25.0
    },
    {
      "demand": 5.0,
      "est": 340.0,
      "id": 249,
      "lst": 390.0,
      "st": 14.0,
      "x": 42.0,
      "y": -34.0
    },
    {
      "demand": 2.0,
      "est": 135.0,
      "id": 250,
      "lst": 175.0,
      "st": 11.0,
      "x": 43.0,
      "y": -38.0
    },
    {
      "demand": 1.0,
      "est": 244.0,
      "id": 251,
      "lst": 290.0,
      "st": 3.0,
      "x": 36.0,
      "y": 47.0
    },
    {
      "demand": 3.0,
      "est": 281.0,
      "id": 252,
      "lst": 329.0,
      "st": 5.0,
      "x": -28.0,
      "y": -16.0
    },
    {
      "demand": 4.0,
      "est": 227.0,
      "id": 253,
      "lst": 271.0,
      "st": 14.0,
      "x": -33.0,
      "y": -39.0
    },
    {
      "demand": 3.0,
      "est": 238.0,
      "id": 254,
      "lst": 286.0,
      "st": 15.0,
      "x": 45.0,
      "y": 36.0
    },
    {
      "demand": 2.0,
      "est": 236.0,
      "id": 255,
      "lst": 266.0,
      "st": 11.0,
      "x": 30.0,
      "y": -22.0
    },
    {
      "demand": 2.0,
      "est": 238.0,
      "id": 256,
      "lst": 254.0,
      "st": 8.0,
      "x": 48.0,
      "y": 39.0
    },
    {
      "demand": 4.0,
      "est": 139.0,
      "id": 257,
      "lst": 171.0,
      "st": 7.0,
      "x": 22.0,
      "y": -23.0
    },
    {
      "demand": 1.0,
      "est": 63.0,
      "id": 258,
      "lst": 97.0,
      "st": 3.0,
      "x": 32.0,
      "y": 26.0
    },
    {
      "demand": 3.0,
      "est": 91.0,
      "id": 259,
      "lst": 147.0,
      "st": 13.0,
      "x": -31.0,
      "y": -43.0
    },
    {
      "demand": 2.0,
      "est": 77.0,
      "id": 260,
      "lst": 103.0,
      "st": 5.0,
      "x": 33.0,
      "y": 45.0
    },
    {
      "demand": 1.0,
      "est": 167.0,
      "id": 261,
      "lst": 217.0,
      "st": 5.0,
      "x": -24.0,
      "y": 1.0
    },
    {
      "demand": 2.0,
      "est": 381.0,
      "id": 262,
      "lst": 425.0,
      "st": 14.0,
      "x": 43.0,
      "y": 3.0
    },
    {
      "demand": 1.0,
      "est": 193.0,
      "id": 263,
      "lst": 221.0,
      "st": 13.0,
      "x": 20.0,
      "y": -24.0
    },
    {
      "demand": 3.0,
      "est": 369.0,
      "id": 264,
      "lst": 425.0,
      "st": 3.0,
      "x": -27.0,
      "y": -2.0
    },
    {
      "demand": 5.0,
      "est": 178.0,
      "id": 265,
      "lst": 218.0,
      "st": 11.0,
      "x": -16.0,
      "y": -14.0
    },
    {
      "demand": 4.0,
      "est": 220.0,
      "id": 266,
      "lst": 246.0,
      "st": 9.0,
      "x": -24.0,
      "y": -36.0
    },
    {
      "demand": 3.0,
      "est": 201.0,
      "id": 267,
      "lst": 241.0,
      "st": 8.0,
      "x": -44.0,
      "y": 33.0
    },
    {
      "demand": 5.0,
      "est": 84.0,
      "id": 268,
      "lst": 134.0,
      "st": 14.0,
      "x": 49.0,
      "y": 26.0
    },
    {
      "demand": 5.0,
      "est": 99.0,
      "id": 269,
      "lst": 157.0,
      "st": 6.0,
      "x": -41.0,
      "y": -28.0
    },
    {
      "demand": 4.0,
      "est": 374.0,
      "id": 270,
      "lst": 390.0,
      "st": 11.0,
      "x": 35.0,
      "y": 48.0
    },
    {
      "demand": 2.0,
      "est": 348.0,
      "id": 271,
      "lst": 380.0,
      "st": 9.0,
      "x": -36.0,
      "y": -47.0
    },
    {
      "demand": 4.0,
      "est": 286.0,
      "id": 272,
      "lst": 306.0,
      "st": 3.0,
      "x": 7.0,
      "y": -39.0
    },
    {
      "demand": 3.0,
      "est": 202.0,
      "id": 273,
      "lst": 226.0,
      "st": 14.0,
      "x": 39.0,
      "y": -38.0
    },
    {
      "demand": 3.0,
      "est": 180.0,
      "id": 274,
      "lst": 218.0,
      "st": 14.0,
      "x": 40.0,
      "y": -43.0
    },
    {
      "demand": 1.0,
      "est": 352.0,
      "id": 275,
      "lst": 380.0,
      "st": 9.0,
      "x": 49.0,
      "y": 35.0
    },
    {
      "demand": 1.0,
      "est": 325.0,
      "id": 276,
      "lst": 367.0,
      "st": 15.0,
      "x": 26.0,
      "y": 28.0
    },
    {
      "demand": 4.0,
      "est": 363.0,
      "id": 277,
      "lst": 383.0,
      "st": 14.0,
      "x": 44.0,
      "y": 3.0
    },
    {
      "demand": 5.0,
      "est": 203.0,
      "id": 278,
      "lst": 221.0,
      "st": 14.0,
      "x": -37.0,
      "y": 46.0
    },
    {
      "demand": 5.0,
      "est": 246.0,
      "id": 279,
      "lst": 294.0,
      "st": 12.0,
      "x": 30.0,
      "y": 17.0
    },
    {
      "demand": 1.0,
      "est": 327.0,
      "id": 280,
      "lst": 355.0,
      "st": 3.0,
      "x": -27.0,
      "y": -43.0
    },
    {
      "demand": 4.0,
      "est": 221.0,
      "id": 281,
      "lst": 267.0,
      "st": 13.0,
      "x": 41.0,
      "y": -39.0
    },
    {
      "demand": 1.0,
      "est": 102.0,
      "id": 282,
      "lst": 124.0,
      "st": 14.0,
      "x": -44.0,
      "y": 43.0
    },
    {
      "demand": 2.0,
      "est": 276.0,
      "id": 283,
      "lst": 302.0,
      "st": 8.0,
      "x": 8.0,
      "y": -36.0
    },
    {
      "demand": 3.0,
      "est": 273.0,
      "id": 284,
      "lst": 327.0,
      "st": 15.0,
      "x": -39.0,
      "y": -28.0
    },
    {
      "demand": 1.0,
      "est": 309.0,
      "id": 285,
      "lst": 335.0,
      "st": 10.0,
      "x": 1.0,
      "y": 30.0
    },
    {
      "demand": 5.0,
      "est": 179.0,
      "id": 286,
      "lst": 213.0,
      "st": 4.0,
      "x": 33.0,
      "y": 10.0
    },
    {
      "demand": 2.0,
      "est": 368.0,
      "id": 287,
      "lst": 424.0,
      "st": 11.0,
      "x": 12.0,
      "y": -33.0
    },
    {
      "demand": 3.0,
      "est": 134.0,
      "id": 288,
      "lst": 158.0,
      "st": 8.0,
      "x": -46.0,
      "y": -50.0
    },
    {
      "demand": 1.0,
      "est": 256.0,
      "id": 289,
      "lst": 274.0,
      "st": 14.0,
      "x": -31.0,
      "y": -45.0
    },
    {
      "demand": 1.0,
      "est": 241.0,
      "id": 290,
      "lst": 287.0,
      "st": 8.0,
      "x": 3.0,
      "y": -32.0
    },
    {
      "demand": 3.0,
      "est": 252.0,
      "id": 291,
      "lst": 288.0,
      "st": 10.0,
      "x": 47.0,
      "y": 27.0
    },
    {
      "demand": 4.0,
      "est": 283.0,
      "id": 292,
      "lst": 307.0,
      "st": 7.0,
      "x": 38.0,
      "y": 43.0
    },
    {
      "demand": 3.0,
      "est": 315.0,
      "id": 293,
      "lst": 337.0,
      "st": 6.0,
      "x": 49.0,
      "y": 8.0
    },
    {
      "demand": 5.0,
      "est": 351.0,
      "id": 294,
      "lst": 377.0,
      "st": 8.0,
      "x": -40.0,
      "y": 42.0
    },
    {
      "demand": 1.0,
      "est": 247.0,
      "id": 295,
      "lst": 281.0,
      "st": 3.0,
      "x": -13.0,
      "y": 39.0
    },
    {
      "demand": 2.0,
      "est": 297.0,
      "id": 296,
      "lst": 351.0,
      "st": 14.0,
      "x": -36.0,
      "y": 46.0
    },
    {
      "demand": 3.0,
      "est": 74.0,
      "id": 297,
      "lst": 130.0,
      "st": 5.0,
      "x": 16.0,
      "y": -19.0
    },
    {
      "demand": 5.0,
      "est": 252.0,
      "id": 298,
      "lst": 308.0,
      "st": 5.0,
      "x": 42.0,
      "y": -37.0
    },
    {
      "demand": 4.0,
      "est": 287.0,
      "id": 299,
      "lst": 327.0,
      "st": 5.0,
      "x": 8.0,
      "y": -38.0
    },
    {
      "demand": 3.0,
      "est": 100.0,
      "id": 300,
      "lst": 156.0,
      "st": 3.0,
      "x": -49.0,
      "y": 32.0
    },
    {
      "demand": 4.0,
      "est": 321.0,
      "id": 301,
      "lst": 369.0,
      "st": 5.0,
      "x": -31.0,
      "y": -44.0
    },
    {
      "demand": 4.0,
      "est": 249.0,
      "id": 302,
      "lst": 275.0,
      "st": 12.0,
      "x": 34.0,
      "y": 44.0
    },
    {
      "demand": 2.0,
      "est": 186.0,
      "id": 303,
      "lst": 216.0,
      "st": 9.0,
      "x": -39.0,
      "y": 32.0
    },
    {
      "demand": 5.0,
      "est": 231.0,
      "id": 304,
      "lst": 269.0,
      "st": 9.0,
      "x": -47.0,
      "y": 47.0
    },
    {
      "demand": 4.0,
      "est": 34.0,
      "id": 305,
      "lst": 74.0,
      "st": 7.0,
      "x": -24.0,
      "y": -13.0
    },
    {
      "demand": 1.0,
      "est": 116.0,
      "id": 306,
      "lst": 132.0,
      "st": 11.0,
      "x": 19.0,
      "y": -18.0
    },
    {
      "demand": 5.0,
      "est": 292.0,
      "id": 307,
      "lst": 348.0,
      "st": 7.0,
      "x": 29.0,
      "y": -25.0
    },
    {
      "demand": 3.0,
      "est": 336.0,
      "id": 308,
      "lst": 380.0,
      "st": 13.0,
      "x": -41.0,
      "y": -35.0
    },
    {
      "demand": 1.0,
      "est": 201.0,
      "id": 309,
      "lst": 251.0,
      "st": 14.0,
      "x": 5.0,
      "y": -36.0
    },
    {
      "demand": 4.0,
      "est": 126.0,
      "id": 310,
      "lst": 160.0,
      "st": 5.0,
      "x": -30.0,
      "y": -31.0
    },
    {
      "demand": 1.0,
      "est": 247.0,
      "id": 311,
      "lst": 293.0,
      "st": 9.0,
      "x": -42.0,
      "y": -31.0
    },
    {
      "demand": 2.0,
      "est": 251.0,
      "id": 312,
      "lst": 269.0,
      "st": 6.0,
      "x": -36.0,
      "y": 48.0
    },
    {
      "demand": 3.0,
      "est": 155.0,
      "id": 313,
      "lst": 199.0,
      "st": 7.0,
      "x": 6.0,
      "y": -39.0
    },
    {
      "demand": 5.0,
      "est": 214.0,
      "id": 314,
      "lst": 266.0,
      "st": 8.0,
      "x": -6.0,
      "y": 17.0
    },
    {
      "demand": 3.0,
      "est": 70.0,
      "id": 315,
      "lst": 100.0,
      "st": 12.0,
      "x": 34.0,
      "y": 43.0
    },
    {
      "demand": 1.0,
      "est": 131.0,
      "id": 316,
      "lst": 151.0,
      "st": 7.0,
      "x": 47.0,
      "y": 22.0
    },
    {
      "demand": 2.0,
      "est": 200.0,
      "id": 317,
      "lst": 252.0,
      "st": 15.0,
      "x": 2.0,
      "y": 30.0
    },
    {
      "demand": 5.0,
      "est": 153.0,
      "id": 318,
      "lst": 193.0,
      "st": 13.0,
      "x": -37.0,
      "y": 42.0
    },
    {
      "demand": 2.0,
      "est": 310.0,
      "id": 319,
      "lst": 340.0,
      "st": 10.0,
      "x": 49.0,
      "y": 7.0
    },
    {
      "demand": 1.0,
      "est": 108.0,
      "id": 320,
      "lst": 130.0,
      "st": 15.0,
      "x": 10.0,
      "y": 18.0
    },
    {
      "demand": 5.0,
      "est": 31.0,
      "id": 321,
      "lst": 57.0,
      "st": 14.0,
      "x": 11.0,
      "y": -35.0
    },
    {
      "demand": 4.0,
      "est": 288.0,
      "id": 322,
      "lst": 308.0,
      "st": 4.0,
      "x": 0.0,
      "y": 27.0
    },
    {
      "demand": 2.0,
      "est": 180.0,
      "id": 323,
      "lst": 230.0,
      "st": 6.0,
      "x": 31.0,
      "y": 47.0
    },
    {
      "demand": 4.0,
      "est": 86.0,
      "id": 324,
      "lst": 102.0,
      "st": 14.0,
      "x": 44.0,
      "y": 2.0
    },
    {
      "demand": 1.0,
      "est": 186.0,
      "id": 325,
      "lst": 224.0,
      "st": 14.0,
      "x": 11.0,
      "y": 18.0
    },
    {
      "demand": 1.0,
      "est": 212.0,
      "id": 326,
      "lst": 242.0,
      "st": 11.0,
      "x": -13.0,
      "y": 18.0
    },
    {
      "demand": 2.0,
      "est": 142.0,
      "id": 327,
      "lst": 196.0,
      "st": 8.0,
      "x": 46.0,
      "y": 4.0
    },
    {
      "demand": 1.0,
      "est": 149.0,
      "id": 328,
      "lst": 207.0,
      "st": 8.0,
      "x": 23.0,
      "y": 21.0
    },
    {
      "demand": 3.0,
      "est": 169.0,
      "id": 329,
      "lst": 197.0,
      "st": 11.0,
      "x": -36.0,
      "y": 45.0
    },
    {
      "demand": 2.0,
      "est": 43.0,
      "id": 330,
      "lst": 73.0,
      "st": 15.0,
      "x": 18.0,
      "y": -16.0
    },
    {
      "demand": 3.0,
      "est": 73.0,
      "id": 331,
      "lst": 119.0,
      "st": 3.0,
      "x": -2.0,
      "y": 17.0
    },
    {
      "demand": 4.0,
      "est": 261.0,
      "id": 332,
      "lst": 321.0,
      "st": 9.0,
      "x": 33.0,
      "y": 15.0
    },
    {
      "demand": 3.0,
      "est": 256.0,
      "id": 333,
      "lst": 278.0,
      "st": 12.0,
      "x": 24.0,
      "y": -20.0
    },
    {
      "demand": 1.0,
      "est": 235.0,
      "id": 334,
      "lst": 283.0,
      "st": 15.0,
      "x": 37.0,
      "y": 50.0
    },
    {
      "demand": 2.0,
      "est": 174.0,
      "id": 335,
      "lst": 210.0,
      "st": 4.0,
      "x": 43.0,
      "y": 39.0
    },
    {
      "demand": 2.0,
      "est": 391.0,
      "id": 336,
      "lst": 425.0,
      "st": 13.0,
      "x": -16.0,
      "y": -13.0
    },
    {
      "demand": 5.0,
      "est": 133.0,
      "id": 337,
      "lst": 189.0,
      "st": 11.0,
      "x": -46.0,
      "y": 47.0
    },
    {
      "demand": 2.0,
      "est": 338.0,
      "id": 338,
      "lst": 368.0,
      "st": 7.0,
      "x": -39.0,
      "y": -49.0
    },
    {
      "demand": 2.0,
      "est": 346.0,
      "id": 339,
      "lst": 380.0,
      "st": 5.0,
      "x": 44.0,
      "y": 26.0
    },
    {
      "demand": 1.0,
      "est": 25.0,
      "id": 340,
      "lst": 57.0,
      "st": 15.0,
      "x": 4.0,
      "y": -40.0
    },
    {
      "demand": 1.0,
      "est": 160.0,
      "id": 341,
      "lst": 176.0,
      "st": 7.0,
      "x": 38.0,
      "y": 50.0
    },
    {
      "demand": 2.0,
      "est": 101.0,
      "id": 342,
      "lst": 121.0,
      "st": 10.0,
      "x": 10.0,
      "y": -36.0
    },
    {
      "demand": 3.0,
      "est": 189.0,
      "id": 343,
      "lst": 217.0,
      "st": 9.0,
      "x": -40.0,
      "y": 32.0
    },
    {
      "demand": 3.0,
      "est": 178.0,
      "id": 344,
      "lst": 232.0,
      "st": 15.0,
      "x": 35.0,
      "y": 44.0
    },
    {
      "demand": 1.0,
      "est": 352.0,
      "id": 345,
      "lst": 394.0,
      "st": 10.0,
      "x": -41.0,
      "y": -40.0
    },
    {
      "demand": 2.0,
      "est": 96.0,
      "id": 346,
      "lst": 130.0,
      "st": 15.0,
      "x": -23.0,
      "y": -39.0
    },
    {
      "demand": 3.0,
      "est": 230.0,
      "id": 347,
      "lst": 284.0,
      "st": 4.0,
      "x": 42.0,
      "y": -30.0
    },
    {
      "demand": 5.0,
      "est": 225.0,
      "id": 348,
      "lst": 275.0,
      "st": 10.0,
      "x": -37.0,
      "y": 31.0
    },
    {
      "demand": 4.0,
      "est": 316.0,
      "id": 349,
      "lst": 348.0,
      "st": 13.0,
      "x": 16.0,
      "y": -17.0
    },
    {
      "demand": 5.0,
      "est": 65.0,
      "id": 350,
      "lst": 85.0,
      "st": 9.0,
      "x": -14.0,
      "y": -15.0
    }
  ],
  "costDistance": 0.0001,
  "costTruck": 1,
  "costWorker": 0.1,
  "depot": {
    "est": 0.0,
    "id": 0,
    "lst": 480.0,
    "x": 0.0,
    "y": -4.0
  },
  "description": "clustered, 200 clients, 150 parkings, normal time windows, high walking speed",
  "name": "c200.150.n.3",
  "optimumKnown": false,
  "parkings": [
    {
      "id": 1,
      "x": -21.0,
      "y": -17.0
    },
    {
      "id": 2,
      "x": 40.0,
      "y": -43.0
    },
    {
      "id": 3,
      "x": 43.0,
      "y": 14.0
    },
    {
      "id": 4,
      "x": 39.0,
      "y": -41.0
    },
    {
      "id": 5,
      "x": 32.0,
      "y": 11.0
    },
    {
      "id": 6,
      "x": 33.0,
      "y": 17.0
    },
    {
      "id": 7,
      "x": -42.0,
      "y": 30.0
    },
    {
      "id": 8,
      "x": 11.0,
      "y": -37.0
    },
    {
      "id": 9,
      "x": 38.0,
      "y": -22.0
    },
    {
      "id": 10,
      "x": 34.0,
      "y": 22.0
    },
    {
      "id": 11,
      "x": 23.0,
      "y": 16.0
    },
    {
      "id": 12,
      "x": 5.0,
      "y": -32.0
    },
    {
      "id": 13,
      "x": 50.0,
      "y": 43.0
    },
    {
      "id": 14,
      "x": -14.0,
      "y": -14.0
    },
    {
      "id": 15,
      "x": 33.0,
      "y": 43.0
    },
    {
      "id": 16,
      "x": 45.0,
      "y": 26.0
    },
    {
      "id": 17,
      "x": 34.0,
      "y": 50.0
    },
    {
      "id": 18,
      "x": 16.0,
      "y": -17.0
    },
    {
      "id": 19,
      "x": 42.0,
      "y": -44.0
    },
    {
      "id": 20,
      "x": -40.0,
      "y": 45.0
    },
    {
      "id": 21,
      "x": -29.0,
      "y": -44.0
    },
    {
      "id": 22,
      "x": -14.0,
      "y": -9.0
    },
    {
      "id": 23,
      "x": 44.0,
      "y": 22.0
    },
    {
      "id": 24,
      "x": 43.0,
      "y": 3.0
    },
    {
      "id": 25,
      "x": 49.0,
      "y": 35.0
    },
    {
      "id": 26,
      "x": 48.0,
      "y": 0.0
    },
    {
      "id": 27,
      "x": 45.0,
      "y": 8.0
    },
    {
      "id": 28,
      "x": -49.0,
      "y": 44.0
    },
    {
      "id": 29,
      "x": 33.0,
      "y": -21.0
    },
    {
      "id": 30,
      "x": 43.0,
      "y": -33.0
    },
    {
      "id": 31,
      "x": -42.0,
      "y": -48.0
    },
    {
      "id": 32,
      "x": -6.0,
      "y": 20.0
    },
    {
      "id": 33,
      "x": 44.0,
      "y": 9.0
    },
    {
      "id": 34,
      "x": 42.0,
      "y": 26.0
    },
    {
      "id": 35,
      "x": 50.0,
      "y": -3.0
    },
    {
      "id": 36,
      "x": 31.0,
      "y": 28.0
    },
    {
      "id": 37,
      "x": 23.0,
      "y": -25.0
    },
    {
      "id": 38,
      "x": 32.0,
      "y": 20.0
    },
    {
      "id": 39,
      "x": 17.0,
      "y": -21.0
    },
    {
      "id": 40,
      "x": 12.0,
      "y": -35.0
    },
    {
      "id": 41,
      "x": 33.0,
      "y": -30.0
    },
    {
      "id": 42,
      "x": -37.0,
      "y": 45.0
    },
    {
      "id": 43,
      "x": 45.0,
      "y": -3.0
    },
    {
      "id": 44,
      "x": 4.0,
      "y": -40.0
    },
    {
      "id": 45,
      "x": 14.0,
      "y": -39.0
    },
    {
      "id": 46,
      "x": 49.0,
      "y": 43.0
    },
    {
      "id": 47,
      "x": 38.0,
      "y": 46.0
    },
    {
      "id": 48,
      "x": -36.0,
      "y": 43.0
    },
    {
      "id": 49,
      "x": 32.0,
      "y": 43.0
    },
    {
      "id": 50,
      "x": 42.0,
      "y": 29.0
    },
    {
      "id": 51,
      "x": 38.0,
      "y": 44.0
    },
    {
      "id": 52,
      "x": 33.0,
      "y": -18.0
    },
    {
      "id": 53,
      "x": 35.0,
      "y": -14.0
    },
    {
      "id": 54,
      "x": 38.0,
      "y": 48.0
    },
    {
      "id": 55,
      "x": 40.0,
      "y": -38.0
    },
    {
      "id": 56,
      "x": 10.0,
      "y": -35.0
    },
    {
      "id": 57,
      "x": 31.0,
      "y": 12.0
    },
    {
      "id": 58,
      "x": -39.0,
      "y": 42.0
    },
    {
      "id": 59,
      "x": 41.0,
      "y": -44.0
    },
    {
      "id": 60,
      "x": -26.0,
      "y": -2.0
    },
    {
      "id": 61,
      "x": 35.0,
      "y": -30.0
    },
    {
      "id": 62,
      "x": 34.0,
      "y": -42.0
    },
    {
      "id": 63,
      "x": -37.0,
      "y": 36.0
    },
    {
      "id": 64,
      "x": 37.0,
      "y": 48.0
    },
    {
      "id": 65,
      "x": 25.0,
      "y": 14.0
    },
    {
      "id": 66,
      "x": -46.0,
      "y": 28.0
    },
    {
      "id": 67,
      "x": 34.0,
      "y": -44.0
    },
    {
      "id": 68,
      "x": 44.0,
      "y": 42.0
    },
    {
      "id": 69,
      "x": -31.0,
      "y": -48.0
    },
    {
      "id": 70,
      "x": -16.0,
      "y": 2.0
    },
    {
      "id": 71,
      "x": 34.0,
      "y": 21.0
    },
    {
      "id": 72,
      "x": 24.0,
      "y": -23.0
    },
    {
      "id": 73,
      "x": 46.0,
      "y": 10.0
    },
    {
      "id": 74,
      "x": -28.0,
      "y": -5.0
    },
    {
      "id": 75,
      "x": 32.0,
      "y": -14.0
    },
    {
      "id": 76,
      "x": 37.0,
      "y": 47.0
    },
    {
      "id": 77,
      "x": -7.0,
      "y": 27.0
    },
    {
      "id": 78,
      "x": -16.0,
      "y": -17.0
    },
    {
      "id": 79,
      "x": 8.0,
      "y": -34.0
    },
    {
      "id": 80,
      "x": 28.0,
      "y": -13.0
    },
    {
      "id": 81,
      "x": 49.0,
      "y": 39.0
    },
    {
      "id": 82,
      "x": 34.0,
      "y": 44.0
    },
    {
      "id": 83,
      "x": 46.0,
      "y": 28.0
    },
    {
      "id": 84,
      "x": 47.0,
      "y": 26.0
    },
    {
      "id": 85,
      "x": 48.0,
      "y": 37.0
    },
    {
      "id": 86,
      "x": 35.0,
      "y": 43.0
    },
    {
      "id": 87,
      "x": 13.0,
      "y": -33.0
    },
    {
      "id": 88,
      "x": -10.0,
      "y": 29.0
    },
    {
      "id": 89,
      "x": -44.0,
      "y": 37.0
    },
    {
      "id": 90,
      "x": -17.0,
      "y": -13.0
    },
    {
      "id": 91,
      "x": 49.0,
      "y": -2.0
    },
    {
      "id": 92,
      "x": 28.0,
      "y": -19.0
    },
    {
      "id": 93,
      "x": 34.0,
      "y": -25.0
    },
    {
      "id": 94,
      "x": -43.0,
      "y": 46.0
    },
    {
      "id": 95,
      "x": 14.0,
      "y": -34.0
    },
    {
      "id": 96,
      "x": 12.0,
      "y": 34.0
    },
    {
      "id": 97,
      "x": 38.0,
      "y": 49.0
    },
    {
      "id": 98,
      "x": 45.0,
      "y": 0.0
    },
    {
      "id": 99,
      "x": 32.0,
      "y": -37.0
    },
    {
      "id": 100,
      "x": 30.0,
      "y": -14.0
    },
    {
      "id": 101,
      "x": 14.0,
      "y": -31.0
    },
    {
      "id": 102,
      "x": -25.0,
      "y": -14.0
    },
    {
      "id": 103,
      "x": 33.0,
      "y": 7.0
    },
    {
      "id": 104,
      "x": -12.0,
      "y": 27.0
    },
    {
      "id": 105,
      "x": 50.0,
      "y": 3.0
    },
    {
      "id": 106,
      "x": -36.0,
      "y": 37.0
    },
    {
      "id": 107,
      "x": 8.0,
      "y": -41.0
    },
    {
      "id": 108,
      "x": -19.0,
      "y": -14.0
    },
    {
      "id": 109,
      "x": 7.0,
      "y": -41.0
    },
    {
      "id": 110,
      "x": 3.0,
      "y": 20.0
    },
    {
      "id": 111,
      "x": 10.0,
      "y": 18.0
    },
    {
      "id": 112,
      "x": 6.0,
      "y": -39.0
    },
    {
      "id": 113,
      "x": 23.0,
      "y": 19.0
    },
    {
      "id": 114,
      "x": -47.0,
      "y": 36.0
    },
    {
      "id": 115,
      "x": 43.0,
      "y": 9.0
    },
    {
      "id": 116,
      "x": 33.0,
      "y": -27.0
    },
    {
      "id": 117,
      "x": 31.0,
      "y": -30.0
    },
    {
      "id": 118,
      "x": 46.0,
      "y": 9.0
    },
    {
      "id": 119,
      "x": -27.0,
      "y": -3.0
    },
    {
      "id": 120,
      "x": 48.0,
      "y": 24.0
    },
    {
      "id": 121,
      "x": -42.0,
      "y": 45.0
    },
    {
      "id": 122,
      "x": -38.0,
      "y": -32.0
    },
    {
      "id": 123,
      "x": 11.0,
      "y": -31.0
    },
    {
      "id": 124,
      "x": -42.0,
      "y": 48.0
    },
    {
      "id": 125,
      "x": 5.0,
      "y": -40.0
    },
    {
      "id": 126,
      "x": -43.0,
      "y": -41.0
    },
    {
      "id": 127,
      "x": 4.0,
      "y": -35.0
    },
    {
      "id": 128,
      "x": -40.0,
      "y": -31.0
    },
    {
      "id": 129,
      "x": 48.0,
      "y": 33.0
    },
    {
      "id": 130,
      "x": 13.0,
      "y": -31.0
    },
    {
      "id": 131,
      "x": 24.0,
      "y": -18.0
    },
    {
      "id": 132,
      "x": -50.0,
      "y": 31.0
    },
    {
      "id": 133,
      "x": 34.0,
      "y": 27.0
    },
    {
      "id": 134,
      "x": -39.0,
      "y": -39.0
    },
    {
      "id": 135,
      "x": 7.0,
      "y": -38.0
    },
    {
      "id": 136,
      "x": -27.0,
      "y": -17.0
    },
    {
      "id": 137,
      "x": 11.0,
      "y": -38.0
    },
    {
      "id": 138,
      "x": 43.0,
      "y": -2.0
    },
    {
      "id": 139,
      "x": 35.0,
      "y": -16.0
    },
    {
      "id": 140,
      "x": 26.0,
      "y": 20.0
    },
    {
      "id": 141,
      "x": 34.0,
      "y": 42.0
    },
    {
      "id": 142,
      "x": 50.0,
      "y": 9.0
    },
    {
      "id": 143,
      "x": -24.0,
      "y": -36.0
    },
    {
      "id": 144,
      "x": 22.0,
      "y": -13.0
    },
    {
      "id": 145,
      "x": 7.0,
      "y": 41.0
    },
    {
      "id": 146,
      "x": 33.0,
      "y": -33.0
    },
    {
      "id": 147,
      "x": -21.0,
      "y": -15.0
    },
    {
      "id": 148,
      "x": -50.0,
      "y": 34.0
    },
    {
      "id": 149,
      "x": -34.0,
      "y": -32.0
    },
    {
      "id": 150,
      "x": 45.0,
      "y": 36.0
    }
  ],
  "truckCapacity": 200,
  "walkingSpeed": 0.3
}