{
  "bestKnownCost": 9.223372036854776e+18,
  "bestKnownDistance": 9.223372036854776e+18,
  "bestKnownSolution": "",
  "bestKnownTrucks": 9223372036854775807,
  "bestKnownWorkers": 9223372036854775807,
  "bestSolutionTime": "",
  "clients": [
    {
      "demand": 2.0,
      "est": 294.0,
      "id": 51,
      "lst": 324.0,
      "st": 4.0,
      "x": 44.0,
      "y": 42.0
    },
    {
      "demand": 1.0,
      "est": 239.0,
      "id": 52,
      "lst": 331.0,
      "st": 11.0,
      "x": 4.0,
      "y": -33.0
    },
    {
      "demand": 5.0,
      "est": 226.0,
      "id": 53,
      "lst": 334.0,
      "st": 3.0,
      "x": -28.0,
      "y": -17.0
    },
    {
      "demand": 3.0,
      "est": 354.0,
      "id": 54,
      "lst": 404.0,
      "st": 13.0,
      "x": 5.0,
      "y": 27.0
    },
    {
      "demand": 4.0,
      "est": 192.0,
      "id": 55,
      "lst": 224.0,
      "st": 15.0,
      "x": 46.0,
      "y": -1.0
    },
    {
      "demand": 1.0,
      "est": 200.0,
      "id": 56,
      "lst": 274.0,
      "st": 9.0,
      "x": 28.0,
      "y": -17.0
    },
    {
      "demand": 5.0,
      "est": 137.0,
      "id": 57,
      "lst": 233.0,
      "st": 9.0,
      "x": 39.0,
      "y": -30.0
    },
    {
      "demand": 4.0,
      "est": 29.0,
      "id": 58,
      "lst": 111.0,
      "st": 9.0,
      "x": -4.0,
      "y": 20.0
    },
    {
      "demand": 2.0,
      "est": 151.0,
      "id": 59,
      "lst": 229.0,
      "st": 13.0,
      "x": 36.0,
      "y": 47.0
    },
    {
      "demand": 1.0,
      "est": 334.0,
      "id": 60,
      "lst": 402.0,
      "st": 11.0,
      "x": 34.0,
      "y": -39.0
    },
    {
      "demand": 1.0,
      "est": 331.0,
      "id": 61,
      "lst": 389.0,
      "st": 5.0,
      "x": 45.0,
      "y": 28.0
    },
    {
      "demand": 3.0,
      "est": 225.0,
      "id": 62,
      "lst": 259.0,
      "st": 10.0,
      "x": -37.0,
      "y": 32.0
    },
    {
      "demand": 3.0,
      "est": 241.0,
      "id": 63,
      "lst": 355.0,
      "st": 14.0,
      "x": -40.0,
      "y": -39.0
    },
    {
      "demand": 3.0,
      "est": 228.0,
      "id": 64,
      "lst": 334.0,
      "st": 3.0,
      "x": 17.0,
      "y": -18.0
    },
    {
      "demand": 5.0,
      "est": 43.0,
      "id": 65,
      "lst": 139.0,
      "st": 10.0,
      "x": -30.0,
      "y": -16.0
    },
    {
      "demand": 2.0,
      "est": 125.0,
      "id": 66,
      "lst": 219.0,
      "st": 7.0,
      "x": 19.0,
      "y": -17.0
    },
    {
      "demand": 3.0,
      "est": 334.0,
      "id": 67,
      "lst": 406.0,
      "st": 11.0,
      "x": 25.0,
      "y": 24.0
    },
    {
      "demand": 3.0,
      "est": 90.0,
      "id": 68,
      "lst": 190.0,
      "st": 6.0,
      "x": -7.0,
      "y": 23.0
    },
    {
      "demand": 2.0,
      "est": 214.0,
      "id": 69,
      "lst": 250.0,
      "st": 5.0,
      "x": 4.0,
      "y": -40.0
    },
    {
      "demand": 4.0,
      "est": 279.0,
      "id": 70,
      "lst": 367.0,
      "st": 4.0,
      "x": 28.0,
      "y": 11.0
    },
    {
      "demand": 2.0,
      "est": 158.0,
      "id": 71,
      "lst": 234.0,
      "st": 12.0,
      "x": 23.0,
      "y": -25.0
    },
    {
      "demand": 3.0,
      "est": 182.0,
      "id": 72,
      "lst": 224.0,
      "st": 12.0,
      "x": -35.0,
      "y": 36.0
    },
    {
      "demand": 2.0,
      "est": 117.0,
      "id": 73,
      "lst": 151.0,
      "st": 11.0,
      "x": -3.0,
      "y": 19.0
    },
    {
      "demand": 5.0,
      "est": 218.0,
      "id": 74,
      "lst": 264.0,
      "st": 7.0,
      "x": 46.0,
      "y": 3.0
    },
    {
      "demand": 3.0,
      "est": 166.0,
      "id": 75,
      "lst": 254.0,
      "st": 9.0,
      "x": 12.0,
      "y": -40.0
    },
    {
      "demand": 5.0,
      "est": 293.0,
      "id": 76,
      "lst": 365.0,
      "st": 6.0,
      "x": 20.0,
      "y": -15.0
    },
    {
      "demand": 3.0,
      "est": 247.0,
      "id": 77,
      "lst": 297.0,
      "st": 6.0,
      "x": 46.0,
      "y": 14.0
    },
    {
      "demand": 2.0,
      "est": 169.0,
      "id": 78,
      "lst": 285.0,
      "st": 13.0,
      "x": -38.0,
      "y": 44.0
    },
    {
      "demand": 2.0,
      "est": 241.0,
      "id": 79,
      "lst": 339.0,
      "st": 5.0,
      "x": -41.0,
      "y": 41.0
    },
    {
      "demand": 5.0,
      "est": 316.0,
      "id": 80,
      "lst": 350.0,
      "st": 7.0,
      "x": 43.0,
      "y": 12.0
    },
    {
      "demand": 1.0,
      "est": 257.0,
      "id": 81,
      "lst": 291.0,
      "st": 4.0,
      "x": -38.0,
      "y": 28.0
    },
    {
      "demand": 2.0,
      "est": 151.0,
      "id": 82,
      "lst": 231.0,
      "st": 4.0,
      "x": 38.0,
      "y": -34.0
    },
    {
      "demand": 5.0,
      "est": 87.0,
      "id": 83,
      "lst": 157.0,
      "st": 15.0,
      "x": 11.0,
      "y": -34.0
    },
    {
      "demand": 1.0,
      "est": 115.0,
      "id": 84,
      "lst": 231.0,
      "st": 4.0,
      "x": -6.0,
      "y": 18.0
    },
    {
      "demand": 4.0,
      "est": 256.0,
      "id": 85,
      "lst": 306.0,
      "st": 6.0,
      "x": -22.0,
      "y": -4.0
    },
    {
      "demand": 5.0,
      "est": 174.0,
      "id": 86,
      "lst": 278.0,
      "st": 10.0,
      "x": -46.0,
      "y": 28.0
    },
    {
      "demand": 1.0,
      "est": 110.0,
      "id": 87,
      "lst": 174.0,
      "st": 15.0,
      "x": 50.0,
      "y": 7.0
    },
    {
      "demand": 5.0,
      "est": 258.0,
      "id": 88,
      "lst": 302.0,
      "st": 5.0,
      "x": 42.0,
      "y": 22.0
    },
    {
      "demand": 5.0,
      "est": 244.0,
      "id": 89,
      "lst": 320.0,
      "st": 4.0,
      "x": 38.0,
      "y": -17.0
    },
    {
      "demand": 3.0,
      "est": 239.0,
      "id": 90,
      "lst": 295.0,
      "st": 12.0,
      "x": 32.0,
      "y": -37.0
    },
    {
      "demand": 2.0,
      "est": 223.0,
      "id": 91,
      "lst": 297.0,
      "st": 4.0,
      "x": 31.0,
      "y": -21.0
    },
    {
      "demand": 5.0,
      "est": 217.0,
      "id": 92,
      "lst": 309.0,
      "st": 14.0,
      "x": 37.0,
      "y": -35.0
    },
    {
      "demand": 1.0,
      "est": 72.0,
      "id": 93,
      "lst": 186.0,
      "st": 3.0,
      "x": 30.0,
      "y": 45.0
    },
    {
      "demand": 1.0,
      "est": 112.0,
      "id": 94,
      "lst": 148.0,
      "st": 3.0,
      "x": -48.0,
      "y": 43.0
    },
    {
      "demand": 2.0,
      "est": 268.0,
      "id": 95,
      "lst": 378.0,
      "st": 5.0,
      "x": 32.0,
      "y": 50.0
    },
    {
      "demand": 5.0,
      "est": 339.0,
      "id": 96,
      "lst": 405.0,
      "st": 14.0,
      "x": -31.0,
      "y": -41.0
    },
    {
      "demand": 5.0,
      "est": 304.0,
      "id": 97,
      "lst": 422.0,
      "st": 3.0,
      "x": 48.0,
      "y": 27.0
    },
    {
      "demand": 4.0,
      "est": 137.0,
      "id": 98,
      "lst": 201.0,
      "st": 11.0,
      "x": 34.0,
      "y": 48.0
    },
    {
      "demand": 4.0,
      "est": 295.0,
      "id": 99,
      "lst": 343.0,
      "st": 11.0,
      "x": 10.0,
      "y": -31.0
    },
    {
      "demand": 5.0,
      "est": 204.0,
      "id": 100,
      "lst": 280.0,
      "st": 11.0,
      "x": 36.0,
      "y": 50.0
    },
    {
      "demand": 3.0,
      "est": 121.0,
      "id": 101,
      "lst": 181.0,
      "st": 8.0,
      "x": 12.0,
      "y": -33.0
    },
    {
      "demand": 2.0,
      "est": 232.0,
      "id": 102,
      "lst": 280.0,
      "st": 9.0,
      "x": 38.0,
      "y": -21.0
    },
    {
      "demand": 1.0,
      "est": 71.0,
      "id": 103,
      "lst": 181.0,
      "st": 13.0,
      "x": 24.0,
      "y": -18.0
    },
    {
      "demand": 1.0,
      "est": 380.0,
      "id": 104,
      "lst": 438.0,
      "st": 8.0,
      "x": 0.0,
      "y": 36.0
    },
    {
      "demand": 1.0,
      "est": 132.0,
      "id": 105,
      "lst": 192.0,
      "st": 6.0,
      "x": -20.0,
      "y": -9.0
    },
    {
      "demand": 4.0,
      "est": 193.0,
      "id": 106,
      "lst": 267.0,
      "st": 3.0,
      "x": -47.0,
      "y": 32.0
    },
    {
      "demand": 2.0,
      "est": 107.0,
      "id": 107,
      "lst": 179.0,
      "st": 13.0,
      "x": 8.0,
      "y": -40.0
    },
    {
      "demand": 4.0,
      "est": 120.0,
      "id": 108,
      "lst": 190.0,
      "st": 8.0,
      "x": 6.0,
      "y": -39.0
    },
    {
      "demand": 3.0,
      "est": 133.0,
      "id": 109,
      "lst": 199.0,
      "st": 15.0,
      "x": 35.0,
      "y": 50.0
    },
    {
      "demand": 5.0,
      "est": 210.0,
      "id": 110,
      "lst": 302.0,
      "st": 5.0,
      "x": -33.0,
      "y": -49.0
    },
    {
      "demand": 1.0,
      "est": 66.0,
      "id": 111,
      "lst": 162.0,
      "st": 3.0,
      "x": -19.0,
      "y": -5.0
    },
    {
      "demand": 3.0,
      "est": 195.0,
      "id": 112,
      "lst": 241.0,
      "st": 5.0,
      "x": 32.0,
      "y": 11.0
    },
    {
      "demand": 2.0,
      "est": 321.0,
      "id": 113,
      "lst": 411.0,
      "st": 7.0,
      "x": -18.0,
      "y": -12.0
    },
    {
      "demand": 3.0,
      "est": 120.0,
      "id": 114,
      "lst": 154.0,
      "st": 4.0,
      "x": 46.0,
      "y": 30.0
    },
    {
      "demand": 2.0,
      "est": 109.0,
      "id": 115,
      "lst": 205.0,
      "st": 7.0,
      "x": -41.0,
      "y": 40.0
    },
    {
      "demand": 2.0,
      "est": 244.0,
      "id": 116,
      "lst": 274.0,
      "st": 3.0,
      "x": 34.0,
      "y": -42.0
    },
    {
      "demand": 4.0,
      "est": 197.0,
      "id": 117,
      "lst": 315.0,
      "st": 6.0,
      "x": -11.0,
      "y": 33.0
    },
    {
      "demand": 3.0,
      "est": 384.0,
      "id": 118,
      "lst": 420.0,
      "st": 3.0,
      "x": -27.0,
      "y": -8.0
    },
    {
      "demand": 3.0,
      "est": 145.0,
      "id": 119,
      "lst": 213.0,
      "st": 13.0,
      "x": -42.0,
      "y": 47.0
    },
    {
      "demand": 3.0,
      "est": 190.0,
      "id": 120,
      "lst": 298.0,
      "st": 8.0,
      "x": 34.0,
      "y": -33.0
    },
    {
      "demand": 3.0,
      "est": 350.0,
      "id": 121,
      "lst": 408.0,
      "st": 5.0,
      "x": 31.0,
      "y": -36.0
    },
    {
      "demand": 5.0,
      "est": 21.0,
      "id": 122,
      "lst": 137.0,
      "st": 10.0,
      "x": 31.0,
      "y": 42.0
    },
    {
      "demand": 2.0,
      "est": 295.0,
      "id": 123,
      "lst": 339.0,
      "st": 5.0,
      "x": 45.0,
      "y": 42.0
    },
    {
      "demand": 2.0,
      "est": 184.0,
      "id": 124,
      "lst": 270.0,
      "st": 4.0,
      "x": -9.0,
      "y": 31.0
    },
    {
      "demand": 4.0,
      "est": 240.0,
      "id": 125,
      "lst": 298.0,
      "st": 7.0,
      "x": -34.0,
      "y": -31.0
    },
    {
      "demand": 2.0,
      "est": 349.0,
      "id": 126,
      "lst": 425.0,
      "st": 3.0,
      "x": 35.0,
      "y": 47.0
    },
    {
      "demand": 1.0,
      "est": 291.0,
      "id": 127,
      "lst": 337.0,
      "st": 12.0,
      "x": 33.0,
      "y": 25.0
    },
    {
      "demand": 1.0,
      "est": 211.0,
      "id": 128,
      "lst": 241.0,
      "st": 13.0,
      "x": 49.0,
      "y": 27.0
    },
    {
      "demand": 3.0,
      "est": 272.0,
      "id": 129,
      "lst": 346.0,
      "st": 11.0,
      "x": 38.0,
      "y": -32.0
    },
    {
      "demand": 1.0,
      "est": 293.0,
      "id": 130,
      "lst": 345.0,
      "st": 8.0,
      "x": -27.0,
      "y": -9.0
    },
    {
      "demand": 4.0,
      "est": 99.0,
      "id": 131,
      "lst": 165.0,
      "st": 3.0,
      "x": -29.0,
      "y": -46.0
    },
    {
      "demand": 1.0,
      "est": 202.0,
      "id": 132,
      "lst": 320.0,
      "st": 12.0,
      "x": -48.0,
      "y": 41.0
    },
    {
      "demand": 2.0,
      "est": 248.0,
      "id": 133,
      "lst": 288.0,
      "st": 13.0,
      "x": -45.0,
      "y": 43.0
    },
    {
      "demand": 3.0,
      "est": 197.0,
      "id": 134,
      "lst": 275.0,
      "st": 8.0,
      "x": 30.0,
      "y": 47.0
    },
    {
      "demand": 4.0,
      "est": 54.0,
      "id": 135,
      "lst": 168.0,
      "st": 5.0,
      "x": 29.0,
      "y": 27.0
    },
    {
      "demand": 1.0,
      "est": 89.0,
      "id": 136,
      "lst": 147.0,
      "st": 14.0,
      "x": 31.0,
      "y": 48.0
    },
    {
      "demand": 2.0,
      "est": 77.0,
      "id": 137,
      "lst": 183.0,
      "st": 3.0,
      "x": -27.0,
      "y": -11.0
    },
    {
      "demand": 2.0,
      "est": 294.0,
      "id": 138,
      "lst": 384.0,
      "st": 6.0,
      "x": -44.0,
      "y": -32.0
    },
    {
      "demand": 5.0,
      "est": 278.0,
      "id": 139,
      "lst": 372.0,
      "st": 15.0,
      "x": -13.0,
      "y": -2.0
    },
    {
      "demand": 2.0,
      "est": 143.0,
      "id": 140,
      "lst": 211.0,
      "st": 9.0,
      "x": 37.0,
      "y": -44.0
    },
    {
      "demand": 2.0,
      "est": 234.0,
      "id": 141,
      "lst": 306.0,
      "st": 13.0,
      "x": 13.0,
      "y": -36.0
    },
    {
      "demand": 4.0,
      "est": 248.0,
      "id": 142,
      "lst": 324.0,
      "st": 8.0,
      "x": -45.0,
      "y": 45.0
    },
    {
      "demand": 1.0,
      "est": 210.0,
      "id": 143,
      "lst": 312.0,
      "st": 9.0,
      "x": 33.0,
      "y": 16.0
    },
    {
      "demand": 5.0,
      "est": 138.0,
      "id": 144,
      "lst": 170.0,
      "st": 15.0,
      "x": 45.0,
      "y": 25.0
    },
    {
      "demand": 4.0,
      "est": 175.0,
      "id": 145,
      "lst": 269.0,
      "st": 9.0,
      "x": 21.0,
      "y": -26.0
    },
    {
      "demand": 4.0,
      "est": 322.0,
      "id": 146,
      "lst": 354.0,
      "st": 5.0,
      "x": -20.0,
      "y": -16.0
    },
    {
      "demand": 5.0,
      "est": 287.0,
      "id": 147,
      "lst": 351.0,
      "st": 12.0,
      "x": 36.0,
      "y": -31.0
    },
    {
      "demand": 4.0,
      "est": 227.0,
      "id": 148,
      "lst": 325.0,
      "st": 12.0,
      "x": 50.0,
      "y": -2.0
    },
    {
      "demand": 3.0,
      "est": 285.0,
      "id": 149,
      "lst": 335.0,
      "st": 5.0,
      "x": -33.0,
      "y": -50.0
    },
    {
      "demand": 2.0,
      "est": 42.0,
      "id": 150,
      "lst": 160.0,
      "st": 13.0,
      "x": 30.0,
      "y": 30.0
    },
    {
      "demand": 4.0,
      "est": 190.0,
      "id": 151,
      "lst": 282.0,
      "st": 5.0,
      "x": -4.0,
      "y": 26.0
    },
    {
      "demand": 5.0,
      "est": 192.0,
      "id": 152,
      "lst": 258.0,
      "st": 8.0,
      "x": -37.0,
      "y": 33.0
    },
    {
      "demand": 1.0,
      "est": 129.0,
      "id": 153,
      "lst": 185.0,
      "st": 6.0,
      "x": -41.0,
      "y": 33.0
    },
    {
      "demand": 5.0,
      "est": 332.0,
      "id": 154,
      "lst": 432.0,
      "st": 7.0,
      "x": 36.0,
      "y": 48.0
    },
    {
      "demand": 1.0,
      "est": 322.0,
      "id": 155,
      "lst": 378.0,
      "st": 8.0,
      "x": 40.0,
      "y": -41.0
    },
    {
      "demand": 3.0,
      "est": 119.0,
      "id": 156,
      "lst": 201.0,
      "st": 15.0,
      "x": 29.0,
      "y": 29.0
    },
    {
      "demand": 2.0,
      "est": 136.0,
      "id": 157,
      "lst": 192.0,
      "st": 7.0,
      "x": -39.0,
      "y": -43.0
    },
    {
      "demand": 1.0,
      "est": 240.0,
      "id": 158,
      "lst": 348.0,
      "st": 7.0,
      "x": -25.0,
      "y": -7.0
    },
    {
      "demand": 2.0,
      "est": 326.0,
      "id": 159,
      "lst": 358.0,
      "st": 15.0,
      "x": 5.0,
      "y": -40.0
    },
    {
      "demand": 5.0,
      "est": 239.0,
      "id": 160,
      "lst": 315.0,
      "st": 15.0,
      "x": -47.0,
      "y": 36.0
    },
    {
      "demand": 2.0,
      "est": 62.0,
      "id": 161,
      "lst": 172.0,
      "st": 12.0,
      "x": 38.0,
      "y": 50.0
    },
    {
      "demand": 5.0,
      "est": 328.0,
      "id": 162,
      "lst": 440.0,
      "st": 10.0,
      "x": 44.0,
      "y": 35.0
    },
    {
      "demand": 3.0,
      "est": 338.0,
      "id": 163,
      "lst": 426.0,
      "st": 15.0,
      "x": 36.0,
      "y": -40.0
    },
    {
      "demand": 3.0,
      "est": 207.0,
      "id": 164,
      "lst": 247.0,
      "st": 5.0,
      "x": 33.0,
      "y": -27.0
    },
    {
      "demand": 1.0,
      "est": 310.0,
      "id": 165,
      "lst": 368.0,
      "st": 10.0,
      "x": -39.0,
      "y": -46.0
    },
    {
      "demand": 5.0,
      "est": 112.0,
      "id": 166,
      "lst": 172.0,
      "st": 8.0,
      "x": -13.0,
      "y": -16.0
    },
    {
      "demand": 3.0,
      "est": 111.0,
      "id": 167,
      "lst": 193.0,
      "st": 14.0,
      "x": 8.0,
      "y": 31.0
    },
    {
      "demand": 5.0,
      "est": 253.0,
      "id": 168,
      "lst": 309.0,
      "st": 7.0,
      "x": -15.0,
      "y": 1.0
    },
    {
      "demand": 4.0,
      "est": 238.0,
      "id": 169,
      "lst": 356.0,
      "st": 6.0,
      "x": 14.0,
      "y": -34.0
    },
    {
      "demand": 5.0,
      "est": 217.0,
      "id": 170,
      "lst": 305.0,
      "st": 13.0,
      "x": 50.0,
      "y": 1.0
    },
    {
      "demand": 2.0,
      "est": 42.0,
      "id": 171,
      "lst": 146.0,
      "st": 15.0,
      "x": -28.0,
      "y": -15.0
    },
    {
      "demand": 5.0,
      "est": 237.0,
      "id": 172,
      "lst": 335.0,
      "st": 5.0,
      "x": -37.0,
      "y": -31.0
    },
    {
      "demand": 1.0,
      "est": 123.0,
      "id": 173,
      "lst": 163.0,
      "st": 3.0,
      "x": 31.0,
      "y": 20.0
    },
    {
      "demand": 1.0,
      "est": 71.0,
      "id": 174,
      "lst": 103.0,
      "st": 9.0,
      "x": 40.0,
      "y": -42.0
    },
    {
      "demand": 3.0,
      "est": 354.0,
      "id": 175,
      "lst": 414.0,
      "st": 6.0,
      "x": 27.0,
      "y": 7.0
    },
    {
      "demand": 5.0,
      "est": 139.0,
      "id": 176,
      "lst": 179.0,
      "st": 4.0,
      "x": 47.0,
      "y": -1.0
    },
    {
      "demand": 1.0,
      "est": 215.0,
      "id": 177,
      "lst": 289.0,
      "st": 15.0,
      "x": -42.0,
      "y": -50.0
    },
    {
      "demand": 2.0,
      "est": 252.0,
      "id": 178,
      "lst": 284.0,
      "st": 7.0,
      "x": 31.0,
      "y": 43.0
    },
    {
      "demand": 3.0,
      "est": 243.0,
      "id": 179,
      "lst": 291.0,
      "st": 10.0,
      "x": 46.0,
      "y": 2.0
    },
    {
      "demand": 1.0,
      "est": 59.0,
      "id": 180,
      "lst": 141.0,
      "st": 4.0,
      "x": -48.0,
      "y": 48.0
    },
    {
      "demand": 2.0,
      "est": 116.0,
      "id": 181,
      "lst": 196.0,
      "st": 7.0,
      "x": -43.0,
      "y": 48.0
    },
    {
      "demand": 4.0,
      "est": 207.0,
      "id": 182,
      "lst": 261.0,
      "st": 5.0,
      "x": 8.0,
      "y": -37.0
    },
    {
      "demand": 2.0,
      "est": 148.0,
      "id": 183,
      "lst": 186.0,
      "st": 7.0,
      "x": -13.0,
      "y": 38.0
    },
    {
      "demand": 3.0,
      "est": 265.0,
      "id": 184,
      "lst": 317.0,
      "st": 12.0,
      "x": 10.0,
      "y": 18.0
    },
    {
      "demand": 1.0,
      "est": 171.0,
      "id": 185,
      "lst": 203.0,
      "st": 5.0,
      "x": -36.0,
      "y": 48.0
    },
    {
      "demand": 5.0,
      "est": 62.0,
      "id": 186,
      "lst": 180.0,
      "st": 8.0,
      "x": -33.0,
      "y": -41.0
    },
    {
      "demand": 1.0,
      "est": 167.0,
      "id": 187,
      "lst": 219.0,
      "st": 13.0,
      "x": 24.0,
      "y": -17.0
    },
    {
      "demand": 3.0,
      "est": 238.0,
      "id": 188,
      "lst": 324.0,
      "st": 14.0,
      "x": -12.0,
      "y": 18.0
    },
    {
      "demand": 5.0,
      "est": 43.0,
      "id": 189,
      "lst": 93.0,
      "st": 12.0,
      "x": 11.0,
      "y": -33.0
    },
    {
      "demand": 2.0,
      "est": 307.0,
      "id": 190,
      "lst": 389.0,
      "st": 6.0,
      "x": 32.0,
      "y": 24.0
    },
    {
      "demand": 2.0,
      "est": 214.0,
      "id": 191,
      "lst": 248.0,
      "st": 14.0,
      "x": -14.0,
      "y": -4.0
    },
    {
      "demand": 2.0,
      "est": 275.0,
      "id": 192,
      "lst": 333.0,
      "st": 6.0,
      "x": -41.0,
      "y": 45.0
    },
    {
      "demand": 4.0,
      "est": 193.0,
      "id": 193,
      "lst": 285.0,
      "st": 4.0,
      "x": 33.0,
      "y": -44.0
    },
    {
      "demand": 1.0,
      "est": 324.0,
      "id": 194,
      "lst": 438.0,
      "st": 11.0,
      "x": 11.0,
      "y": -32.0
    },
    {
      "demand": 1.0,
      "est": 227.0,
      "id": 195,
      "lst": 289.0,
      "st": 9.0,
      "x": -2.0,
      "y": 23.0
    },
    {
      "demand": 2.0,
      "est": 271.0,
      "id": 196,
      "lst": 307.0,
      "st": 15.0,
      "x": -36.0,
      "y": -31.0
    },
    {
      "demand": 2.0,
      "est": 294.0,
      "id": 197,
      "lst": 408.0,
      "st": 8.0,
      "x": 37.0,
      "y": -31.0
    },
    {
      "demand": 2.0,
      "est": 354.0,
      "id": 198,
      "lst": 388.0,
      "st": 7.0,
      "x": 33.0,
      "y": 45.0
    },
    {
      "demand": 1.0,
      "est": 274.0,
      "id": 199,
      "lst": 354.0,
      "st": 6.0,
      "x": -43.0,
      "y": -32.0
    },
    {
      "demand": 5.0,
      "est": 144.0,
      "id": 200,
      "lst": 244.0,
      "st": 9.0,
      "x": 23.0,
      "y": 21.0
    },
    {
      "demand": 4.0,
      "est": 109.0,
      "id": 201,
      "lst": 191.0,
      "st": 8.0,
      "x": 12.0,
      "y": 30.0
    },
    {
      "demand": 1.0,
      "est": 237.0,
      "id": 202,
      "lst": 301.0,
      "st": 15.0,
      "x": 37.0,
      "y": 43.0
    },
    {
      "demand": 3.0,
      "est": 107.0,
      "id": 203,
      "lst": 223.0,
      "st": 15.0,
      "x": -25.0,
      "y": 1.0
    },
    {
      "demand": 3.0,
      "est": 80.0,
      "id": 204,
      "lst": 146.0,
      "st": 3.0,
      "x": 42.0,
      "y": -33.0
    },
    {
      "demand": 5.0,
      "est": 132.0,
      "id": 205,
      "lst": 184.0,
      "st": 14.0,
      "x": 43.0,
      "y": 8.0
    },
    {
      "demand": 2.0,
      "est": 206.0,
      "id": 206,
      "lst": 256.0,
      "st": 12.0,
      "x": -38.0,
      "y": -29.0
    },
    {
      "demand": 1.0,
      "est": 323.0,
      "id": 207,
      "lst": 359.0,
      "st": 13.0,
      "x": 27.0,
      "y": 15.0
    },
    {
      "demand": 4.0,
      "est": 184.0,
      "id": 208,
      "lst": 232.0,
      "st": 15.0,
      "x": 11.0,
      "y": 16.0
    },
    {
      "demand": 5.0,
      "est": 378.0,
      "id": 209,
      "lst": 454.0,
      "st": 9.0,
      "x": 27.0,
      "y": -22.0
    },
    {
      "demand": 4.0,
      "est": 275.0,
      "id": 210,
      "lst": 383.0,
      "st": 6.0,
      "x": -15.0,
      "y": -6.0
    },
    {
      "demand": 2.0,
      "est": 167.0,
      "id": 211,
      "lst": 199.0,
      "st": 6.0,
      "x": 44.0,
      "y": 40.0
    },
    {
      "demand": 1.0,
      "est": 250.0,
      "id": 212,
      "lst": 332.0,
      "st": 12.0,
      "x": 38.0,
      "y": 46.0
    },
    {
      "demand": 1.0,
      "est": 220.0,
      "id": 213,
      "lst": 326.0,
      "st": 15.0,
      "x": 46.0,
      "y": 11.0
    },
    {
      "demand": 1.0,
      "est": 280.0,
      "id": 214,
      "lst": 322.0,
      "st": 7.0,
      "x": 49.0,
      "y": 31.0
    },
    {
      "demand": 3.0,
      "est": 236.0,
      "id": 215,
      "lst": 308.0,
      "st": 12.0,
      "x": 33.0,
      "y": 17.0
    },
    {
      "demand": 4.0,
      "est": 76.0,
      "id": 216,
      "lst": 172.0,
      "st": 14.0,
      "x": 34.0,
      "y": 49.0
    },
    {
      "demand": 2.0,
      "est": 273.0,
      "id": 217,
      "lst": 381.0,
      "st": 3.0,
      "x": 33.0,
      "y": 47.0
    },
    {
      "demand": 3.0,
      "est": 323.0,
      "id": 218,
      "lst": 395.0,
      "st": 4.0,
      "x": 32.0,
      "y": -22.0
    },
    {
      "demand": 1.0,
      "est": 175.0,
      "id": 219,
      "lst": 269.0,
      "st": 5.0,
      "x": 24.0,
      "y": 11.0
    },
    {
      "demand": 1.0,
      "est": 240.0,
      "id": 220,
      "lst": 324.0,
      "st": 7.0,
      "x": 34.0,
      "y": 21.0
    },
    {
      "demand": 3.0,
      "est": 316.0,
      "id": 221,
      "lst": 424.0,
      "st": 3.0,
      "x": 30.0,
      "y": 9.0
    },
    {
      "demand": 2.0,
      "est": 24.0,
      "id": 222,
      "lst": 108.0,
      "st": 6.0,
      "x": 23.0,
      "y": 8.0
    },
    {
      "demand": 3.0,
      "est": 124.0,
      "id": 223,
      "lst": 218.0,
      "st": 4.0,
      "x": 38.0,
      "y": 44.0
    },
    {
      "demand": 3.0,
      "est": 355.0,
      "id": 224,
      "lst": 425.0,
      "st": 3.0,
      "x": 4.0,
      "y": -34.0
    },
    {
      "demand": 3.0,
      "est": 147.0,
      "id": 225,
      "lst": 179.0,
      "st": 6.0,
      "x": 25.0,
      "y": 16.0
    },
    {
      "demand": 3.0,
      "est": 90.0,
      "id": 226,
      "lst": 194.0,
      "st": 12.0,
      "x": -43.0,
      "y": -38.0
    },
    {
      "demand": 1.0,
      "est": 192.0,
      "id": 227,
      "lst": 304.0,
      "st": 5.0,
      "x": -48.0,
      "y": 29.0
    },
    {
      "demand": 2.0,
      "est": 184.0,
      "id": 228,
      "lst": 220.0,
      "st": 7.0,
      "x": 30.0,
      "y": -23.0
    },
    {
      "demand": 5.0,
      "est": 65.0,
      "id": 229,
      "lst": 107.0,
      "st": 9.0,
      "x": 20.0,
      "y": -12.0
    },
    {
      "demand": 1.0,
      "est": 353.0,
      "id": 230,
      "lst": 407.0,
      "st": 10.0,
      "x": 12.0,
      "y": -41.0
    },
    {
      "demand": 4.0,
      "est": 232.0,
      "id": 231,
      "lst": 262.0,
      "st": 12.0,
      "x": 36.0,
      "y": -25.0
    },
    {
      "demand": 2.0,
      "est": 140.0,
      "id": 232,
      "lst": 172.0,
      "st": 11.0,
      "x": 47.0,
      "y": 8.0
    },
    {
      "demand": 2.0,
      "est": 81.0,
      "id": 233,
      "lst": 125.0,
      "st": 7.0,
      "x": -11.0,
      "y": 16.0
    },
    {
      "demand": 3.0,
      "est": 209.0,
      "id": 234,
      "lst": 249.0,
      "st": 15.0,
      "x": 32.0,
      "y": 48.0
    },
    {
      "demand": 5.0,
      "est": 235.0,
      "id": 235,
      "lst": 287.0,
      "st": 12.0,
      "x": 15.0,
      "y": -15.0
    },
    {
      "demand": 5.0,
      "est": 289.0,
      "id": 236,
      "lst": 391.0,
      "st": 14.0,
      "x": -45.0,
      "y": -40.0
    },
    {
      "demand": 5.0,
      "est": 239.0,
      "id": 237,
      "lst": 289.0,
      "st": 9.0,
      "x": 25.0,
      "y": -17.0
    },
    {
      "demand": 1.0,
      "est": 163.0,
      "id": 238,
      "lst": 281.0,
      "st": 14.0,
      "x": 48.0,
      "y": 8.0
    },
    {
      "demand": 1.0,
      "est": 61.0,
      "id": 239,
      "lst": 155.0,
      "st": 8.0,
      "x": 10.0,
      "y": -40.0
    },
    {
      "demand": 4.0,
      "est": 163.0,
      "id": 240,
      "lst": 223.0,
      "st": 13.0,
      "x": -12.0,
      "y": 23.0
    },
    {
      "demand": 5.0,
      "est": 91.0,
      "id": 241,
      "lst": 123.0,
      "st": 10.0,
      "x": -12.0,
      "y": -17.0
    },
    {
      "demand": 3.0,
      "est": 162.0,
      "id": 242,
      "lst": 214.0,
      "st": 4.0,
      "x": 31.0,
      "y": 26.0
    },
    {
      "demand": 1.0,
      "est": 96.0,
      "id": 243,
      "lst": 172.0,
      "st": 10.0,
      "x": -23.0,
      "y": 3.0
    },
    {
      "demand": 5.0,
      "est": 346.0,
      "id": 244,
      "lst": 418.0,
      "st": 8.0,
      "x": 0.0,
      "y": 30.0
    },
    {
      "demand": 4.0,
      "est": 361.0,
      "id": 245,
      "lst": 393.0,
      "st": 11.0,
      "x": 30.0,
      "y": 23.0
    },
    {
      "demand": 4.0,
      "est": 71.0,
      "id": 246,
      "lst": 121.0,
      "st": 13.0,
      "x": 34.0,
      "y": 50.0
    },
    {
      "demand": 5.0,
      "est": 301.0,
      "id": 247,
      "lst": 375.0,
      "st": 7.0,
      "x": -39.0,
      "y": 38.0
    },
    {
      "demand": 5.0,
      "est": 372.0,
      "id": 248,
      "lst": 434.0,
      "st": 8.0,
      "x": -18.0,
      "y": -1.0
    },
    {
      "demand": 3.0,
      "est": 306.0,
      "id": 249,
      "lst": 338.0,
      "st": 4.0,
      "x": -45.0,
      "y": 36.0
    },
    {
      "demand": 3.0,
      "est": 265.0,
      "id": 250,
      "lst": 381.0,
      "st": 15.0,
      "x": 33.0,
      "y": 42.0
    }
  ],
  "costDistance": 0.0001,
  "costTruck": 1,
  "costWorker": 0.1,
  "depot": {
    "est": 0.0,
    "id": 0,
    "lst": 480.0,
    "x": -3.0,
    "y": -1.0
  },
  "description": "clustered, 200 clients, 50 parkings, wide time windows, normal walking speed",
  "name": "c200.050.w.2",
  "optimumKnown": false,
  "parkings": [
    {
      "id": 1,
      "x": 38.0,
      "y": 45.0
    },
    {
      "id": 2,
      "x": 34.0,
      "y": -19.0
    },
    {
      "id": 3,
      "x": 4.0,
      "y": 22.0
    },
    {
      "id": 4,
      "x": 32.0,
      "y": 15.0
    },
    {
      "id": 5,
      "x": 40.0,
      "y": -36.0
    },
    {
      "id": 6,
      "x": -46.0,
      "y": -38.0
    },
    {
      "id": 7,
      "x": 24.0,
      "y": 7.0
    },
    {
      "id": 8,
      "x": 29.0,
      "y": 29.0
    },
    {
      "id": 9,
      "x": -49.0,
      "y": 46.0
    },
    {
      "id": 10,
      "x": 0.0,
      "y": 22.0
    },
    {
      "id": 11,
      "x": -12.0,
      "y": -13.0
    },
    {
      "id": 12,
      "x": 4.0,
      "y": 29.0
    },
    {
      "id": 13,
      "x": 49.0,
      "y": 35.0
    },
    {
      "id": 14,
      "x": 49.0,
      "y": 27.0
    },
    {
      "id": 15,
      "x": -4.0,
      "y": 17.0
    },
    {
      "id": 16,
      "x": 49.0,
      "y": 26.0
    },
    {
      "id": 17,
      "x": -29.0,
      "y": -15.0
    },
    {
      "id": 18,
      "x": 38.0,
      "y": 43.0
    },
    {
      "id": 19,
      "x": 9.0,
      "y": -33.0
    },
    {
      "id": 20,
      "x": 47.0,
      "y": 40.0
    },
    {
      "id": 21,
      "x": -6.0,
      "y": 37.0
    },
    {
      "id": 22,
      "x": 47.0,
      "y": 3.0
    },
    {
      "id": 23,
      "x": 19.0,
      "y": -24.0
    },
    {
      "id": 24,
      "x": -33.0,
      "y": -42.0
    },
    {
      "id": 25,
      "x": -14.0,
      "y": 39.0
    },
    {
      "id": 26,
      "x": 15.0,
      "y": -17.0
    },
    {
      "id": 27,
      "x": 46.0,
      "y": 40.0
    },
    {
      "id": 28,
      "x": 40.0,
      "y": -44.0
    },
    {
      "id": 29,
      "x": 5.0,
      "y": -35.0
    },
    {
      "id": 30,
      "x": -21.0,
      "y": -1.0
    },
    {
      "id": 31,
      "x": 32.0,
      "y": 47.0
    },
    {
      "id": 32,
      "x": 1.0,
      "y": 34.0
    },
    {
      "id": 33,
      "x": 27.0,
      "y": -22.0
    },
    {
      "id": 34,
      "x": -47.0,
      "y": -36.0
    },
    {
      "id": 35,
      "x": 36.0,
      "y": -40.0
    },
    {
      "id": 36,
      "x": 50.0,
      "y": 13.0
    },
    {
      "id": 37,
      "x": 38.0,
      "y": 47.0
    },
    {
      "id": 38,
      "x": 22.0,
      "y": -12.0
    },
    {
      "id": 39,
      "x": 37.0,
      "y": -38.0
    },
    {
      "id": 40,
      "x": -36.0,
      "y": 38.0
    },
    {
      "id": 41,
      "x": -30.0,
      "y": -8.0
    },
    {
      "id": 42,
      "x": 13.0,
      "y": -38.0
    },
    {
      "id": 43,
      "x": 25.0,
      "y": 24.0
    },
    {
      "id": 44,
      "x": 30.0,
      "y": 42.0
    },
    {
      "id": 45,
      "x": 31.0,
      "y": -37.0
    },
    {
      "id": 46,
      "x": 42.0,
      "y": 29.0
    },
    {
      "id": 47,
      "x": 42.0,
      "y": -36.0
    },
    {
      "id": 48,
      "x": 34.0,
      "y": 42.0
    },
    {
      "id": 49,
      "x": 44.0,
      "y": 37.0
    },
    {
      "id": 50,
      "x": 37.0,
      "y": -40.0
    }
  ],
  "truckCapacity": 200,
  "walkingSpeed": 0.2
}