{
  "bestKnownCost": 9.223372036854776e+18,
  "bestKnownDistance": 9.223372036854776e+18,
  "bestKnownSolution": "",
  "bestKnownTrucks": 9223372036854775807,
  "bestKnownWorkers": 9223372036854775807,
  "bestSolutionTime": "",
  "clients": [
    {
      "demand": 2.0,
      "est": 301.0,
      "id": 51,
      "lst": 349.0,
      "st": 10.0,
      "x": 26.0,
      "y": -6.0
    },
    {
      "demand": 5.0,
      "est": 116.0,
      "id": 52,
      "lst": 132.0,
      "st": 6.0,
      "x": 42.0,
      "y": -23.0
    },
    {
      "demand": 4.0,
      "est": 176.0,
      "id": 53,
      "lst": 228.0,
      "st": 12.0,
      "x": -16.0,
      "y": 20.0
    },
    {
      "demand": 4.0,
      "est": 150.0,
      "id": 54,
      "lst": 200.0,
      "st": 12.0,
      "x": 28.0,
      "y": -33.0
    },
    {
      "demand": 4.0,
      "est": 311.0,
      "id": 55,
      "lst": 357.0,
      "st": 14.0,
      "x": -25.0,
      "y": -24.0
    },
    {
      "demand": 2.0,
      "est": 117.0,
      "id": 56,
      "lst": 177.0,
      "st": 14.0,
      "x": -48.0,
      "y": 7.0
    },
    {
      "demand": 3.0,
      "est": 257.0,
      "id": 57,
      "lst": 281.0,
      "st": 15.0,
      "x": 49.0,
      "y": -2.0
    },
    {
      "demand": 5.0,
      "est": 301.0,
      "id": 58,
      "lst": 353.0,
      "st": 14.0,
      "x": -37.0,
      "y": -32.0
    },
    {
      "demand": 1.0,
      "est": 242.0,
      "id": 59,
      "lst": 296.0,
      "st": 11.0,
      "x": -29.0,
      "y": 22.0
    },
    {
      "demand": 2.0,
      "est": 358.0,
      "id": 60,
      "lst": 376.0,
      "st": 3.0,
      "x": -32.0,
      "y": 38.0
    },
    {
      "demand": 1.0,
      "est": 304.0,
      "id": 61,
      "lst": 346.0,
      "st": 8.0,
      "x": 45.0,
      "y": -42.0
    },
    {
      "demand": 1.0,
      "est": 336.0,
      "id": 62,
      "lst": 388.0,
      "st": 5.0,
      "x": -40.0,
      "y": -5.0
    },
    {
      "demand": 2.0,
      "est": 306.0,
      "id": 63,
      "lst": 362.0,
      "st": 9.0,
      "x": -48.0,
      "y": -30.0
    },
    {
      "demand": 2.0,
      "est": 54.0,
      "id": 64,
      "lst": 100.0,
      "st": 8.0,
      "x": 44.0,
      "y": -27.0
    },
    {
      "demand": 5.0,
      "est": 346.0,
      "id": 65,
      "lst": 382.0,
      "st": 13.0,
      "x": 3.0,
      "y": 12.0
    },
    {
      "demand": 2.0,
      "est": 152.0,
      "id": 66,
      "lst": 180.0,
      "st": 12.0,
      "x": 27.0,
      "y": 8.0
    },
    {
      "demand": 4.0,
      "est": 142.0,
      "id": 67,
      "lst": 190.0,
      "st": 9.0,
      "x": 44.0,
      "y": -1.0
    },
    {
      "demand": 4.0,
      "est": 279.0,
      "id": 68,
      "lst": 301.0,
      "st": 5.0,
      "x": 32.0,
      "y": 1.0
    },
    {
      "demand": 1.0,
      "est": 302.0,
      "id": 69,
      "lst": 348.0,
      "st": 6.0,
      "x": -26.0,
      "y": 37.0
    },
    {
      "demand": 2.0,
      "est": 143.0,
      "id": 70,
      "lst": 199.0,
      "st": 11.0,
      "x": 43.0,
      "y": -22.0
    },
    {
      "demand": 4.0,
      "est": 333.0,
      "id": 71,
      "lst": 387.0,
      "st": 12.0,
      "x": 3.0,
      "y": 21.0
    },
    {
      "demand": 3.0,
      "est": 269.0,
      "id": 72,
      "lst": 287.0,
      "st": 9.0,
      "x": -18.0,
      "y": -30.0
    },
    {
      "demand": 2.0,
      "est": 276.0,
      "id": 73,
      "lst": 330.0,
      "st": 10.0,
      "x": 22.0,
      "y": 30.0
    },
    {
      "demand": 1.0,
      "est": 214.0,
      "id": 74,
      "lst": 242.0,
      "st": 5.0,
      "x": -22.0,
      "y": 41.0
    },
    {
      "demand": 1.0,
      "est": 159.0,
      "id": 75,
      "lst": 189.0,
      "st": 6.0,
      "x": 18.0,
      "y": -13.0
    },
    {
      "demand": 3.0,
      "est": 177.0,
      "id": 76,
      "lst": 193.0,
      "st": 12.0,
      "x": -22.0,
      "y": 25.0
    },
    {
      "demand": 1.0,
      "est": 162.0,
      "id": 77,
      "lst": 222.0,
      "st": 13.0,
      "x": -3.0,
      "y": -15.0
    },
    {
      "demand": 5.0,
      "est": 236.0,
      "id": 78,
      "lst": 278.0,
      "st": 11.0,
      "x": -8.0,
      "y": 20.0
    },
    {
      "demand": 4.0,
      "est": 319.0,
      "id": 79,
      "lst": 337.0,
      "st": 14.0,
      "x": 38.0,
      "y": -35.0
    },
    {
      "demand": 4.0,
      "est": 200.0,
      "id": 80,
      "lst": 248.0,
      "st": 9.0,
      "x": -40.0,
      "y": -33.0
    },
    {
      "demand": 2.0,
      "est": 259.0,
      "id": 81,
      "lst": 291.0,
      "st": 8.0,
      "x": 28.0,
      "y": -28.0
    },
    {
      "demand": 2.0,
      "est": 86.0,
      "id": 82,
      "lst": 114.0,
      "st": 8.0,
      "x": -18.0,
      "y": 46.0
    },
    {
      "demand": 1.0,
      "est": 168.0,
      "id": 83,
      "lst": 220.0,
      "st": 9.0,
      "x": -33.0,
      "y": -18.0
    },
    {
      "demand": 2.0,
      "est": 252.0,
      "id": 84,
      "lst": 296.0,
      "st": 8.0,
      "x": 4.0,
      "y": 4.0
    },
    {
      "demand": 2.0,
      "est": 245.0,
      "id": 85,
      "lst": 291.0,
      "st": 9.0,
      "x": 47.0,
      "y": 43.0
    },
    {
      "demand": 1.0,
      "est": 185.0,
      "id": 86,
      "lst": 205.0,
      "st": 12.0,
      "x": 45.0,
      "y": -7.0
    },
    {
      "demand": 5.0,
      "est": 334.0,
      "id": 87,
      "lst": 384.0,
      "st": 14.0,
      "x": -29.0,
      "y": 3.0
    },
    {
      "demand": 1.0,
      "est": 55.0,
      "id": 88,
      "lst": 107.0,
      "st": 8.0,
      "x": 33.0,
      "y": -33.0
    },
    {
      "demand": 2.0,
      "est": 203.0,
      "id": 89,
      "lst": 237.0,
      "st": 10.0,
      "x": -19.0,
      "y": -34.0
    },
    {
      "demand": 4.0,
      "est": 213.0,
      "id": 90,
      "lst": 241.0,
      "st": 10.0,
      "x": 29.0,
      "y": 31.0
    },
    {
      "demand": 1.0,
      "est": 135.0,
      "id": 91,
      "lst": 187.0,
      "st": 10.0,
      "x": 30.0,
      "y": -16.0
    },
    {
      "demand": 1.0,
      "est": 204.0,
      "id": 92,
      "lst": 256.0,
      "st": 11.0,
      "x": -2.0,
      "y": 48.0
    },
    {
      "demand": 5.0,
      "est": 364.0,
      "id": 93,
      "lst": 418.0,
      "st": 4.0,
      "x": 6.0,
      "y": -11.0
    },
    {
      "demand": 2.0,
      "est": 146.0,
      "id": 94,
      "lst": 204.0,
      "st": 5.0,
      "x": -32.0,
      "y": -45.0
    },
    {
      "demand": 4.0,
      "est": 114.0,
      "id": 95,
      "lst": 130.0,
      "st": 15.0,
      "x": 34.0,
      "y": -34.0
    },
    {
      "demand": 2.0,
      "est": 167.0,
      "id": 96,
      "lst": 217.0,
      "st": 9.0,
      "x": -45.0,
      "y": -38.0
    },
    {
      "demand": 4.0,
      "est": 312.0,
      "id": 97,
      "lst": 370.0,
      "st": 5.0,
      "x": 3.0,
      "y": -36.0
    },
    {
      "demand": 1.0,
      "est": 301.0,
      "id": 98,
      "lst": 355.0,
      "st": 7.0,
      "x": -5.0,
      "y": -4.0
    },
    {
      "demand": 2.0,
      "est": 190.0,
      "id": 99,
      "lst": 234.0,
      "st": 7.0,
      "x": -27.0,
      "y": -30.0
    },
    {
      "demand": 3.0,
      "est": 246.0,
      "id": 100,
      "lst": 264.0,
      "st": 3.0,
      "x": 24.0,
      "y": -22.0
    },
    {
      "demand": 4.0,
      "est": 190.0,
      "id": 101,
      "lst": 244.0,
      "st": 13.0,
      "x": 49.0,
      "y": -13.0
    },
    {
      "demand": 1.0,
      "est": 281.0,
      "id": 102,
      "lst": 307.0,
      "st": 7.0,
      "x": -25.0,
      "y": -17.0
    },
    {
      "demand": 1.0,
      "est": 216.0,
      "id": 103,
      "lst": 272.0,
      "st": 11.0,
      "x": 46.0,
      "y": -31.0
    },
    {
      "demand": 1.0,
      "est": 276.0,
      "id": 104,
      "lst": 334.0,
      "st": 12.0,
      "x": 36.0,
      "y": -32.0
    },
    {
      "demand": 2.0,
      "est": 253.0,
      "id": 105,
      "lst": 309.0,
      "st": 13.0,
      "x": -19.0,
      "y": -14.0
    },
    {
      "demand": 3.0,
      "est": 91.0,
      "id": 106,
      "lst": 129.0,
      "st": 8.0,
      "x": -22.0,
      "y": 8.0
    },
    {
      "demand": 5.0,
      "est": 211.0,
      "id": 107,
      "lst": 249.0,
      "st": 5.0,
      "x": -45.0,
      "y": -43.0
    },
    {
      "demand": 1.0,
      "est": 351.0,
      "id": 108,
      "lst": 371.0,
      "st": 9.0,
      "x": 1.0,
      "y": 26.0
    },
    {
      "demand": 4.0,
      "est": 203.0,
      "id": 109,
      "lst": 225.0,
      "st": 7.0,
      "x": -38.0,
      "y": -49.0
    },
    {
      "demand": 5.0,
      "est": 116.0,
      "id": 110,
      "lst": 144.0,
      "st": 3.0,
      "x": 29.0,
      "y": -22.0
    },
    {
      "demand": 3.0,
      "est": 299.0,
      "id": 111,
      "lst": 345.0,
      "st": 14.0,
      "x": -8.0,
      "y": 12.0
    },
    {
      "demand": 1.0,
      "est": 399.0,
      "id": 112,
      "lst": 445.0,
      "st": 15.0,
      "x": 11.0,
      "y": -2.0
    },
    {
      "demand": 5.0,
      "est": 293.0,
      "id": 113,
      "lst": 329.0,
      "st": 11.0,
      "x": -34.0,
      "y": 43.0
    },
    {
      "demand": 4.0,
      "est": 340.0,
      "id": 114,
      "lst": 372.0,
      "st": 6.0,
      "x": -32.0,
      "y": -26.0
    },
    {
      "demand": 1.0,
      "est": 188.0,
      "id": 115,
      "lst": 202.0,
      "st": 10.0,
      "x": 29.0,
      "y": 43.0
    },
    {
      "demand": 4.0,
      "est": 209.0,
      "id": 116,
      "lst": 233.0,
      "st": 11.0,
      "x": -25.0,
      "y": -23.0
    },
    {
      "demand": 2.0,
      "est": 250.0,
      "id": 117,
      "lst": 308.0,
      "st": 8.0,
      "x": -27.0,
      "y": 18.0
    },
    {
      "demand": 5.0,
      "est": 192.0,
      "id": 118,
      "lst": 228.0,
      "st": 3.0,
      "x": 24.0,
      "y": -1.0
    },
    {
      "demand": 3.0,
      "est": 142.0,
      "id": 119,
      "lst": 168.0,
      "st": 8.0,
      "x": -11.0,
      "y": -33.0
    },
    {
      "demand": 5.0,
      "est": 154.0,
      "id": 120,
      "lst": 204.0,
      "st": 4.0,
      "x": -11.0,
      "y": 22.0
    },
    {
      "demand": 5.0,
      "est": 278.0,
      "id": 121,
      "lst": 302.0,
      "st": 8.0,
      "x": -49.0,
      "y": 36.0
    },
    {
      "demand": 1.0,
      "est": 292.0,
      "id": 122,
      "lst": 350.0,
      "st": 10.0,
      "x": 20.0,
      "y": 4.0
    },
    {
      "demand": 3.0,
      "est": 6.0,
      "id": 123,
      "lst": 30.0,
      "st": 11.0,
      "x": 16.0,
      "y": 5.0
    },
    {
      "demand": 3.0,
      "est": 150.0,
      "id": 124,
      "lst": 178.0,
      "st": 8.0,
      "x": -13.0,
      "y": -24.0
    },
    {
      "demand": 1.0,
      "est": 235.0,
      "id": 125,
      "lst": 259.0,
      "st": 15.0,
      "x": -5.0,
      "y": -38.0
    },
    {
      "demand": 1.0,
      "est": 162.0,
      "id": 126,
      "lst": 198.0,
      "st": 8.0,
      "x": 1.0,
      "y": -23.0
    },
    {
      "demand": 2.0,
      "est": 297.0,
      "id": 127,
      "lst": 341.0,
      "st": 9.0,
      "x": 25.0,
      "y": 31.0
    },
    {
      "demand": 1.0,
      "est": 124.0,
      "id": 128,
      "lst": 160.0,
      "st": 6.0,
      "x": -3.0,
      "y": -49.0
    },
    {
      "demand": 4.0,
      "est": 242.0,
      "id": 129,
      "lst": 278.0,
      "st": 4.0,
      "x": -40.0,
      "y": -48.0
    },
    {
      "demand": 4.0,
      "est": 291.0,
      "id": 130,
      "lst": 331.0,
      "st": 11.0,
      "x": -3.0,
      "y": 12.0
    },
    {
      "demand": 4.0,
      "est": 243.0,
      "id": 131,
      "lst": 281.0,
      "st": 12.0,
      "x": -4.0,
      "y": -41.0
    },
    {
      "demand": 2.0,
      "est": 233.0,
      "id": 132,
      "lst": 283.0,
      "st": 12.0,
      "x": 9.0,
      "y": -19.0
    },
    {
      "demand": 2.0,
      "est": 121.0,
      "id": 133,
      "lst": 171.0,
      "st": 11.0,
      "x": 45.0,
      "y": 14.0
    },
    {
      "demand": 2.0,
      "est": 205.0,
      "id": 134,
      "lst": 241.0,
      "st": 12.0,
      "x": 41.0,
      "y": 17.0
    },
    {
      "demand": 2.0,
      "est": 129.0,
      "id": 135,
      "lst": 173.0,
      "st": 4.0,
      "x": 40.0,
      "y": 17.0
    },
    {
      "demand": 5.0,
      "est": 108.0,
      "id": 136,
      "lst": 162.0,
      "st": 13.0,
      "x": 12.0,
      "y": -4.0
    },
    {
      "demand": 2.0,
      "est": 164.0,
      "id": 137,
      "lst": 184.0,
      "st": 3.0,
      "x": -22.0,
      "y": 18.0
    },
    {
      "demand": 3.0,
      "est": 311.0,
      "id": 138,
      "lst": 353.0,
      "st": 3.0,
      "x": 50.0,
      "y": -43.0
    },
    {
      "demand": 4.0,
      "est": 99.0,
      "id": 139,
      "lst": 115.0,
      "st": 13.0,
      "x": 4.0,
      "y": 33.0
    },
    {
      "demand": 2.0,
      "est": 177.0,
      "id": 140,
      "lst": 207.0,
      "st": 11.0,
      "x": -11.0,
      "y": -19.0
    },
    {
      "demand": 1.0,
      "est": 219.0,
      "id": 141,
      "lst": 243.0,
      "st": 4.0,
      "x": 12.0,
      "y": -38.0
    },
    {
      "demand": 5.0,
      "est": 138.0,
      "id": 142,
      "lst": 180.0,
      "st": 15.0,
      "x": 6.0,
      "y": -18.0
    },
    {
      "demand": 2.0,
      "est": 218.0,
      "id": 143,
      "lst": 246.0,
      "st": 8.0,
      "x": -8.0,
      "y": 34.0
    },
    {
      "demand": 1.0,
      "est": 233.0,
      "id": 144,
      "lst": 291.0,
      "st": 10.0,
      "x": -21.0,
      "y": 9.0
    },
    {
      "demand": 2.0,
      "est": 259.0,
      "id": 145,
      "lst": 299.0,
      "st": 6.0,
      "x": -47.0,
      "y": -5.0
    },
    {
      "demand": 1.0,
      "est": 295.0,
      "id": 146,
      "lst": 345.0,
      "st": 8.0,
      "x": 44.0,
      "y": -14.0
    },
    {
      "demand": 2.0,
      "est": 175.0,
      "id": 147,
      "lst": 217.0,
      "st": 15.0,
      "x": 1.0,
      "y": 3.0
    },
    {
      "demand": 5.0,
      "est": 269.0,
      "id": 148,
      "lst": 323.0,
      "st": 10.0,
      "x": -31.0,
      "y": 46.0
    },
    {
      "demand": 4.0,
      "est": 316.0,
      "id": 149,
      "lst": 342.0,
      "st": 12.0,
      "x": 29.0,
      "y": -40.0
    },
    {
      "demand": 1.0,
      "est": 261.0,
      "id": 150,
      "lst": 303.0,
      "st": 9.0,
      "x": -49.0,
      "y": -44.0
    },
    {
      "demand": 4.0,
      "est": 316.0,
      "id": 151,
      "lst": 356.0,
      "st": 5.0,
      "x": -42.0,
      "y": -24.0
    },
    {
      "demand": 3.0,
      "est": 255.0,
      "id": 152,
      "lst": 287.0,
      "st": 4.0,
      "x": -50.0,
      "y": -36.0
    },
    {
      "demand": 2.0,
      "est": 215.0,
      "id": 153,
      "lst": 247.0,
      "st": 11.0,
      "x": 23.0,
      "y": -50.0
    },
    {
      "demand": 5.0,
      "est": 118.0,
      "id": 154,
      "lst": 162.0,
      "st": 8.0,
      "x": -9.0,
      "y": -24.0
    },
    {
      "demand": 2.0,
      "est": 106.0,
      "id": 155,
      "lst": 158.0,
      "st": 14.0,
      "x": -32.0,
      "y": 2.0
    },
    {
      "demand": 3.0,
      "est": 145.0,
      "id": 156,
      "lst": 175.0,
      "st": 13.0,
      "x": 12.0,
      "y": -12.0
    },
    {
      "demand": 4.0,
      "est": 158.0,
      "id": 157,
      "lst": 198.0,
      "st": 12.0,
      "x": 6.0,
      "y": 18.0
    },
    {
      "demand": 1.0,
      "est": 377.0,
      "id": 158,
      "lst": 435.0,
      "st": 10.0,
      "x": 0.0,
      "y": -3.0
    },
    {
      "demand": 3.0,
      "est": 187.0,
      "id": 159,
      "lst": 243.0,
      "st": 3.0,
      "x": 29.0,
      "y": 14.0
    },
    {
      "demand": 3.0,
      "est": 279.0,
      "id": 160,
      "lst": 333.0,
      "st": 7.0,
      "x": -41.0,
      "y": 31.0
    },
    {
      "demand": 3.0,
      "est": 89.0,
      "id": 161,
      "lst": 131.0,
      "st": 8.0,
      "x": -34.0,
      "y": -15.0
    },
    {
      "demand": 1.0,
      "est": 282.0,
      "id": 162,
      "lst": 308.0,
      "st": 6.0,
      "x": 0.0,
      "y": 33.0
    },
    {
      "demand": 3.0,
      "est": 149.0,
      "id": 163,
      "lst": 201.0,
      "st": 5.0,
      "x": -1.0,
      "y": -13.0
    },
    {
      "demand": 5.0,
      "est": 132.0,
      "id": 164,
      "lst": 168.0,
      "st": 8.0,
      "x": 4.0,
      "y": 24.0
    },
    {
      "demand": 2.0,
      "est": 365.0,
      "id": 165,
      "lst": 393.0,
      "st": 14.0,
      "x": 8.0,
      "y": -34.0
    },
    {
      "demand": 4.0,
      "est": 230.0,
      "id": 166,
      "lst": 274.0,
      "st": 9.0,
      "x": -15.0,
      "y": -6.0
    },
    {
      "demand": 3.0,
      "est": 319.0,
      "id": 167,
      "lst": 361.0,
      "st": 3.0,
      "x": -31.0,
      "y": -9.0
    },
    {
      "demand": 1.0,
      "est": 153.0,
      "id": 168,
      "lst": 211.0,
      "st": 9.0,
      "x": 44.0,
      "y": -15.0
    },
    {
      "demand": 5.0,
      "est": 149.0,
      "id": 169,
      "lst": 203.0,
      "st": 7.0,
      "x": -7.0,
      "y": -27.0
    },
    {
      "demand": 5.0,
      "est": 274.0,
      "id": 170,
      "lst": 324.0,
      "st": 5.0,
      "x": 47.0,
      "y": -43.0
    },
    {
      "demand": 1.0,
      "est": 87.0,
      "id": 171,
      "lst": 131.0,
      "st": 14.0,
      "x": -4.0,
      "y": 18.0
    },
    {
      "demand": 5.0,
      "est": 99.0,
      "id": 172,
      "lst": 145.0,
      "st": 14.0,
      "x": -41.0,
      "y": -14.0
    },
    {
      "demand": 1.0,
      "est": 228.0,
      "id": 173,
      "lst": 262.0,
      "st": 12.0,
      "x": -46.0,
      "y": -15.0
    },
    {
      "demand": 5.0,
      "est": 218.0,
      "id": 174,
      "lst": 264.0,
      "st": 8.0,
      "x": 6.0,
      "y": 49.0
    },
    {
      "demand": 5.0,
      "est": 220.0,
      "id": 175,
      "lst": 274.0,
      "st": 6.0,
      "x": -30.0,
      "y": -27.0
    },
    {
      "demand": 4.0,
      "est": 237.0,
      "id": 176,
      "lst": 275.0,
      "st": 6.0,
      "x": -23.0,
      "y": 12.0
    },
    {
      "demand": 1.0,
      "est": 272.0,
      "id": 177,
      "lst": 318.0,
      "st": 14.0,
      "x": 32.0,
      "y": 41.0
    },
    {
      "demand": 3.0,
      "est": 225.0,
      "id": 178,
      "lst": 263.0,
      "st": 9.0,
      "x": 23.0,
      "y": 40.0
    },
    {
      "demand": 3.0,
      "est": 306.0,
      "id": 179,
      "lst": 352.0,
      "st": 15.0,
      "x": -14.0,
      "y": -7.0
    },
    {
      "demand": 5.0,
      "est": 201.0,
      "id": 180,
      "lst": 255.0,
      "st": 3.0,
      "x": -44.0,
      "y": 7.0
    },
    {
      "demand": 5.0,
      "est": 267.0,
      "id": 181,
      "lst": 285.0,
      "st": 5.0,
      "x": 8.0,
      "y": 26.0
    },
    {
      "demand": 5.0,
      "est": 59.0,
      "id": 182,
      "lst": 95.0,
      "st": 8.0,
      "x": -30.0,
      "y": -6.0
    },
    {
      "demand": 3.0,
      "est": 280.0,
      "id": 183,
      "lst": 326.0,
      "st": 14.0,
      "x": -24.0,
      "y": -30.0
    },
    {
      "demand": 1.0,
      "est": 194.0,
      "id": 184,
      "lst": 208.0,
      "st": 14.0,
      "x": 4.0,
      "y": -24.0
    },
    {
      "demand": 1.0,
      "est": 236.0,
      "id": 185,
      "lst": 260.0,
      "st": 3.0,
      "x": -6.0,
      "y": -17.0
    },
    {
      "demand": 3.0,
      "est": 192.0,
      "id": 186,
      "lst": 214.0,
      "st": 10.0,
      "x": 45.0,
      "y": -38.0
    },
    {
      "demand": 1.0,
      "est": 179.0,
      "id": 187,
      "lst": 203.0,
      "st": 9.0,
      "x": -43.0,
      "y": -29.0
    },
    {
      "demand": 5.0,
      "est": 236.0,
      "id": 188,
      "lst": 284.0,
      "st": 15.0,
      "x": 38.0,
      "y": 35.0
    },
    {
      "demand": 4.0,
      "est": 190.0,
      "id": 189,
      "lst": 212.0,
      "st": 13.0,
      "x": -39.0,
      "y": 0.0
    },
    {
      "demand": 4.0,
      "est": 212.0,
      "id": 190,
      "lst": 248.0,
      "st": 12.0,
      "x": -4.0,
      "y": 40.0
    },
    {
      "demand": 2.0,
      "est": 275.0,
      "id": 191,
      "lst": 317.0,
      "st": 13.0,
      "x": 34.0,
      "y": -20.0
    },
    {
      "demand": 5.0,
      "est": 205.0,
      "id": 192,
      "lst": 243.0,
      "st": 9.0,
      "x": -41.0,
      "y": 16.0
    },
    {
      "demand": 5.0,
      "est": 108.0,
      "id": 193,
      "lst": 154.0,
      "st": 10.0,
      "x": 9.0,
      "y": -41.0
    },
    {
      "demand": 3.0,
      "est": 318.0,
      "id": 194,
      "lst": 344.0,
      "st": 12.0,
      "x": 3.0,
      "y": -27.0
    },
    {
      "demand": 1.0,
      "est": 131.0,
      "id": 195,
      "lst": 175.0,
      "st": 14.0,
      "x": -14.0,
      "y": 43.0
    },
    {
      "demand": 4.0,
      "est": 272.0,
      "id": 196,
      "lst": 298.0,
      "st": 4.0,
      "x": -12.0,
      "y": 46.0
    },
    {
      "demand": 5.0,
      "est": 86.0,
      "id": 197,
      "lst": 134.0,
      "st": 13.0,
      "x": 9.0,
      "y": -39.0
    },
    {
      "demand": 1.0,
      "est": 111.0,
      "id": 198,
      "lst": 159.0,
      "st": 10.0,
      "x": 21.0,
      "y": -28.0
    },
    {
      "demand": 3.0,
      "est": 192.0,
      "id": 199,
      "lst": 244.0,
      "st": 13.0,
      "x": -50.0,
      "y": -7.0
    },
    {
      "demand": 2.0,
      "est": 151.0,
      "id": 200,
      "lst": 201.0,
      "st": 8.0,
      "x": -28.0,
      "y": 24.0
    },
    {
      "demand": 3.0,
      "est": 149.0,
      "id": 201,
      "lst": 187.0,
      "st": 8.0,
      "x": -49.0,
      "y": -41.0
    },
    {
      "demand": 5.0,
      "est": 202.0,
      "id": 202,
      "lst": 230.0,
      "st": 6.0,
      "x": -18.0,
      "y": 16.0
    },
    {
      "demand": 4.0,
      "est": 233.0,
      "id": 203,
      "lst": 259.0,
      "st": 12.0,
      "x": 8.0,
      "y": 8.0
    },
    {
      "demand": 4.0,
      "est": 338.0,
      "id": 204,
      "lst": 364.0,
      "st": 5.0,
      "x": 40.0,
      "y": -24.0
    },
    {
      "demand": 5.0,
      "est": 198.0,
      "id": 205,
      "lst": 256.0,
      "st": 4.0,
      "x": 42.0,
      "y": -35.0
    },
    {
      "demand": 2.0,
      "est": 119.0,
      "id": 206,
      "lst": 173.0,
      "st": 5.0,
      "x": 21.0,
      "y": -7.0
    },
    {
      "demand": 1.0,
      "est": 181.0,
      "id": 207,
      "lst": 235.0,
      "st": 9.0,
      "x": -40.0,
      "y": -38.0
    },
    {
      "demand": 5.0,
      "est": 309.0,
      "id": 208,
      "lst": 345.0,
      "st": 4.0,
      "x": 47.0,
      "y": -19.0
    },
    {
      "demand": 3.0,
      "est": 324.0,
      "id": 209,
      "lst": 350.0,
      "st": 11.0,
      "x": 30.0,
      "y": -4.0
    },
    {
      "demand": 3.0,
      "est": 273.0,
      "id": 210,
      "lst": 333.0,
      "st": 12.0,
      "x": 33.0,
      "y": -11.0
    },
    {
      "demand": 3.0,
      "est": 150.0,
      "id": 211,
      "lst": 180.0,
      "st": 8.0,
      "x": 46.0,
      "y": -44.0
    },
    {
      "demand": 5.0,
      "est": 172.0,
      "id": 212,
      "lst": 188.0,
      "st": 3.0,
      "x": -22.0,
      "y": -8.0
    },
    {
      "demand": 4.0,
      "est": 293.0,
      "id": 213,
      "lst": 309.0,
      "st": 15.0,
      "x": 50.0,
      "y": -29.0
    },
    {
      "demand": 3.0,
      "est": 207.0,
      "id": 214,
      "lst": 253.0,
      "st": 11.0,
      "x": 12.0,
      "y": -41.0
    },
    {
      "demand": 3.0,
      "est": 396.0,
      "id": 215,
      "lst": 428.0,
      "st": 4.0,
      "x": 35.0,
      "y": -17.0
    },
    {
      "demand": 3.0,
      "est": 251.0,
      "id": 216,
      "lst": 287.0,
      "st": 6.0,
      "x": 20.0,
      "y": 7.0
    },
    {
      "demand": 4.0,
      "est": 108.0,
      "id": 217,
      "lst": 150.0,
      "st": 12.0,
      "x": 42.0,
      "y": 34.0
    },
    {
      "demand": 2.0,
      "est": 225.0,
      "id": 218,
      "lst": 269.0,
      "st": 5.0,
      "x": -11.0,
      "y": 29.0
    },
    {
      "demand": 2.0,
      "est": 377.0,
      "id": 219,
      "lst": 427.0,
      "st": 7.0,
      "x": 0.0,
      "y": -9.0
    },
    {
      "demand": 5.0,
      "est": 240.0,
      "id": 220,
      "lst": 296.0,
      "st": 12.0,
      "x": 29.0,
      "y": -33.0
    },
    {
      "demand": 1.0,
      "est": 402.0,
      "id": 221,
      "lst": 418.0,
      "st": 10.0,
      "x": 32.0,
      "y": -3.0
    },
    {
      "demand": 4.0,
      "est": 91.0,
      "id": 222,
      "lst": 145.0,
      "st": 11.0,
      "x": 5.0,
      "y": 11.0
    },
    {
      "demand": 2.0,
      "est": 148.0,
      "id": 223,
      "lst": 194.0,
      "st": 6.0,
      "x": -10.0,
      "y": -39.0
    },
    {
      "demand": 1.0,
      "est": 260.0,
      "id": 224,
      "lst": 320.0,
      "st": 6.0,
      "x": 47.0,
      "y": -13.0
    },
    {
      "demand": 3.0,
      "est": 182.0,
      "id": 225,
      "lst": 220.0,
      "st": 4.0,
      "x": 45.0,
      "y": -50.0
    },
    {
      "demand": 4.0,
      "est": 176.0,
      "id": 226,
      "lst": 232.0,
      "st": 7.0,
      "x": 47.0,
      "y": -9.0
    },
    {
      "demand": 1.0,
      "est": 252.0,
      "id": 227,
      "lst": 294.0,
      "st": 5.0,
      "x": 47.0,
      "y": -44.0
    },
    {
      "demand": 2.0,
      "est": 309.0,
      "id": 228,
      "lst": 363.0,
      "st": 12.0,
      "x": -31.0,
      "y": 11.0
    },
    {
      "demand": 2.0,
      "est": 242.0,
      "id": 229,
      "lst": 292.0,
      "st": 14.0,
      "x": -14.0,
      "y": -29.0
    },
    {
      "demand": 2.0,
      "est": 229.0,
      "id": 230,
      "lst": 261.0,
      "st": 9.0,
      "x": 27.0,
      "y": -47.0
    },
    {
      "demand": 2.0,
      "est": 65.0,
      "id": 231,
      "lst": 103.0,
      "st": 6.0,
      "x": -13.0,
      "y": -22.0
    },
    {
      "demand": 3.0,
      "est": 146.0,
      "id": 232,
      "lst": 190.0,
      "st": 10.0,
      "x": 6.0,
      "y": -39.0
    },
    {
      "demand": 2.0,
      "est": 172.0,
      "id": 233,
      "lst": 226.0,
      "st": 3.0,
      "x": -26.0,
      "y": -7.0
    },
    {
      "demand": 2.0,
      "est": 89.0,
      "id": 234,
      "lst": 135.0,
      "st": 14.0,
      "x": -9.0,
      "y": -4.0
    },
    {
      "demand": 2.0,
      "est": 240.0,
      "id": 235,
      "lst": 254.0,
      "st": 9.0,
      "x": -19.0,
      "y": -17.0
    },
    {
      "demand": 5.0,
      "est": 251.0,
      "id": 236,
      "lst": 285.0,
      "st": 14.0,
      "x": -36.0,
      "y": 2.0
    },
    {
      "demand": 4.0,
      "est": 297.0,
      "id": 237,
      "lst": 355.0,
      "st": 3.0,
      "x": -31.0,
      "y": -5.0
    },
    {
      "demand": 2.0,
      "est": 153.0,
      "id": 238,
      "lst": 199.0,
      "st": 12.0,
      "x": -9.0,
      "y": 10.0
    },
    {
      "demand": 2.0,
      "est": 130.0,
      "id": 239,
      "lst": 158.0,
      "st": 3.0,
      "x": -42.0,
      "y": 34.0
    },
    {
      "demand": 3.0,
      "est": 281.0,
      "id": 240,
      "lst": 325.0,
      "st": 3.0,
      "x": -30.0,
      "y": -3.0
    },
    {
      "demand": 5.0,
      "est": 268.0,
      "id": 241,
      "lst": 306.0,
      "st": 6.0,
      "x": 18.0,
      "y": -45.0
    },
    {
      "demand": 2.0,
      "est": 305.0,
      "id": 242,
      "lst": 339.0,
      "st": 10.0,
      "x": 6.0,
      "y": 19.0
    },
    {
      "demand": 3.0,
      "est": 103.0,
      "id": 243,
      "lst": 149.0,
      "st": 11.0,
      "x": -22.0,
      "y": 43.0
    },
    {
      "demand": 4.0,
      "est": 49.0,
      "id": 244,
      "lst": 107.0,
      "st": 11.0,
      "x": -5.0,
      "y": 1.0
    },
    {
      "demand": 5.0,
      "est": 219.0,
      "id": 245,
      "lst": 263.0,
      "st": 3.0,
      "x": 2.0,
      "y": 50.0
    },
    {
      "demand": 1.0,
      "est": 257.0,
      "id": 246,
      "lst": 307.0,
      "st": 12.0,
      "x": 41.0,
      "y": -5.0
    },
    {
      "demand": 2.0,
      "est": 319.0,
      "id": 247,
      "lst": 337.0,
      "st": 7.0,
      "x": -13.0,
      "y": 17.0
    },
    {
      "demand": 3.0,
      "est": 144.0,
      "id": 248,
      "lst": 194.0,
      "st": 12.0,
      "x": 28.0,
      "y": -7.0
    },
    {
      "demand": 5.0,
      "est": 243.0,
      "id": 249,
      "lst": 257.0,
      "st": 15.0,
      "x": -7.0,
      "y": 33.0
    },
    {
      "demand": 4.0,
      "est": 288.0,
      "id": 250,
      "lst": 320.0,
      "st": 10.0,
      "x": -11.0,
      "y": -14.0
    }
  ],
  "costDistance": 0.0001,
  "costTruck": 1,
  "costWorker": 0.1,
  "depot": {
    "est": 0.0,
    "id": 0,
    "lst": 480.0,
    "x": 2.0,
    "y": -4.0
  },
  "description": "randomly distributed, 200 clients, 50 parkings, normal time windows, low walking speed",
  "name": "r200.050.n.1",
  "optimumKnown": false,
  "parkings": [
    {
      "id": 1,
      "x": -16.0,
      "y": -5.0
    },
    {
      "id": 2,
      "x": -33.0,
      "y": -26.0
    },
    {
      "id": 3,
      "x": -45.0,
      "y": -24.0
    },
    {
      "id": 4,
      "x": -35.0,
      "y": -16.0
    },
    {
      "id": 5,
      "x": -50.0,
      "y": -40.0
    },
    {
      "id": 6,
      "x": 9.0,
      "y": -37.0
    },
    {
      "id": 7,
      "x": -43.0,
      "y": 15.0
    },
    {
      "id": 8,
      "x": 2.0,
      "y": -3.0
    },
    {
      "id": 9,
      "x": 7.0,
      "y": -11.0
    },
    {
      "id": 10,
      "x": 3.0,
      "y": -8.0
    },
    {
      "id": 11,
      "x": 43.0,
      "y": 44.0
    },
    {
      "id": 12,
      "x": 34.0,
      "y": -32.0
    },
    {
      "id": 13,
      "x": -9.0,
      "y": 1.0
    },
    {
      "id": 14,
      "x": 42.0,
      "y": 11.0
    },
    {
      "id": 15,
      "x": 1.0,
      "y": -28.0
    },
    {
      "id": 16,
      "x": 10.0,
      "y": -29.0
    },
    {
      "id": 17,
      "x": -5.0,
      "y": 4.0
    },
    {
      "id": 18,
      "x": 3.0,
      "y": 30.0
    },
    {
      "id": 19,
      "x": 50.0,
      "y": -38.0
    },
    {
      "id": 20,
      "x": 49.0,
      "y": 22.0
    },
    {
      "id": 21,
      "x": -27.0,
      "y": 2.0
    },
    {
      "id": 22,
      "x": 31.0,
      "y": -4.0
    },
    {
      "id": 23,
      "x": 15.0,
      "y": 27.0
    },
    {
      "id": 24,
      "x": 16.0,
      "y": 5.0
    },
    {
      "id": 25,
      "x": -5.0,
      "y": -21.0
    },
    {
      "id": 26,
      "x": -31.0,
      "y": 27.0
    },
    {
      "id": 27,
      "x": -13.0,
      "y": -14.0
    },
    {
      "id": 28,
      "x": -33.0,
      "y": -4.0
    },
    {
      "id": 29,
      "x": 41.0,
      "y": 40.0
    },
    {
      "id": 30,
      "x": -19.0,
      "y": 43.0
    },
    {
      "id": 31,
      "x": -2.0,
      "y": 14.0
    },
    {
      "id": 32,
      "x": -48.0,
      "y": 31.0
    },
    {
      "id": 33,
      "x": 14.0,
      "y": -33.0
    },
    {
      "id": 34,
      "x": -40.0,
      "y": 47.0
    },
    {
      "id": 35,
      "x": 47.0,
      "y": 23.0
    },
    {
      "id": 36,
      "x": -12.0,
      "y": -46.0
    },
    {
      "id": 37,
      "x": -48.0,
      "y": -13.0
    },
    {
      "id": 38,
      "x": -3.0,
      "y": -48.0
    },
    {
      "id": 39,
      "x": 9.0,
      "y": -1.0
    },
    {
      "id": 40,
      "x": 4.0,
      "y": -42.0
    },
    {
      "id": 41,
      "x": -15.0,
      "y": -20.0
    },
    {
      "id": 42,
      "x": 35.0,
      "y": -17.0
    },
    {
      "id": 43,
      "x": -20.0,
      "y": -44.0
    },
    {
      "id": 44,
      "x": -17.0,
      "y": -43.0
    },
    {
      "id": 45,
      "x": 5.0,
      "y": -42.0
    },
    {
      "id": 46,
      "x": 17.0,
      "y": -19.0
    },
    {
      "id": 47,
      "x": 41.0,
      "y": -27.0
    },
    {
      "id": 48,
      "x": -12.0,
      "y": -41.0
    },
    {
      "id": 49,
      "x": -36.0,
      "y": 37.0
    },
    {
      "id": 50,
      "x": -48.0,
      "y": 28.0
    }
  ],
  "truckCapacity": 200,
  "walkingSpeed": 0.1
}