{
  "bestKnownCost": 9.223372036854776e+18,
  "bestKnownDistance": 9.223372036854776e+18,
  "bestKnownSolution": "",
  "bestKnownTrucks": 9223372036854775807,
  "bestKnownWorkers": 9223372036854775807,
  "bestSolutionTime": "",
  "clients": [
    {
      "demand": 4.0,
      "est": 396.0,
      "id": 101,
      "lst": 446.0,
      "st": 8.0,
      "x": 0.0,
      "y": -20.0
    },
    {
      "demand": 3.0,
      "est": 160.0,
      "id": 102,
      "lst": 194.0,
      "st": 5.0,
      "x": 1.0,
      "y": 20.0
    },
    {
      "demand": 3.0,
      "est": 162.0,
      "id": 103,
      "lst": 180.0,
      "st": 10.0,
      "x": -29.0,
      "y": 50.0
    },
    {
      "demand": 5.0,
      "est": 188.0,
      "id": 104,
      "lst": 244.0,
      "st": 5.0,
      "x": 43.0,
      "y": -9.0
    },
    {
      "demand": 4.0,
      "est": 344.0,
      "id": 105,
      "lst": 392.0,
      "st": 7.0,
      "x": -4.0,
      "y": 24.0
    },
    {
      "demand": 3.0,
      "est": 285.0,
      "id": 106,
      "lst": 317.0,
      "st": 14.0,
      "x": 36.0,
      "y": -26.0
    },
    {
      "demand": 5.0,
      "est": 313.0,
      "id": 107,
      "lst": 331.0,
      "st": 4.0,
      "x": -17.0,
      "y": -45.0
    },
    {
      "demand": 5.0,
      "est": 258.0,
      "id": 108,
      "lst": 280.0,
      "st": 12.0,
      "x": -2.0,
      "y": 25.0
    },
    {
      "demand": 3.0,
      "est": 392.0,
      "id": 109,
      "lst": 406.0,
      "st": 3.0,
      "x": 1.0,
      "y": 31.0
    },
    {
      "demand": 5.0,
      "est": 96.0,
      "id": 110,
      "lst": 154.0,
      "st": 13.0,
      "x": -37.0,
      "y": -46.0
    },
    {
      "demand": 4.0,
      "est": 212.0,
      "id": 111,
      "lst": 262.0,
      "st": 12.0,
      "x": -3.0,
      "y": -27.0
    },
    {
      "demand": 3.0,
      "est": 254.0,
      "id": 112,
      "lst": 300.0,
      "st": 5.0,
      "x": -45.0,
      "y": -2.0
    },
    {
      "demand": 3.0,
      "est": 207.0,
      "id": 113,
      "lst": 241.0,
      "st": 15.0,
      "x": -50.0,
      "y": -22.0
    },
    {
      "demand": 1.0,
      "est": 315.0,
      "id": 114,
      "lst": 369.0,
      "st": 10.0,
      "x": -28.0,
      "y": 8.0
    },
    {
      "demand": 5.0,
      "est": 147.0,
      "id": 115,
      "lst": 163.0,
      "st": 9.0,
      "x": -45.0,
      "y": 19.0
    },
    {
      "demand": 1.0,
      "est": 316.0,
      "id": 116,
      "lst": 352.0,
      "st": 14.0,
      "x": 15.0,
      "y": 1.0
    },
    {
      "demand": 3.0,
      "est": 227.0,
      "id": 117,
      "lst": 267.0,
      "st": 13.0,
      "x": -32.0,
      "y": 10.0
    },
    {
      "demand": 5.0,
      "est": 236.0,
      "id": 118,
      "lst": 294.0,
      "st": 12.0,
      "x": 35.0,
      "y": -25.0
    },
    {
      "demand": 2.0,
      "est": 247.0,
      "id": 119,
      "lst": 293.0,
      "st": 4.0,
      "x": -27.0,
      "y": 36.0
    },
    {
      "demand": 5.0,
      "est": 325.0,
      "id": 120,
      "lst": 343.0,
      "st": 11.0,
      "x": 5.0,
      "y": 29.0
    },
    {
      "demand": 2.0,
      "est": 170.0,
      "id": 121,
      "lst": 192.0,
      "st": 12.0,
      "x": -24.0,
      "y": -43.0
    },
    {
      "demand": 5.0,
      "est": 168.0,
      "id": 122,
      "lst": 184.0,
      "st": 12.0,
      "x": 18.0,
      "y": -35.0
    },
    {
      "demand": 3.0,
      "est": 185.0,
      "id": 123,
      "lst": 201.0,
      "st": 7.0,
      "x": -5.0,
      "y": -18.0
    },
    {
      "demand": 5.0,
      "est": 228.0,
      "id": 124,
      "lst": 282.0,
      "st": 9.0,
      "x": -18.0,
      "y": 50.0
    },
    {
      "demand": 4.0,
      "est": 335.0,
      "id": 125,
      "lst": 375.0,
      "st": 4.0,
      "x": 40.0,
      "y": 4.0
    },
    {
      "demand": 3.0,
      "est": 195.0,
      "id": 126,
      "lst": 213.0,
      "st": 12.0,
      "x": -24.0,
      "y": 29.0
    },
    {
      "demand": 2.0,
      "est": 305.0,
      "id": 127,
      "lst": 327.0,
      "st": 3.0,
      "x": 3.0,
      "y": -21.0
    },
    {
      "demand": 4.0,
      "est": 280.0,
      "id": 128,
      "lst": 308.0,
      "st": 7.0,
      "x": 2.0,
      "y": -29.0
    },
    {
      "demand": 4.0,
      "est": 30.0,
      "id": 129,
      "lst": 84.0,
      "st": 6.0,
      "x": -25.0,
      "y": -17.0
    },
    {
      "demand": 3.0,
      "est": 150.0,
      "id": 130,
      "lst": 200.0,
      "st": 15.0,
      "x": 41.0,
      "y": -34.0
    },
    {
      "demand": 2.0,
      "est": 209.0,
      "id": 131,
      "lst": 249.0,
      "st": 14.0,
      "x": 40.0,
      "y": 28.0
    },
    {
      "demand": 5.0,
      "est": 125.0,
      "id": 132,
      "lst": 143.0,
      "st": 6.0,
      "x": 34.0,
      "y": 16.0
    },
    {
      "demand": 2.0,
      "est": 211.0,
      "id": 133,
      "lst": 247.0,
      "st": 3.0,
      "x": 49.0,
      "y": 2.0
    },
    {
      "demand": 1.0,
      "est": 109.0,
      "id": 134,
      "lst": 167.0,
      "st": 14.0,
      "x": -2.0,
      "y": -29.0
    },
    {
      "demand": 1.0,
      "est": 339.0,
      "id": 135,
      "lst": 397.0,
      "st": 11.0,
      "x": 8.0,
      "y": -38.0
    },
    {
      "demand": 2.0,
      "est": 375.0,
      "id": 136,
      "lst": 429.0,
      "st": 11.0,
      "x": 23.0,
      "y": -4.0
    },
    {
      "demand": 1.0,
      "est": 201.0,
      "id": 137,
      "lst": 227.0,
      "st": 5.0,
      "x": -7.0,
      "y": 13.0
    },
    {
      "demand": 3.0,
      "est": 325.0,
      "id": 138,
      "lst": 373.0,
      "st": 15.0,
      "x": 40.0,
      "y": 2.0
    },
    {
      "demand": 4.0,
      "est": 119.0,
      "id": 139,
      "lst": 173.0,
      "st": 3.0,
      "x": -12.0,
      "y": 11.0
    },
    {
      "demand": 4.0,
      "est": 326.0,
      "id": 140,
      "lst": 382.0,
      "st": 15.0,
      "x": 1.0,
      "y": -23.0
    },
    {
      "demand": 2.0,
      "est": 169.0,
      "id": 141,
      "lst": 213.0,
      "st": 3.0,
      "x": -12.0,
      "y": -48.0
    },
    {
      "demand": 1.0,
      "est": 348.0,
      "id": 142,
      "lst": 404.0,
      "st": 4.0,
      "x": -26.0,
      "y": -4.0
    },
    {
      "demand": 2.0,
      "est": 286.0,
      "id": 143,
      "lst": 338.0,
      "st": 9.0,
      "x": 17.0,
      "y": -34.0
    },
    {
      "demand": 4.0,
      "est": 322.0,
      "id": 144,
      "lst": 350.0,
      "st": 12.0,
      "x": 24.0,
      "y": -23.0
    },
    {
      "demand": 2.0,
      "est": 213.0,
      "id": 145,
      "lst": 259.0,
      "st": 4.0,
      "x": 45.0,
      "y": -9.0
    },
    {
      "demand": 1.0,
      "est": 173.0,
      "id": 146,
      "lst": 213.0,
      "st": 14.0,
      "x": -25.0,
      "y": 4.0
    },
    {
      "demand": 3.0,
      "est": 270.0,
      "id": 147,
      "lst": 318.0,
      "st": 13.0,
      "x": -35.0,
      "y": 15.0
    },
    {
      "demand": 3.0,
      "est": 215.0,
      "id": 148,
      "lst": 229.0,
      "st": 3.0,
      "x": -43.0,
      "y": 48.0
    },
    {
      "demand": 2.0,
      "est": 326.0,
      "id": 149,
      "lst": 342.0,
      "st": 5.0,
      "x": -35.0,
      "y": -43.0
    },
    {
      "demand": 3.0,
      "est": 291.0,
      "id": 150,
      "lst": 329.0,
      "st": 10.0,
      "x": 18.0,
      "y": 25.0
    },
    {
      "demand": 1.0,
      "est": 111.0,
      "id": 151,
      "lst": 155.0,
      "st": 5.0,
      "x": 5.0,
      "y": 23.0
    },
    {
      "demand": 2.0,
      "est": 215.0,
      "id": 152,
      "lst": 253.0,
      "st": 13.0,
      "x": 2.0,
      "y": 47.0
    },
    {
      "demand": 1.0,
      "est": 167.0,
      "id": 153,
      "lst": 203.0,
      "st": 10.0,
      "x": 43.0,
      "y": -3.0
    },
    {
      "demand": 2.0,
      "est": 139.0,
      "id": 154,
      "lst": 185.0,
      "st": 15.0,
      "x": -30.0,
      "y": -21.0
    },
    {
      "demand": 5.0,
      "est": 135.0,
      "id": 155,
      "lst": 169.0,
      "st": 11.0,
      "x": -36.0,
      "y": 27.0
    },
    {
      "demand": 2.0,
      "est": 144.0,
      "id": 156,
      "lst": 176.0,
      "st": 10.0,
      "x": 17.0,
      "y": -44.0
    },
    {
      "demand": 5.0,
      "est": 246.0,
      "id": 157,
      "lst": 282.0,
      "st": 4.0,
      "x": -16.0,
      "y": -15.0
    },
    {
      "demand": 4.0,
      "est": 269.0,
      "id": 158,
      "lst": 325.0,
      "st": 15.0,
      "x": 49.0,
      "y": -22.0
    },
    {
      "demand": 1.0,
      "est": 118.0,
      "id": 159,
      "lst": 178.0,
      "st": 5.0,
      "x": 27.0,
      "y": -35.0
    },
    {
      "demand": 2.0,
      "est": 365.0,
      "id": 160,
      "lst": 393.0,
      "st": 13.0,
      "x": 23.0,
      "y": 42.0
    },
    {
      "demand": 4.0,
      "est": 368.0,
      "id": 161,
      "lst": 392.0,
      "st": 3.0,
      "x": -46.0,
      "y": 12.0
    },
    {
      "demand": 1.0,
      "est": 148.0,
      "id": 162,
      "lst": 196.0,
      "st": 3.0,
      "x": 8.0,
      "y": 20.0
    },
    {
      "demand": 2.0,
      "est": 141.0,
      "id": 163,
      "lst": 185.0,
      "st": 3.0,
      "x": -9.0,
      "y": 5.0
    },
    {
      "demand": 5.0,
      "est": 137.0,
      "id": 164,
      "lst": 173.0,
      "st": 9.0,
      "x": -32.0,
      "y": -40.0
    },
    {
      "demand": 1.0,
      "est": 336.0,
      "id": 165,
      "lst": 386.0,
      "st": 4.0,
      "x": -2.0,
      "y": -31.0
    },
    {
      "demand": 1.0,
      "est": 178.0,
      "id": 166,
      "lst": 230.0,
      "st": 12.0,
      "x": 14.0,
      "y": 0.0
    },
    {
      "demand": 3.0,
      "est": 266.0,
      "id": 167,
      "lst": 298.0,
      "st": 5.0,
      "x": -39.0,
      "y": 42.0
    },
    {
      "demand": 5.0,
      "est": 40.0,
      "id": 168,
      "lst": 94.0,
      "st": 15.0,
      "x": 15.0,
      "y": -1.0
    },
    {
      "demand": 1.0,
      "est": 200.0,
      "id": 169,
      "lst": 240.0,
      "st": 5.0,
      "x": -41.0,
      "y": -46.0
    },
    {
      "demand": 4.0,
      "est": 52.0,
      "id": 170,
      "lst": 90.0,
      "st": 15.0,
      "x": -6.0,
      "y": -35.0
    },
    {
      "demand": 4.0,
      "est": 231.0,
      "id": 171,
      "lst": 269.0,
      "st": 8.0,
      "x": 19.0,
      "y": 12.0
    },
    {
      "demand": 3.0,
      "est": 215.0,
      "id": 172,
      "lst": 255.0,
      "st": 8.0,
      "x": 6.0,
      "y": -3.0
    },
    {
      "demand": 1.0,
      "est": 235.0,
      "id": 173,
      "lst": 263.0,
      "st": 9.0,
      "x": -1.0,
      "y": 12.0
    },
    {
      "demand": 1.0,
      "est": 61.0,
      "id": 174,
      "lst": 109.0,
      "st": 11.0,
      "x": -31.0,
      "y": 20.0
    },
    {
      "demand": 2.0,
      "est": 228.0,
      "id": 175,
      "lst": 250.0,
      "st": 12.0,
      "x": 45.0,
      "y": -50.0
    },
    {
      "demand": 1.0,
      "est": 316.0,
      "id": 176,
      "lst": 358.0,
      "st": 10.0,
      "x": -35.0,
      "y": -11.0
    },
    {
      "demand": 1.0,
      "est": 81.0,
      "id": 177,
      "lst": 101.0,
      "st": 8.0,
      "x": -29.0,
      "y": -7.0
    },
    {
      "demand": 4.0,
      "est": 309.0,
      "id": 178,
      "lst": 333.0,
      "st": 5.0,
      "x": -15.0,
      "y": 31.0
    },
    {
      "demand": 1.0,
      "est": 231.0,
      "id": 179,
      "lst": 273.0,
      "st": 3.0,
      "x": 25.0,
      "y": 35.0
    },
    {
      "demand": 5.0,
      "est": 259.0,
      "id": 180,
      "lst": 317.0,
      "st": 13.0,
      "x": 43.0,
      "y": 22.0
    },
    {
      "demand": 3.0,
      "est": 110.0,
      "id": 181,
      "lst": 168.0,
      "st": 3.0,
      "x": -30.0,
      "y": 9.0
    },
    {
      "demand": 4.0,
      "est": 256.0,
      "id": 182,
      "lst": 288.0,
      "st": 10.0,
      "x": -48.0,
      "y": 32.0
    },
    {
      "demand": 4.0,
      "est": 109.0,
      "id": 183,
      "lst": 159.0,
      "st": 14.0,
      "x": -4.0,
      "y": -9.0
    },
    {
      "demand": 5.0,
      "est": 296.0,
      "id": 184,
      "lst": 336.0,
      "st": 13.0,
      "x": -17.0,
      "y": 26.0
    },
    {
      "demand": 5.0,
      "est": 103.0,
      "id": 185,
      "lst": 141.0,
      "st": 4.0,
      "x": 11.0,
      "y": -37.0
    },
    {
      "demand": 1.0,
      "est": 189.0,
      "id": 186,
      "lst": 217.0,
      "st": 4.0,
      "x": 34.0,
      "y": -45.0
    },
    {
      "demand": 3.0,
      "est": 220.0,
      "id": 187,
      "lst": 272.0,
      "st": 12.0,
      "x": 23.0,
      "y": -20.0
    },
    {
      "demand": 1.0,
      "est": 190.0,
      "id": 188,
      "lst": 216.0,
      "st": 14.0,
      "x": 50.0,
      "y": 7.0
    },
    {
      "demand": 5.0,
      "est": 344.0,
      "id": 189,
      "lst": 364.0,
      "st": 15.0,
      "x": -41.0,
      "y": 37.0
    },
    {
      "demand": 2.0,
      "est": 353.0,
      "id": 190,
      "lst": 369.0,
      "st": 14.0,
      "x": 20.0,
      "y": 15.0
    },
    {
      "demand": 5.0,
      "est": 268.0,
      "id": 191,
      "lst": 320.0,
      "st": 6.0,
      "x": 31.0,
      "y": 14.0
    },
    {
      "demand": 1.0,
      "est": 301.0,
      "id": 192,
      "lst": 327.0,
      "st": 4.0,
      "x": -46.0,
      "y": -35.0
    },
    {
      "demand": 5.0,
      "est": 116.0,
      "id": 193,
      "lst": 160.0,
      "st": 7.0,
      "x": -37.0,
      "y": 8.0
    },
    {
      "demand": 1.0,
      "est": 328.0,
      "id": 194,
      "lst": 350.0,
      "st": 13.0,
      "x": -14.0,
      "y": 0.0
    },
    {
      "demand": 2.0,
      "est": 248.0,
      "id": 195,
      "lst": 276.0,
      "st": 3.0,
      "x": 34.0,
      "y": -47.0
    },
    {
      "demand": 2.0,
      "est": 135.0,
      "id": 196,
      "lst": 171.0,
      "st": 5.0,
      "x": -44.0,
      "y": 28.0
    },
    {
      "demand": 2.0,
      "est": 103.0,
      "id": 197,
      "lst": 155.0,
      "st": 13.0,
      "x": -1.0,
      "y": -15.0
    },
    {
      "demand": 2.0,
      "est": 133.0,
      "id": 198,
      "lst": 185.0,
      "st": 9.0,
      "x": -9.0,
      "y": -37.0
    },
    {
      "demand": 4.0,
      "est": 172.0,
      "id": 199,
      "lst": 228.0,
      "st": 12.0,
      "x": -16.0,
      "y": -22.0
    },
    {
      "demand": 3.0,
      "est": 144.0,
      "id": 200,
      "lst": 162.0,
      "st": 14.0,
      "x": -30.0,
      "y": 44.0
    },
    {
      "demand": 2.0,
      "est": 370.0,
      "id": 201,
      "lst": 418.0,
      "st": 10.0,
      "x": -14.0,
      "y": -10.0
    },
    {
      "demand": 3.0,
      "est": 235.0,
      "id": 202,
      "lst": 251.0,
      "st": 8.0,
      "x": -42.0,
      "y": 13.0
    },
    {
      "demand": 2.0,
      "est": 367.0,
      "id": 203,
      "lst": 385.0,
      "st": 9.0,
      "x": 7.0,
      "y": 30.0
    },
    {
      "demand": 2.0,
      "est": 389.0,
      "id": 204,
      "lst": 409.0,
      "st": 12.0,
      "x": 25.0,
      "y": -2.0
    },
    {
      "demand": 5.0,
      "est": 329.0,
      "id": 205,
      "lst": 349.0,
      "st": 11.0,
      "x": -33.0,
      "y": -34.0
    },
    {
      "demand": 2.0,
      "est": 276.0,
      "id": 206,
      "lst": 328.0,
      "st": 11.0,
      "x": 30.0,
      "y": 1.0
    },
    {
      "demand": 2.0,
      "est": 257.0,
      "id": 207,
      "lst": 301.0,
      "st": 13.0,
      "x": -31.0,
      "y": 7.0
    },
    {
      "demand": 5.0,
      "est": 143.0,
      "id": 208,
      "lst": 161.0,
      "st": 11.0,
      "x": -9.0,
      "y": 6.0
    },
    {
      "demand": 2.0,
      "est": 378.0,
      "id": 209,
      "lst": 400.0,
      "st": 13.0,
      "x": 2.0,
      "y": 33.0
    },
    {
      "demand": 4.0,
      "est": 11.0,
      "id": 210,
      "lst": 67.0,
      "st": 3.0,
      "x": -3.0,
      "y": -9.0
    },
    {
      "demand": 3.0,
      "est": 313.0,
      "id": 211,
      "lst": 331.0,
      "st": 3.0,
      "x": 28.0,
      "y": -14.0
    },
    {
      "demand": 5.0,
      "est": 282.0,
      "id": 212,
      "lst": 336.0,
      "st": 6.0,
      "x": -38.0,
      "y": -41.0
    },
    {
      "demand": 5.0,
      "est": 247.0,
      "id": 213,
      "lst": 267.0,
      "st": 15.0,
      "x": 4.0,
      "y": -32.0
    },
    {
      "demand": 3.0,
      "est": 389.0,
      "id": 214,
      "lst": 413.0,
      "st": 6.0,
      "x": -26.0,
      "y": -34.0
    },
    {
      "demand": 1.0,
      "est": 183.0,
      "id": 215,
      "lst": 201.0,
      "st": 9.0,
      "x": -43.0,
      "y": 10.0
    },
    {
      "demand": 1.0,
      "est": 60.0,
      "id": 216,
      "lst": 106.0,
      "st": 6.0,
      "x": 31.0,
      "y": 5.0
    },
    {
      "demand": 2.0,
      "est": 128.0,
      "id": 217,
      "lst": 178.0,
      "st": 12.0,
      "x": 0.0,
      "y": 9.0
    },
    {
      "demand": 4.0,
      "est": 163.0,
      "id": 218,
      "lst": 195.0,
      "st": 3.0,
      "x": 34.0,
      "y": 9.0
    },
    {
      "demand": 3.0,
      "est": 290.0,
      "id": 219,
      "lst": 310.0,
      "st": 11.0,
      "x": -27.0,
      "y": -22.0
    },
    {
      "demand": 4.0,
      "est": 202.0,
      "id": 220,
      "lst": 218.0,
      "st": 8.0,
      "x": 23.0,
      "y": -19.0
    },
    {
      "demand": 5.0,
      "est": 91.0,
      "id": 221,
      "lst": 141.0,
      "st": 13.0,
      "x": -37.0,
      "y": 24.0
    },
    {
      "demand": 4.0,
      "est": 114.0,
      "id": 222,
      "lst": 128.0,
      "st": 3.0,
      "x": -31.0,
      "y": 24.0
    },
    {
      "demand": 4.0,
      "est": 186.0,
      "id": 223,
      "lst": 240.0,
      "st": 12.0,
      "x": 15.0,
      "y": 15.0
    },
    {
      "demand": 3.0,
      "est": 362.0,
      "id": 224,
      "lst": 376.0,
      "st": 11.0,
      "x": -12.0,
      "y": -27.0
    },
    {
      "demand": 5.0,
      "est": 174.0,
      "id": 225,
      "lst": 216.0,
      "st": 13.0,
      "x": 41.0,
      "y": -15.0
    },
    {
      "demand": 2.0,
      "est": 203.0,
      "id": 226,
      "lst": 221.0,
      "st": 6.0,
      "x": -4.0,
      "y": 37.0
    },
    {
      "demand": 5.0,
      "est": 311.0,
      "id": 227,
      "lst": 335.0,
      "st": 3.0,
      "x": -25.0,
      "y": -2.0
    },
    {
      "demand": 4.0,
      "est": 227.0,
      "id": 228,
      "lst": 273.0,
      "st": 8.0,
      "x": -44.0,
      "y": 10.0
    },
    {
      "demand": 5.0,
      "est": 269.0,
      "id": 229,
      "lst": 319.0,
      "st": 11.0,
      "x": -24.0,
      "y": 44.0
    },
    {
      "demand": 1.0,
      "est": 124.0,
      "id": 230,
      "lst": 182.0,
      "st": 6.0,
      "x": 19.0,
      "y": -26.0
    },
    {
      "demand": 5.0,
      "est": 193.0,
      "id": 231,
      "lst": 231.0,
      "st": 5.0,
      "x": -50.0,
      "y": 3.0
    },
    {
      "demand": 5.0,
      "est": 91.0,
      "id": 232,
      "lst": 149.0,
      "st": 8.0,
      "x": 16.0,
      "y": -31.0
    },
    {
      "demand": 4.0,
      "est": 332.0,
      "id": 233,
      "lst": 374.0,
      "st": 8.0,
      "x": 23.0,
      "y": -33.0
    },
    {
      "demand": 1.0,
      "est": 210.0,
      "id": 234,
      "lst": 226.0,
      "st": 12.0,
      "x": -35.0,
      "y": -25.0
    },
    {
      "demand": 3.0,
      "est": 261.0,
      "id": 235,
      "lst": 275.0,
      "st": 11.0,
      "x": 38.0,
      "y": -40.0
    },
    {
      "demand": 3.0,
      "est": 178.0,
      "id": 236,
      "lst": 204.0,
      "st": 11.0,
      "x": 1.0,
      "y": -26.0
    },
    {
      "demand": 2.0,
      "est": 214.0,
      "id": 237,
      "lst": 262.0,
      "st": 9.0,
      "x": -24.0,
      "y": 0.0
    },
    {
      "demand": 4.0,
      "est": 97.0,
      "id": 238,
      "lst": 115.0,
      "st": 5.0,
      "x": 45.0,
      "y": 22.0
    },
    {
      "demand": 5.0,
      "est": 164.0,
      "id": 239,
      "lst": 198.0,
      "st": 7.0,
      "x": -38.0,
      "y": -29.0
    },
    {
      "demand": 1.0,
      "est": 171.0,
      "id": 240,
      "lst": 197.0,
      "st": 5.0,
      "x": 31.0,
      "y": -8.0
    },
    {
      "demand": 2.0,
      "est": 143.0,
      "id": 241,
      "lst": 169.0,
      "st": 6.0,
      "x": 29.0,
      "y": 18.0
    },
    {
      "demand": 4.0,
      "est": 114.0,
      "id": 242,
      "lst": 128.0,
      "st": 15.0,
      "x": 17.0,
      "y": -13.0
    },
    {
      "demand": 4.0,
      "est": 108.0,
      "id": 243,
      "lst": 152.0,
      "st": 12.0,
      "x": 37.0,
      "y": 20.0
    },
    {
      "demand": 2.0,
      "est": 341.0,
      "id": 244,
      "lst": 369.0,
      "st": 7.0,
      "x": -27.0,
      "y": -8.0
    },
    {
      "demand": 1.0,
      "est": 162.0,
      "id": 245,
      "lst": 188.0,
      "st": 9.0,
      "x": 37.0,
      "y": 29.0
    },
    {
      "demand": 2.0,
      "est": 248.0,
      "id": 246,
      "lst": 268.0,
      "st": 6.0,
      "x": -39.0,
      "y": 35.0
    },
    {
      "demand": 4.0,
      "est": 275.0,
      "id": 247,
      "lst": 317.0,
      "st": 13.0,
      "x": -26.0,
      "y": -25.0
    },
    {
      "demand": 4.0,
      "est": 347.0,
      "id": 248,
      "lst": 387.0,
      "st": 15.0,
      "x": -24.0,
      "y": -26.0
    },
    {
      "demand": 4.0,
      "est": 222.0,
      "id": 249,
      "lst": 242.0,
      "st": 6.0,
      "x": 26.0,
      "y": -40.0
    },
    {
      "demand": 1.0,
      "est": 283.0,
      "id": 250,
      "lst": 321.0,
      "st": 3.0,
      "x": 32.0,
      "y": 38.0
    },
    {
      "demand": 2.0,
      "est": 196.0,
      "id": 251,
      "lst": 214.0,
      "st": 14.0,
      "x": -3.0,
      "y": 48.0
    },
    {
      "demand": 2.0,
      "est": 325.0,
      "id": 252,
      "lst": 363.0,
      "st": 6.0,
      "x": 9.0,
      "y": 2.0
    },
    {
      "demand": 2.0,
      "est": 370.0,
      "id": 253,
      "lst": 390.0,
      "st": 3.0,
      "x": -2.0,
      "y": 29.0
    },
    {
      "demand": 5.0,
      "est": 300.0,
      "id": 254,
      "lst": 346.0,
      "st": 8.0,
      "x": -12.0,
      "y": -7.0
    },
    {
      "demand": 4.0,
      "est": 111.0,
      "id": 255,
      "lst": 137.0,
      "st": 12.0,
      "x": -10.0,
      "y": -49.0
    },
    {
      "demand": 5.0,
      "est": 67.0,
      "id": 256,
      "lst": 99.0,
      "st": 6.0,
      "x": 16.0,
      "y": -8.0
    },
    {
      "demand": 2.0,
      "est": 260.0,
      "id": 257,
      "lst": 304.0,
      "st": 8.0,
      "x": -43.0,
      "y": 1.0
    },
    {
      "demand": 3.0,
      "est": 346.0,
      "id": 258,
      "lst": 386.0,
      "st": 7.0,
      "x": 26.0,
      "y": -30.0
    },
    {
      "demand": 2.0,
      "est": 187.0,
      "id": 259,
      "lst": 213.0,
      "st": 13.0,
      "x": 24.0,
      "y": 17.0
    },
    {
      "demand": 4.0,
      "est": 218.0,
      "id": 260,
      "lst": 236.0,
      "st": 12.0,
      "x": 47.0,
      "y": -27.0
    },
    {
      "demand": 3.0,
      "est": 216.0,
      "id": 261,
      "lst": 240.0,
      "st": 9.0,
      "x": 18.0,
      "y": -15.0
    },
    {
      "demand": 3.0,
      "est": 181.0,
      "id": 262,
      "lst": 195.0,
      "st": 14.0,
      "x": -3.0,
      "y": -39.0
    },
    {
      "demand": 4.0,
      "est": 346.0,
      "id": 263,
      "lst": 370.0,
      "st": 15.0,
      "x": -31.0,
      "y": 18.0
    },
    {
      "demand": 5.0,
      "est": 122.0,
      "id": 264,
      "lst": 164.0,
      "st": 7.0,
      "x": -41.0,
      "y": -7.0
    },
    {
      "demand": 5.0,
      "est": 355.0,
      "id": 265,
      "lst": 371.0,
      "st": 10.0,
      "x": -49.0,
      "y": 39.0
    },
    {
      "demand": 1.0,
      "est": 153.0,
      "id": 266,
      "lst": 201.0,
      "st": 9.0,
      "x": -28.0,
      "y": 36.0
    },
    {
      "demand": 5.0,
      "est": 213.0,
      "id": 267,
      "lst": 261.0,
      "st": 9.0,
      "x": -49.0,
      "y": -10.0
    },
    {
      "demand": 5.0,
      "est": 50.0,
      "id": 268,
      "lst": 100.0,
      "st": 6.0,
      "x": 11.0,
      "y": 13.0
    },
    {
      "demand": 5.0,
      "est": 323.0,
      "id": 269,
      "lst": 341.0,
      "st": 11.0,
      "x": 24.0,
      "y": -40.0
    },
    {
      "demand": 1.0,
      "est": 358.0,
      "id": 270,
      "lst": 408.0,
      "st": 8.0,
      "x": 25.0,
      "y": 19.0
    },
    {
      "demand": 1.0,
      "est": 293.0,
      "id": 271,
      "lst": 331.0,
      "st": 8.0,
      "x": 44.0,
      "y": -27.0
    },
    {
      "demand": 3.0,
      "est": 196.0,
      "id": 272,
      "lst": 222.0,
      "st": 8.0,
      "x": 47.0,
      "y": 36.0
    },
    {
      "demand": 3.0,
      "est": 204.0,
      "id": 273,
      "lst": 258.0,
      "st": 11.0,
      "x": -16.0,
      "y": 14.0
    },
    {
      "demand": 4.0,
      "est": 271.0,
      "id": 274,
      "lst": 327.0,
      "st": 8.0,
      "x": 13.0,
      "y": -20.0
    },
    {
      "demand": 3.0,
      "est": 96.0,
      "id": 275,
      "lst": 126.0,
      "st": 9.0,
      "x": 43.0,
      "y": 5.0
    },
    {
      "demand": 2.0,
      "est": 243.0,
      "id": 276,
      "lst": 275.0,
      "st": 13.0,
      "x": 6.0,
      "y": -14.0
    },
    {
      "demand": 4.0,
      "est": 339.0,
      "id": 277,
      "lst": 369.0,
      "st": 4.0,
      "x": 17.0,
      "y": -14.0
    },
    {
      "demand": 1.0,
      "est": 192.0,
      "id": 278,
      "lst": 228.0,
      "st": 4.0,
      "x": 43.0,
      "y": 34.0
    },
    {
      "demand": 5.0,
      "est": 335.0,
      "id": 279,
      "lst": 385.0,
      "st": 8.0,
      "x": -34.0,
      "y": -7.0
    },
    {
      "demand": 4.0,
      "est": 330.0,
      "id": 280,
      "lst": 364.0,
      "st": 7.0,
      "x": 5.0,
      "y": -23.0
    },
    {
      "demand": 2.0,
      "est": 227.0,
      "id": 281,
      "lst": 259.0,
      "st": 12.0,
      "x": -14.0,
      "y": 42.0
    },
    {
      "demand": 5.0,
      "est": 276.0,
      "id": 282,
      "lst": 334.0,
      "st": 9.0,
      "x": 39.0,
      "y": 16.0
    },
    {
      "demand": 4.0,
      "est": 217.0,
      "id": 283,
      "lst": 233.0,
      "st": 6.0,
      "x": -25.0,
      "y": -1.0
    },
    {
      "demand": 1.0,
      "est": 245.0,
      "id": 284,
      "lst": 281.0,
      "st": 4.0,
      "x": -16.0,
      "y": 15.0
    },
    {
      "demand": 2.0,
      "est": 186.0,
      "id": 285,
      "lst": 222.0,
      "st": 7.0,
      "x": 47.0,
      "y": 2.0
    },
    {
      "demand": 2.0,
      "est": 339.0,
      "id": 286,
      "lst": 355.0,
      "st": 10.0,
      "x": 31.0,
      "y": 20.0
    },
    {
      "demand": 4.0,
      "est": 304.0,
      "id": 287,
      "lst": 334.0,
      "st": 12.0,
      "x": -15.0,
      "y": 33.0
    },
    {
      "demand": 1.0,
      "est": 109.0,
      "id": 288,
      "lst": 139.0,
      "st": 3.0,
      "x": -38.0,
      "y": -44.0
    },
    {
      "demand": 5.0,
      "est": 318.0,
      "id": 289,
      "lst": 334.0,
      "st": 5.0,
      "x": -14.0,
      "y": 6.0
    },
    {
      "demand": 3.0,
      "est": 301.0,
      "id": 290,
      "lst": 317.0,
      "st": 3.0,
      "x": 39.0,
      "y": -20.0
    },
    {
      "demand": 2.0,
      "est": 142.0,
      "id": 291,
      "lst": 180.0,
      "st": 8.0,
      "x": -43.0,
      "y": -2.0
    },
    {
      "demand": 1.0,
      "est": 78.0,
      "id": 292,
      "lst": 94.0,
      "st": 3.0,
      "x": -38.0,
      "y": 3.0
    },
    {
      "demand": 2.0,
      "est": 307.0,
      "id": 293,
      "lst": 347.0,
      "st": 6.0,
      "x": 10.0,
      "y": 6.0
    },
    {
      "demand": 2.0,
      "est": 242.0,
      "id": 294,
      "lst": 272.0,
      "st": 5.0,
      "x": -33.0,
      "y": -41.0
    },
    {
      "demand": 4.0,
      "est": 291.0,
      "id": 295,
      "lst": 351.0,
      "st": 5.0,
      "x": 27.0,
      "y": -36.0
    },
    {
      "demand": 5.0,
      "est": 239.0,
      "id": 296,
      "lst": 283.0,
      "st": 8.0,
      "x": 37.0,
      "y": -35.0
    },
    {
      "demand": 4.0,
      "est": 275.0,
      "id": 297,
      "lst": 319.0,
      "st": 11.0,
      "x": -6.0,
      "y": -20.0
    },
    {
      "demand": 3.0,
      "est": 283.0,
      "id": 298,
      "lst": 301.0,
      "st": 4.0,
      "x": 49.0,
      "y": 34.0
    },
    {
      "demand": 4.0,
      "est": 196.0,
      "id": 299,
      "lst": 222.0,
      "st": 8.0,
      "x": -29.0,
      "y": -42.0
    },
    {
      "demand": 3.0,
      "est": 211.0,
      "id": 300,
      "lst": 241.0,
      "st": 13.0,
      "x": 24.0,
      "y": -15.0
    }
  ],
  "costDistance": 0.0001,
  "costTruck": 1,
  "costWorker": 0.1,
  "depot": {
    "est": 0.0,
    "id": 0,
    "lst": 480.0,
    "x": -4.0,
    "y": -4.0
  },
  "description": "randomly distributed, 200 clients, 100 parkings, normal time windows, low walking speed",
  "name": "r200.100.n.1",
  "optimumKnown": false,
  "parkings": [
    {
      "id": 1,
      "x": -19.0,
      "y": 29.0
    },
    {
      "id": 2,
      "x": 14.0,
      "y": -48.0
    },
    {
      "id": 3,
      "x": 24.0,
      "y": -5.0
    },
    {
      "id": 4,
      "x": -14.0,
      "y": -21.0
    },
    {
      "id": 5,
      "x": 45.0,
      "y": -15.0
    },
    {
      "id": 6,
      "x": 14.0,
      "y": 3.0
    },
    {
      "id": 7,
      "x": -17.0,
      "y": 26.0
    },
    {
      "id": 8,
      "x": 6.0,
      "y": -30.0
    },
    {
      "id": 9,
      "x": -46.0,
      "y": 22.0
    },
    {
      "id": 10,
      "x": 20.0,
      "y": 41.0
    },
    {
      "id": 11,
      "x": 48.0,
      "y": -43.0
    },
    {
      "id": 12,
      "x": -6.0,
      "y": -35.0
    },
    {
      "id": 13,
      "x": 16.0,
      "y": -11.0
    },
    {
      "id": 14,
      "x": -25.0,
      "y": -15.0
    },
    {
      "id": 15,
      "x": 40.0,
      "y": -24.0
    },
    {
      "id": 16,
      "x": 41.0,
      "y": 4.0
    },
    {
      "id": 17,
      "x": -47.0,
      "y": 42.0
    },
    {
      "id": 18,
      "x": -15.0,
      "y": -26.0
    },
    {
      "id": 19,
      "x": 14.0,
      "y": 49.0
    },
    {
      "id": 20,
      "x": -24.0,
      "y": 23.0
    },
    {
      "id": 21,
      "x": 29.0,
      "y": 20.0
    },
    {
      "id": 22,
      "x": -28.0,
      "y": 46.0
    },
    {
      "id": 23,
      "x": -21.0,
      "y": 0.0
    },
    {
      "id": 24,
      "x": 11.0,
      "y": -12.0
    },
    {
      "id": 25,
      "x": 19.0,
      "y": -17.0
    },
    {
      "id": 26,
      "x": -15.0,
      "y": 24.0
    },
    {
      "id": 27,
      "x": -6.0,
      "y": 4.0
    },
    {
      "id": 28,
      "x": -43.0,
      "y": 14.0
    },
    {
      "id": 29,
      "x": 47.0,
      "y": 21.0
    },
    {
      "id": 30,
      "x": -44.0,
      "y": 29.0
    },
    {
      "id": 31,
      "x": -47.0,
      "y": 29.0
    },
    {
      "id": 32,
      "x": 25.0,
      "y": -7.0
    },
    {
      "id": 33,
      "x": 34.0,
      "y": 28.0
    },
    {
      "id": 34,
      "x": -21.0,
      "y": -10.0
    },
    {
      "id": 35,
      "x": -20.0,
      "y": -27.0
    },
    {
      "id": 36,
      "x": 16.0,
      "y": -35.0
    },
    {
      "id": 37,
      "x": -42.0,
      "y": -45.0
    },
    {
      "id": 38,
      "x": -28.0,
      "y": -32.0
    },
    {
      "id": 39,
      "x": -11.0,
      "y": -44.0
    },
    {
      "id": 40,
      "x": -9.0,
      "y": 42.0
    },
    {
      "id": 41,
      "x": -37.0,
      "y": 7.0
    },
    {
      "id": 42,
      "x": 48.0,
      "y": 22.0
    },
    {
      "id": 43,
      "x": -21.0,
      "y": 24.0
    },
    {
      "id": 44,
      "x": 17.0,
      "y": 2.0
    },
    {
      "id": 45,
      "x": -41.0,
      "y": -39.0
    },
    {
      "id": 46,
      "x": -8.0,
      "y": 50.0
    },
    {
      "id": 47,
      "x": 22.0,
      "y": 10.0
    },
    {
      "id": 48,
      "x": 4.0,
      "y": -37.0
    },
    {
      "id": 49,
      "x": 21.0,
      "y": 9.0
    },
    {
      "id": 50,
      "x": -30.0,
      "y": 9.0
    },
    {
      "id": 51,
      "x": -16.0,
      "y": -4.0
    },
    {
      "id": 52,
      "x": -14.0,
      "y": 19.0
    },
    {
      "id": 53,
      "x": -27.0,
      "y": -34.0
    },
    {
      "id": 54,
      "x": 39.0,
      "y": 1.0
    },
    {
      "id": 55,
      "x": -17.0,
      "y": -41.0
    },
    {
      "id": 56,
      "x": 0.0,
      "y": 42.0
    },
    {
      "id": 57,
      "x": -3.0,
      "y": 25.0
    },
    {
      "id": 58,
      "x": 3.0,
      "y": -35.0
    },
    {
      "id": 59,
      "x": -21.0,
      "y": -24.0
    },
    {
      "id": 60,
      "x": -1.0,
      "y": -21.0
    },
    {
      "id": 61,
      "x": -6.0,
      "y": -45.0
    },
    {
      "id": 62,
      "x": 24.0,
      "y": 30.0
    },
    {
      "id": 63,
      "x": -30.0,
      "y": 7.0
    },
    {
      "id": 64,
      "x": 2.0,
      "y": 31.0
    },
    {
      "id": 65,
      "x": 10.0,
      "y": -18.0
    },
    {
      "id": 66,
      "x": -45.0,
      "y": -50.0
    },
    {
      "id": 67,
      "x": 6.0,
      "y": -29.0
    },
    {
      "id": 68,
      "x": -21.0,
      "y": -26.0
    },
    {
      "id": 69,
      "x": -21.0,
      "y": -50.0
    },
    {
      "id": 70,
      "x": 17.0,
      "y": 48.0
    },
    {
      "id": 71,
      "x": 49.0,
      "y": -10.0
    },
    {
      "id": 72,
      "x": 50.0,
      "y": -46.0
    },
    {
      "id": 73,
      "x": -43.0,
      "y": 26.0
    },
    {
      "id": 74,
      "x": -7.0,
      "y": -9.0
    },
    {
      "id": 75,
      "x": 27.0,
      "y": -29.0
    },
    {
      "id": 76,
      "x": 1.0,
      "y": -8.0
    },
    {
      "id": 77,
      "x": 22.0,
      "y": 29.0
    },
    {
      "id": 78,
      "x": -46.0,
      "y": 42.0
    },
    {
      "id": 79,
      "x": 21.0,
      "y": -48.0
    },
    {
      "id": 80,
      "x": -43.0,
      "y": -7.0
    },
    {
      "id": 81,
      "x": 32.0,
      "y": -11.0
    },
    {
      "id": 82,
      "x": 31.0,
      "y": 1.0
    },
    {
      "id": 83,
      "x": -28.0,
      "y": 15.0
    },
    {
      "id": 84,
      "x": -39.0,
      "y": 33.0
    },
    {
      "id": 85,
      "x": 19.0,
      "y": -6.0
    },
    {
      "id": 86,
      "x": -27.0,
      "y": -22.0
    },
    {
      "id": 87,
      "x": 14.0,
      "y": 37.0
    },
    {
      "id": 88,
      "x": -19.0,
      "y": -5.0
    },
    {
      "id": 89,
      "x": -21.0,
      "y": 5.0
    },
    {
      "id": 90,
      "x": 30.0,
      "y": -8.0
    },
    {
      "id": 91,
      "x": 8.0,
      "y": 11.0
    },
    {
      "id": 92,
      "x": -24.0,
      "y": -11.0
    },
    {
      "id": 93,
      "x": 43.0,
      "y": -49.0
    },
    {
      "id": 94,
      "x": -4.0,
      "y": -28.0
    },
    {
      "id": 95,
      "x": -31.0,
      "y": 0.0
    },
    {
      "id": 96,
      "x": 1.0,
      "y": 41.0
    },
    {
      "id": 97,
      "x": -25.0,
      "y": -9.0
    },
    {
      "id": 98,
      "x": -27.0,
      "y": 22.0
    },
    {
      "id": 99,
      "x": -2.0,
      "y": -11.0
    },
    {
      "id": 100,
      "x": -5.0,
      "y": 22.0
    }
  ],
  "truckCapacity": 200,
  "walkingSpeed": 0.1
}