{
  "bestKnownCost": 2.5251613653,
  "bestKnownDistance": 251.613652628,
  "bestKnownSolution": "",
  "bestKnownTrucks": 2,
  "bestKnownWorkers": 5,
  "bestSolutionTime": "",
  "clients": [
    {
      "demand": 10.0,
      "est": 0.0,
      "id": 5,
      "lst": 240.0,
      "st": 5.0,
      "x": -39.0,
      "y": -9.0
    },
    {
      "demand": 11.0,
      "est": 0.0,
      "id": 6,
      "lst": 90.0,
      "st": 5.0,
      "x": -26.0,
      "y": -29.0
    },
    {
      "demand": 7.0,
      "est": 360.0,
      "id": 7,
      "lst": 450.0,
      "st": 5.0,
      "x": -20.0,
      "y": 25.0
    },
    {
      "demand": 10.0,
      "est": 240.0,
      "id": 8,
      "lst": 300.0,
      "st": 5.0,
      "x": -26.0,
      "y": 5.0
    },
    {
      "demand": 9.0,
      "est": 300.0,
      "id": 9,
      "lst": 420.0,
      "st": 5.0,
      "x": -26.0,
      "y": 24.0
    },
    {
      "demand": 12.0,
      "est": 100.0,
      "id": 10,
      "lst": 160.0,
      "st": 5.0,
      "x": -34.0,
      "y": -37.0
    },
    {
      "demand": 10.0,
      "est": 180.0,
      "id": 11,
      "lst": 300.0,
      "st": 5.0,
      "x": -24.0,
      "y": 0.0
    },
    {
      "demand": 12.0,
      "est": 300.0,
      "id": 12,
      "lst": 360.0,
      "st": 5.0,
      "x": -31.0,
      "y": 4.0
    },
    {
      "demand": 8.0,
      "est": 360.0,
      "id": 13,
      "lst": 420.0,
      "st": 5.0,
      "x": -23.0,
      "y": 29.0
    },
    {
      "demand": 10.0,
      "est": 300.0,
      "id": 14,
      "lst": 360.0,
      "st": 5.0,
      "x": -29.0,
      "y": 0.0
    },
    {
      "demand": 9.0,
      "est": 0.0,
      "id": 20,
      "lst": 480.0,
      "st": 5.0,
      "x": 37.0,
      "y": 36.0
    },
    {
      "demand": 7.0,
      "est": 0.0,
      "id": 21,
      "lst": 240.0,
      "st": 5.0,
      "x": 28.0,
      "y": 21.0
    },
    {
      "demand": 10.0,
      "est": 360.0,
      "id": 22,
      "lst": 480.0,
      "st": 5.0,
      "x": 29.0,
      "y": 6.0
    },
    {
      "demand": 9.0,
      "est": 0.0,
      "id": 23,
      "lst": 240.0,
      "st": 5.0,
      "x": 32.0,
      "y": 18.0
    },
    {
      "demand": 10.0,
      "est": 0.0,
      "id": 24,
      "lst": 360.0,
      "st": 5.0,
      "x": 22.0,
      "y": 36.0
    },
    {
      "demand": 9.0,
      "est": 0.0,
      "id": 25,
      "lst": 300.0,
      "st": 5.0,
      "x": 28.0,
      "y": 35.0
    },
    {
      "demand": 8.0,
      "est": 240.0,
      "id": 26,
      "lst": 480.0,
      "st": 5.0,
      "x": 43.0,
      "y": 39.0
    },
    {
      "demand": 6.0,
      "est": 0.0,
      "id": 27,
      "lst": 240.0,
      "st": 5.0,
      "x": 24.0,
      "y": 19.0
    },
    {
      "demand": 10.0,
      "est": 0.0,
      "id": 28,
      "lst": 240.0,
      "st": 5.0,
      "x": 21.0,
      "y": 30.0
    },
    {
      "demand": 5.0,
      "est": 420.0,
      "id": 29,
      "lst": 480.0,
      "st": 5.0,
      "x": 9.0,
      "y": 15.0
    },
    {
      "demand": 10.0,
      "est": 0.0,
      "id": 30,
      "lst": 240.0,
      "st": 5.0,
      "x": 25.0,
      "y": 13.0
    }
  ],
  "costDistance": 0.0001,
  "costTruck": 1,
  "costWorker": 0.1,
  "depot": {
    "est": 0.0,
    "id": 0,
    "lst": 480.0,
    "x": 0.0,
    "y": 0.0
  },
  "description": "This instance is for presentation/ demo purposes. It can also be used to test the efficiency of algorithms as it is architectured with an optimal solution in mind. It can be solved with two truck - one with two and the other with three service workers.",
  "name": "presentation 2",
  "optimumKnown": true,
  "parkings": [
    {
      "id": 1,
      "x": -29.0,
      "y": -31.0
    },
    {
      "id": 2,
      "x": -34.0,
      "y": -12.0
    },
    {
      "id": 3,
      "x": -27.0,
      "y": 2.0
    },
    {
      "id": 4,
      "x": -23.0,
      "y": 21.0
    },
    {
      "id": 15,
      "x": 27.0,
      "y": 18.0
    },
    {
      "id": 16,
      "x": 41.0,
      "y": 36.0
    },
    {
      "id": 17,
      "x": 11.0,
      "y": 13.0
    },
    {
      "id": 18,
      "x": 24.0,
      "y": 32.0
    },
    {
      "id": 19,
      "x": 23.0,
      "y": 12.0
    }
  ],
  "truckCapacity": 100.0,
  "walkingSpeed": 0.2
}