{
  "bestKnownCost": 4.8102093,
  "bestKnownDistance": 102.093,
  "bestKnownSolution": "2;0;6,34,35,36;2,31,30,32,29;1,28,26,27;6,33;0 2;0;12,42,40,39,41;11,48,47,46;3,37,38;10,44,49,43,45;0 1;0;13,54,53;15,51,50;14,56;18,59,58,57;17,62,61,63;13,52;0 3;0;21,75,72,73,76,74;24,69,70;25,71,65,64;20,68,66,67;0",
  "bestKnownTrucks": 4,
  "bestKnownWorkers": 8,
  "bestSolutionTime": "",
  "clients": [
    {
      "demand": 9.0,
      "est": 80.0,
      "id": 5,
      "lst": 100.0,
      "st": 5.0,
      "x": -10.5,
      "y": -6.0
    },
    {
      "demand": 8.0,
      "est": 0.0,
      "id": 6,
      "lst": 50.0,
      "st": 5.0,
      "x": -4.0,
      "y": -4.5
    },
    {
      "demand": 6.0,
      "est": 80.0,
      "id": 7,
      "lst": 100.0,
      "st": 5.0,
      "x": -11.0,
      "y": -6.5
    },
    {
      "demand": 9.0,
      "est": 80.0,
      "id": 8,
      "lst": 100.0,
      "st": 5.0,
      "x": -9.5,
      "y": -7.0
    },
    {
      "demand": 10.0,
      "est": 30.0,
      "id": 9,
      "lst": 60.0,
      "st": 5.0,
      "x": -11.5,
      "y": -2.5
    },
    {
      "demand": 10.0,
      "est": 40.0,
      "id": 10,
      "lst": 70.0,
      "st": 5.0,
      "x": -10.0,
      "y": -3.0
    },
    {
      "demand": 10.0,
      "est": 30.0,
      "id": 11,
      "lst": 80.0,
      "st": 5.0,
      "x": -11.0,
      "y": -3.5
    },
    {
      "demand": 10.0,
      "est": 40.0,
      "id": 12,
      "lst": 60.0,
      "st": 5.0,
      "x": -10.5,
      "y": -2.0
    }
  ],
  "costDistance": 0.0001,
  "costTruck": 1,
  "costWorker": 0.1,
  "depot": {
    "est": 0.0,
    "id": 0,
    "lst": 205.0,
    "x": 0.0,
    "y": 0.0
  },
  "description": "This instance can be used to test the efficiency of algorithms. It is architectured with an optimal solution in mind. It can be solved with four trucks - one by one, two by two and one by three. Parking at the customer sites is forbidden by an extremely high penalty.",
  "name": "Example with 50 clients and 25 parkings",
  "optimumKnown": true,
  "parkings": [
    {
      "id": 1,
      "x": -10.0,
      "y": -7.0
    },
    {
      "id": 2,
      "x": -11.0,
      "y": -3.0
    },
    {
      "id": 3,
      "x": -6.0,
      "y": -1.5
    },
    {
      "id": 4,
      "x": -1.0,
      "y": -5.0
    }
  ],
  "penalty": 999999.0,
  "truckCapacity": 100.0,
  "walkingSpeed": 0.2
}