{
  "bestKnownCost": 9.223372036854776e+18,
  "bestKnownDistance": 9.223372036854776e+18,
  "bestKnownSolution": "",
  "bestKnownTrucks": 9223372036854775807,
  "bestKnownWorkers": 9223372036854775807,
  "bestSolutionTime": "",
  "clients": [
    {
      "demand": 10.0,
      "est": 0.0,
      "id": 2,
      "lst": 10.0,
      "st": 10.0,
      "x": 0.0,
      "y": 0.0
    },
    {
      "demand": 10.0,
      "est": 0.0,
      "id": 3,
      "lst": 10.0,
      "st": 10.0,
      "x": 2.0,
      "y": 0.0
    },
    {
      "demand": 10.0,
      "est": 0.0,
      "id": 4,
      "lst": 50.0,
      "st": 10.0,
      "x": 0.0,
      "y": 1.0
    },
    {
      "demand": 10.0,
      "est": 0.0,
      "id": 5,
      "lst": 65.0,
      "st": 10.0,
      "x": -3.0,
      "y": 1.0
    },
    {
      "demand": 10.0,
      "est": 40.0,
      "id": 7,
      "lst": 50.0,
      "st": 10.0,
      "x": 0.0,
      "y": 1.0
    },
    {
      "demand": 10.0,
      "est": 0.0,
      "id": 8,
      "lst": 10.0,
      "st": 10.0,
      "x": 0.0,
      "y": 3.0
    },
    {
      "demand": 10.0,
      "est": 0.0,
      "id": 9,
      "lst": 10.0,
      "st": 10.0,
      "x": 0.0,
      "y": 1.0
    },
    {
      "demand": 10.0,
      "est": 0.0,
      "id": 10,
      "lst": 90.0,
      "st": 10.0,
      "x": 0.0,
      "y": 0.0
    },
    {
      "demand": 10.0,
      "est": 0.0,
      "id": 12,
      "lst": 90.0,
      "st": 10.0,
      "x": 0.0,
      "y": 0.0
    },
    {
      "demand": 10.0,
      "est": 0.0,
      "id": 13,
      "lst": 90.0,
      "st": 10.0,
      "x": 0.0,
      "y": 0.0
    },
    {
      "demand": 10.0,
      "est": 0.0,
      "id": 14,
      "lst": 90.0,
      "st": 10.0,
      "x": 0.0,
      "y": 0.0
    },
    {
      "demand": 10.0,
      "est": 0.0,
      "id": 15,
      "lst": 90.0,
      "st": 10.0,
      "x": 0.0,
      "y": 0.0
    }
  ],
  "costDistance": 0.0001,
  "costTruck": 1,
  "costWorker": 0.1,
  "depot": {
    "est": 0.0,
    "id": 0,
    "lst": 480.0,
    "x": 0.0,
    "y": 0.0
  },
  "description": "dedicated for testing the problem reading facilities",
  "name": "unit tests",
  "optimumKnown": false,
  "parkings": [
    {
      "id": 1,
      "x": 0.0,
      "y": 0.0
    },
    {
      "id": 6,
      "x": 1.0,
      "y": 0.0
    },
    {
      "id": 11,
      "x": -3.0,
      "y": 1.0
    },
    {
      "id": 16,
      "x": 0.0,
      "y": 3.0
    }
  ],
  "truckCapacity": 200.0,
  "walkingSpeed": 0.2
}