{
  "bestKnownCost": 9.223372036854776e+18,
  "bestKnownDistance": 9.223372036854776e+18,
  "bestKnownSolution": "",
  "bestKnownTrucks": 9223372036854775807,
  "bestKnownWorkers": 9223372036854775807,
  "bestSolutionTime": "",
  "clients": [
    {
      "demand": 10.0,
      "est": 0.0,
      "id": 1,
      "lst": 1127.0,
      "st": 90.0,
      "x": 45.0,
      "y": 68.0
    },
    {
      "demand": 30.0,
      "est": 0.0,
      "id": 2,
      "lst": 1125.0,
      "st": 90.0,
      "x": 45.0,
      "y": 70.0
    },
    {
      "demand": 10.0,
      "est": 0.0,
      "id": 3,
      "lst": 1129.0,
      "st": 90.0,
      "x": 42.0,
      "y": 66.0
    },
    {
      "demand": 10.0,
      "est": 727.0,
      "id": 4,
      "lst": 782.0,
      "st": 90.0,
      "x": 42.0,
      "y": 68.0
    },
    {
      "demand": 10.0,
      "est": 0.0,
      "id": 5,
      "lst": 1130.0,
      "st": 90.0,
      "x": 42.0,
      "y": 65.0
    },
    {
      "demand": 20.0,
      "est": 621.0,
      "id": 6,
      "lst": 702.0,
      "st": 90.0,
      "x": 40.0,
      "y": 69.0
    },
    {
      "demand": 20.0,
      "est": 0.0,
      "id": 7,
      "lst": 1130.0,
      "st": 90.0,
      "x": 40.0,
      "y": 66.0
    },
    {
      "demand": 20.0,
      "est": 255.0,
      "id": 8,
      "lst": 324.0,
      "st": 90.0,
      "x": 38.0,
      "y": 68.0
    },
    {
      "demand": 10.0,
      "est": 534.0,
      "id": 9,
      "lst": 605.0,
      "st": 90.0,
      "x": 38.0,
      "y": 70.0
    },
    {
      "demand": 10.0,
      "est": 357.0,
      "id": 10,
      "lst": 410.0,
      "st": 90.0,
      "x": 35.0,
      "y": 66.0
    },
    {
      "demand": 10.0,
      "est": 448.0,
      "id": 11,
      "lst": 505.0,
      "st": 90.0,
      "x": 35.0,
      "y": 69.0
    },
    {
      "demand": 20.0,
      "est": 0.0,
      "id": 12,
      "lst": 1107.0,
      "st": 90.0,
      "x": 25.0,
      "y": 85.0
    },
    {
      "demand": 30.0,
      "est": 30.0,
      "id": 13,
      "lst": 92.0,
      "st": 90.0,
      "x": 22.0,
      "y": 75.0
    },
    {
      "demand": 10.0,
      "est": 0.0,
      "id": 14,
      "lst": 1106.0,
      "st": 90.0,
      "x": 22.0,
      "y": 85.0
    },
    {
      "demand": 40.0,
      "est": 384.0,
      "id": 15,
      "lst": 429.0,
      "st": 90.0,
      "x": 20.0,
      "y": 80.0
    },
    {
      "demand": 40.0,
      "est": 0.0,
      "id": 16,
      "lst": 1105.0,
      "st": 90.0,
      "x": 20.0,
      "y": 85.0
    },
    {
      "demand": 20.0,
      "est": 99.0,
      "id": 17,
      "lst": 148.0,
      "st": 90.0,
      "x": 18.0,
      "y": 75.0
    },
    {
      "demand": 20.0,
      "est": 0.0,
      "id": 18,
      "lst": 1110.0,
      "st": 90.0,
      "x": 15.0,
      "y": 75.0
    },
    {
      "demand": 10.0,
      "est": 0.0,
      "id": 19,
      "lst": 1106.0,
      "st": 90.0,
      "x": 15.0,
      "y": 80.0
    },
    {
      "demand": 10.0,
      "est": 0.0,
      "id": 20,
      "lst": 1136.0,
      "st": 90.0,
      "x": 30.0,
      "y": 50.0
    },
    {
      "demand": 20.0,
      "est": 0.0,
      "id": 21,
      "lst": 1135.0,
      "st": 90.0,
      "x": 30.0,
      "y": 52.0
    },
    {
      "demand": 20.0,
      "est": 812.0,
      "id": 22,
      "lst": 883.0,
      "st": 90.0,
      "x": 28.0,
      "y": 52.0
    },
    {
      "demand": 10.0,
      "est": 732.0,
      "id": 23,
      "lst": 777.0,
      "st": 90.0,
      "x": 28.0,
      "y": 55.0
    },
    {
      "demand": 10.0,
      "est": 0.0,
      "id": 24,
      "lst": 1131.0,
      "st": 90.0,
      "x": 25.0,
      "y": 50.0
    },
    {
      "demand": 40.0,
      "est": 169.0,
      "id": 25,
      "lst": 224.0,
      "st": 90.0,
      "x": 25.0,
      "y": 52.0
    },
    {
      "demand": 10.0,
      "est": 0.0,
      "id": 26,
      "lst": 1130.0,
      "st": 90.0,
      "x": 25.0,
      "y": 55.0
    },
    {
      "demand": 10.0,
      "est": 261.0,
      "id": 27,
      "lst": 316.0,
      "st": 90.0,
      "x": 23.0,
      "y": 52.0
    },
    {
      "demand": 20.0,
      "est": 0.0,
      "id": 28,
      "lst": 1128.0,
      "st": 90.0,
      "x": 23.0,
      "y": 55.0
    },
    {
      "demand": 10.0,
      "est": 0.0,
      "id": 29,
      "lst": 1126.0,
      "st": 90.0,
      "x": 20.0,
      "y": 50.0
    },
    {
      "demand": 10.0,
      "est": 449.0,
      "id": 30,
      "lst": 504.0,
      "st": 90.0,
      "x": 20.0,
      "y": 55.0
    },
    {
      "demand": 20.0,
      "est": 0.0,
      "id": 31,
      "lst": 1112.0,
      "st": 90.0,
      "x": 10.0,
      "y": 35.0
    },
    {
      "demand": 30.0,
      "est": 0.0,
      "id": 32,
      "lst": 1114.0,
      "st": 90.0,
      "x": 10.0,
      "y": 40.0
    },
    {
      "demand": 40.0,
      "est": 87.0,
      "id": 33,
      "lst": 158.0,
      "st": 90.0,
      "x": 8.0,
      "y": 40.0
    },
    {
      "demand": 20.0,
      "est": 0.0,
      "id": 34,
      "lst": 1113.0,
      "st": 90.0,
      "x": 8.0,
      "y": 45.0
    },
    {
      "demand": 10.0,
      "est": 283.0,
      "id": 35,
      "lst": 344.0,
      "st": 90.0,
      "x": 5.0,
      "y": 35.0
    },
    {
      "demand": 10.0,
      "est": 665.0,
      "id": 36,
      "lst": 716.0,
      "st": 90.0,
      "x": 5.0,
      "y": 45.0
    },
    {
      "demand": 20.0,
      "est": 0.0,
      "id": 37,
      "lst": 1106.0,
      "st": 90.0,
      "x": 2.0,
      "y": 40.0
    },
    {
      "demand": 30.0,
      "est": 479.0,
      "id": 38,
      "lst": 522.0,
      "st": 90.0,
      "x": 0.0,
      "y": 40.0
    },
    {
      "demand": 20.0,
      "est": 567.0,
      "id": 39,
      "lst": 624.0,
      "st": 90.0,
      "x": 0.0,
      "y": 45.0
    },
    {
      "demand": 10.0,
      "est": 264.0,
      "id": 40,
      "lst": 321.0,
      "st": 90.0,
      "x": 35.0,
      "y": 30.0
    },
    {
      "demand": 10.0,
      "est": 166.0,
      "id": 41,
      "lst": 235.0,
      "st": 90.0,
      "x": 35.0,
      "y": 32.0
    },
    {
      "demand": 20.0,
      "est": 68.0,
      "id": 42,
      "lst": 149.0,
      "st": 90.0,
      "x": 33.0,
      "y": 32.0
    },
    {
      "demand": 10.0,
      "est": 0.0,
      "id": 43,
      "lst": 1129.0,
      "st": 90.0,
      "x": 33.0,
      "y": 35.0
    },
    {
      "demand": 10.0,
      "est": 359.0,
      "id": 44,
      "lst": 412.0,
      "st": 90.0,
      "x": 32.0,
      "y": 30.0
    },
    {
      "demand": 10.0,
      "est": 541.0,
      "id": 45,
      "lst": 600.0,
      "st": 90.0,
      "x": 30.0,
      "y": 30.0
    },
    {
      "demand": 30.0,
      "est": 0.0,
      "id": 46,
      "lst": 1125.0,
      "st": 90.0,
      "x": 30.0,
      "y": 32.0
    },
    {
      "demand": 10.0,
      "est": 0.0,
      "id": 47,
      "lst": 1127.0,
      "st": 90.0,
      "x": 30.0,
      "y": 35.0
    },
    {
      "demand": 10.0,
      "est": 0.0,
      "id": 48,
      "lst": 1122.0,
      "st": 90.0,
      "x": 28.0,
      "y": 30.0
    },
    {
      "demand": 10.0,
      "est": 1001.0,
      "id": 49,
      "lst": 1066.0,
      "st": 90.0,
      "x": 28.0,
      "y": 35.0
    },
    {
      "demand": 10.0,
      "est": 0.0,
      "id": 50,
      "lst": 1123.0,
      "st": 90.0,
      "x": 26.0,
      "y": 32.0
    },
    {
      "demand": 10.0,
      "est": 0.0,
      "id": 51,
      "lst": 1121.0,
      "st": 90.0,
      "x": 25.0,
      "y": 30.0
    },
    {
      "demand": 10.0,
      "est": 0.0,
      "id": 52,
      "lst": 1124.0,
      "st": 90.0,
      "x": 25.0,
      "y": 35.0
    },
    {
      "demand": 20.0,
      "est": 286.0,
      "id": 53,
      "lst": 347.0,
      "st": 90.0,
      "x": 44.0,
      "y": 5.0
    },
    {
      "demand": 40.0,
      "est": 0.0,
      "id": 54,
      "lst": 1105.0,
      "st": 90.0,
      "x": 42.0,
      "y": 10.0
    },
    {
      "demand": 10.0,
      "est": 95.0,
      "id": 55,
      "lst": 158.0,
      "st": 90.0,
      "x": 42.0,
      "y": 15.0
    },
    {
      "demand": 30.0,
      "est": 385.0,
      "id": 56,
      "lst": 436.0,
      "st": 90.0,
      "x": 40.0,
      "y": 5.0
    },
    {
      "demand": 40.0,
      "est": 0.0,
      "id": 57,
      "lst": 1111.0,
      "st": 90.0,
      "x": 40.0,
      "y": 15.0
    },
    {
      "demand": 30.0,
      "est": 471.0,
      "id": 58,
      "lst": 534.0,
      "st": 90.0,
      "x": 38.0,
      "y": 5.0
    },
    {
      "demand": 10.0,
      "est": 0.0,
      "id": 59,
      "lst": 1110.0,
      "st": 90.0,
      "x": 38.0,
      "y": 15.0
    },
    {
      "demand": 20.0,
      "est": 0.0,
      "id": 60,
      "lst": 1100.0,
      "st": 90.0,
      "x": 35.0,
      "y": 5.0
    },
    {
      "demand": 10.0,
      "est": 0.0,
      "id": 61,
      "lst": 1123.0,
      "st": 90.0,
      "x": 50.0,
      "y": 30.0
    },
    {
      "demand": 20.0,
      "est": 262.0,
      "id": 62,
      "lst": 317.0,
      "st": 90.0,
      "x": 50.0,
      "y": 35.0
    },
    {
      "demand": 50.0,
      "est": 0.0,
      "id": 63,
      "lst": 1131.0,
      "st": 90.0,
      "x": 50.0,
      "y": 40.0
    },
    {
      "demand": 10.0,
      "est": 632.0,
      "id": 64,
      "lst": 693.0,
      "st": 90.0,
      "x": 48.0,
      "y": 30.0
    },
    {
      "demand": 10.0,
      "est": 76.0,
      "id": 65,
      "lst": 129.0,
      "st": 90.0,
      "x": 48.0,
      "y": 40.0
    },
    {
      "demand": 10.0,
      "est": 826.0,
      "id": 66,
      "lst": 875.0,
      "st": 90.0,
      "x": 47.0,
      "y": 35.0
    },
    {
      "demand": 10.0,
      "est": 12.0,
      "id": 67,
      "lst": 77.0,
      "st": 90.0,
      "x": 47.0,
      "y": 40.0
    },
    {
      "demand": 10.0,
      "est": 734.0,
      "id": 68,
      "lst": 777.0,
      "st": 90.0,
      "x": 45.0,
      "y": 30.0
    },
    {
      "demand": 10.0,
      "est": 916.0,
      "id": 69,
      "lst": 969.0,
      "st": 90.0,
      "x": 45.0,
      "y": 35.0
    },
    {
      "demand": 30.0,
      "est": 387.0,
      "id": 70,
      "lst": 456.0,
      "st": 90.0,
      "x": 95.0,
      "y": 30.0
    },
    {
      "demand": 20.0,
      "est": 0.0,
      "id": 71,
      "lst": 1088.0,
      "st": 90.0,
      "x": 95.0,
      "y": 35.0
    },
    {
      "demand": 10.0,
      "est": 0.0,
      "id": 72,
      "lst": 1122.0,
      "st": 90.0,
      "x": 53.0,
      "y": 30.0
    },
    {
      "demand": 10.0,
      "est": 0.0,
      "id": 73,
      "lst": 1090.0,
      "st": 90.0,
      "x": 92.0,
      "y": 30.0
    },
    {
      "demand": 50.0,
      "est": 353.0,
      "id": 74,
      "lst": 412.0,
      "st": 90.0,
      "x": 53.0,
      "y": 35.0
    },
    {
      "demand": 20.0,
      "est": 0.0,
      "id": 75,
      "lst": 1130.0,
      "st": 90.0,
      "x": 45.0,
      "y": 65.0
    },
    {
      "demand": 10.0,
      "est": 203.0,
      "id": 76,
      "lst": 260.0,
      "st": 90.0,
      "x": 90.0,
      "y": 35.0
    },
    {
      "demand": 10.0,
      "est": 574.0,
      "id": 77,
      "lst": 643.0,
      "st": 90.0,
      "x": 88.0,
      "y": 30.0
    },
    {
      "demand": 20.0,
      "est": 109.0,
      "id": 78,
      "lst": 170.0,
      "st": 90.0,
      "x": 88.0,
      "y": 35.0
    },
    {
      "demand": 10.0,
      "est": 668.0,
      "id": 79,
      "lst": 731.0,
      "st": 90.0,
      "x": 87.0,
      "y": 30.0
    },
    {
      "demand": 10.0,
      "est": 769.0,
      "id": 80,
      "lst": 820.0,
      "st": 90.0,
      "x": 85.0,
      "y": 25.0
    },
    {
      "demand": 30.0,
      "est": 0.0,
      "id": 81,
      "lst": 1098.0,
      "st": 90.0,
      "x": 85.0,
      "y": 35.0
    },
    {
      "demand": 20.0,
      "est": 0.0,
      "id": 82,
      "lst": 1110.0,
      "st": 90.0,
      "x": 75.0,
      "y": 55.0
    },
    {
      "demand": 10.0,
      "est": 0.0,
      "id": 83,
      "lst": 1113.0,
      "st": 90.0,
      "x": 72.0,
      "y": 55.0
    },
    {
      "demand": 20.0,
      "est": 458.0,
      "id": 84,
      "lst": 523.0,
      "st": 90.0,
      "x": 70.0,
      "y": 58.0
    },
    {
      "demand": 30.0,
      "est": 0.0,
      "id": 85,
      "lst": 1116.0,
      "st": 90.0,
      "x": 68.0,
      "y": 60.0
    },
    {
      "demand": 10.0,
      "est": 0.0,
      "id": 86,
      "lst": 1119.0,
      "st": 90.0,
      "x": 66.0,
      "y": 55.0
    },
    {
      "demand": 20.0,
      "est": 85.0,
      "id": 87,
      "lst": 144.0,
      "st": 90.0,
      "x": 65.0,
      "y": 55.0
    },
    {
      "demand": 30.0,
      "est": 645.0,
      "id": 88,
      "lst": 708.0,
      "st": 90.0,
      "x": 65.0,
      "y": 60.0
    },
    {
      "demand": 10.0,
      "est": 0.0,
      "id": 89,
      "lst": 1121.0,
      "st": 90.0,
      "x": 63.0,
      "y": 58.0
    },
    {
      "demand": 10.0,
      "est": 0.0,
      "id": 90,
      "lst": 1125.0,
      "st": 90.0,
      "x": 60.0,
      "y": 55.0
    },
    {
      "demand": 10.0,
      "est": 0.0,
      "id": 91,
      "lst": 1123.0,
      "st": 90.0,
      "x": 60.0,
      "y": 60.0
    },
    {
      "demand": 20.0,
      "est": 368.0,
      "id": 92,
      "lst": 441.0,
      "st": 90.0,
      "x": 67.0,
      "y": 85.0
    },
    {
      "demand": 40.0,
      "est": 475.0,
      "id": 93,
      "lst": 518.0,
      "st": 90.0,
      "x": 65.0,
      "y": 85.0
    },
    {
      "demand": 10.0,
      "est": 0.0,
      "id": 94,
      "lst": 1105.0,
      "st": 90.0,
      "x": 65.0,
      "y": 82.0
    },
    {
      "demand": 30.0,
      "est": 0.0,
      "id": 95,
      "lst": 1108.0,
      "st": 90.0,
      "x": 62.0,
      "y": 80.0
    },
    {
      "demand": 10.0,
      "est": 0.0,
      "id": 96,
      "lst": 1109.0,
      "st": 90.0,
      "x": 60.0,
      "y": 80.0
    },
    {
      "demand": 30.0,
      "est": 0.0,
      "id": 97,
      "lst": 1105.0,
      "st": 90.0,
      "x": 60.0,
      "y": 85.0
    },
    {
      "demand": 20.0,
      "est": 0.0,
      "id": 98,
      "lst": 1115.0,
      "st": 90.0,
      "x": 58.0,
      "y": 75.0
    },
    {
      "demand": 10.0,
      "est": 743.0,
      "id": 99,
      "lst": 820.0,
      "st": 90.0,
      "x": 55.0,
      "y": 80.0
    },
    {
      "demand": 20.0,
      "est": 647.0,
      "id": 100,
      "lst": 726.0,
      "st": 90.0,
      "x": 55.0,
      "y": 85.0
    }
  ],
  "costDistance": 0.0001,
  "costTruck": 1,
  "costWorker": 0.1,
  "depot": {
    "est": 0.0,
    "id": 0,
    "lst": 1236.0,
    "x": 40.0,
    "y": 50.0
  },
  "description": "",
  "name": "C103",
  "optimumKnown": false,
  "parkings": [
    {
      "id": 101,
      "x": 45.0,
      "y": 68.0
    },
    {
      "id": 102,
      "x": 45.0,
      "y": 70.0
    },
    {
      "id": 103,
      "x": 42.0,
      "y": 66.0
    },
    {
      "id": 104,
      "x": 42.0,
      "y": 68.0
    },
    {
      "id": 105,
      "x": 42.0,
      "y": 65.0
    },
    {
      "id": 106,
      "x": 40.0,
      "y": 69.0
    },
    {
      "id": 107,
      "x": 40.0,
      "y": 66.0
    },
    {
      "id": 108,
      "x": 38.0,
      "y": 68.0
    },
    {
      "id": 109,
      "x": 38.0,
      "y": 70.0
    },
    {
      "id": 110,
      "x": 35.0,
      "y": 66.0
    },
    {
      "id": 111,
      "x": 35.0,
      "y": 69.0
    },
    {
      "id": 112,
      "x": 25.0,
      "y": 85.0
    },
    {
      "id": 113,
      "x": 22.0,
      "y": 75.0
    },
    {
      "id": 114,
      "x": 22.0,
      "y": 85.0
    },
    {
      "id": 115,
      "x": 20.0,
      "y": 80.0
    },
    {
      "id": 116,
      "x": 20.0,
      "y": 85.0
    },
    {
      "id": 117,
      "x": 18.0,
      "y": 75.0
    },
    {
      "id": 118,
      "x": 15.0,
      "y": 75.0
    },
    {
      "id": 119,
      "x": 15.0,
      "y": 80.0
    },
    {
      "id": 120,
      "x": 30.0,
      "y": 50.0
    },
    {
      "id": 121,
      "x": 30.0,
      "y": 52.0
    },
    {
      "id": 122,
      "x": 28.0,
      "y": 52.0
    },
    {
      "id": 123,
      "x": 28.0,
      "y": 55.0
    },
    {
      "id": 124,
      "x": 25.0,
      "y": 50.0
    },
    {
      "id": 125,
      "x": 25.0,
      "y": 52.0
    },
    {
      "id": 126,
      "x": 25.0,
      "y": 55.0
    },
    {
      "id": 127,
      "x": 23.0,
      "y": 52.0
    },
    {
      "id": 128,
      "x": 23.0,
      "y": 55.0
    },
    {
      "id": 129,
      "x": 20.0,
      "y": 50.0
    },
    {
      "id": 130,
      "x": 20.0,
      "y": 55.0
    },
    {
      "id": 131,
      "x": 10.0,
      "y": 35.0
    },
    {
      "id": 132,
      "x": 10.0,
      "y": 40.0
    },
    {
      "id": 133,
      "x": 8.0,
      "y": 40.0
    },
    {
      "id": 134,
      "x": 8.0,
      "y": 45.0
    },
    {
      "id": 135,
      "x": 5.0,
      "y": 35.0
    },
    {
      "id": 136,
      "x": 5.0,
      "y": 45.0
    },
    {
      "id": 137,
      "x": 2.0,
      "y": 40.0
    },
    {
      "id": 138,
      "x": 0.0,
      "y": 40.0
    },
    {
      "id": 139,
      "x": 0.0,
      "y": 45.0
    },
    {
      "id": 140,
      "x": 35.0,
      "y": 30.0
    },
    {
      "id": 141,
      "x": 35.0,
      "y": 32.0
    },
    {
      "id": 142,
      "x": 33.0,
      "y": 32.0
    },
    {
      "id": 143,
      "x": 33.0,
      "y": 35.0
    },
    {
      "id": 144,
      "x": 32.0,
      "y": 30.0
    },
    {
      "id": 145,
      "x": 30.0,
      "y": 30.0
    },
    {
      "id": 146,
      "x": 30.0,
      "y": 32.0
    },
    {
      "id": 147,
      "x": 30.0,
      "y": 35.0
    },
    {
      "id": 148,
      "x": 28.0,
      "y": 30.0
    },
    {
      "id": 149,
      "x": 28.0,
      "y": 35.0
    },
    {
      "id": 150,
      "x": 26.0,
      "y": 32.0
    },
    {
      "id": 151,
      "x": 25.0,
      "y": 30.0
    },
    {
      "id": 152,
      "x": 25.0,
      "y": 35.0
    },
    {
      "id": 153,
      "x": 44.0,
      "y": 5.0
    },
    {
      "id": 154,
      "x": 42.0,
      "y": 10.0
    },
    {
      "id": 155,
      "x": 42.0,
      "y": 15.0
    },
    {
      "id": 156,
      "x": 40.0,
      "y": 5.0
    },
    {
      "id": 157,
      "x": 40.0,
      "y": 15.0
    },
    {
      "id": 158,
      "x": 38.0,
      "y": 5.0
    },
    {
      "id": 159,
      "x": 38.0,
      "y": 15.0
    },
    {
      "id": 160,
      "x": 35.0,
      "y": 5.0
    },
    {
      "id": 161,
      "x": 50.0,
      "y": 30.0
    },
    {
      "id": 162,
      "x": 50.0,
      "y": 35.0
    },
    {
      "id": 163,
      "x": 50.0,
      "y": 40.0
    },
    {
      "id": 164,
      "x": 48.0,
      "y": 30.0
    },
    {
      "id": 165,
      "x": 48.0,
      "y": 40.0
    },
    {
      "id": 166,
      "x": 47.0,
      "y": 35.0
    },
    {
      "id": 167,
      "x": 47.0,
      "y": 40.0
    },
    {
      "id": 168,
      "x": 45.0,
      "y": 30.0
    },
    {
      "id": 169,
      "x": 45.0,
      "y": 35.0
    },
    {
      "id": 170,
      "x": 95.0,
      "y": 30.0
    },
    {
      "id": 171,
      "x": 95.0,
      "y": 35.0
    },
    {
      "id": 172,
      "x": 53.0,
      "y": 30.0
    },
    {
      "id": 173,
      "x": 92.0,
      "y": 30.0
    },
    {
      "id": 174,
      "x": 53.0,
      "y": 35.0
    },
    {
      "id": 175,
      "x": 45.0,
      "y": 65.0
    },
    {
      "id": 176,
      "x": 90.0,
      "y": 35.0
    },
    {
      "id": 177,
      "x": 88.0,
      "y": 30.0
    },
    {
      "id": 178,
      "x": 88.0,
      "y": 35.0
    },
    {
      "id": 179,
      "x": 87.0,
      "y": 30.0
    },
    {
      "id": 180,
      "x": 85.0,
      "y": 25.0
    },
    {
      "id": 181,
      "x": 85.0,
      "y": 35.0
    },
    {
      "id": 182,
      "x": 75.0,
      "y": 55.0
    },
    {
      "id": 183,
      "x": 72.0,
      "y": 55.0
    },
    {
      "id": 184,
      "x": 70.0,
      "y": 58.0
    },
    {
      "id": 185,
      "x": 68.0,
      "y": 60.0
    },
    {
      "id": 186,
      "x": 66.0,
      "y": 55.0
    },
    {
      "id": 187,
      "x": 65.0,
      "y": 55.0
    },
    {
      "id": 188,
      "x": 65.0,
      "y": 60.0
    },
    {
      "id": 189,
      "x": 63.0,
      "y": 58.0
    },
    {
      "id": 190,
      "x": 60.0,
      "y": 55.0
    },
    {
      "id": 191,
      "x": 60.0,
      "y": 60.0
    },
    {
      "id": 192,
      "x": 67.0,
      "y": 85.0
    },
    {
      "id": 193,
      "x": 65.0,
      "y": 85.0
    },
    {
      "id": 194,
      "x": 65.0,
      "y": 82.0
    },
    {
      "id": 195,
      "x": 62.0,
      "y": 80.0
    },
    {
      "id": 196,
      "x": 60.0,
      "y": 80.0
    },
    {
      "id": 197,
      "x": 60.0,
      "y": 85.0
    },
    {
      "id": 198,
      "x": 58.0,
      "y": 75.0
    },
    {
      "id": 199,
      "x": 55.0,
      "y": 80.0
    },
    {
      "id": 200,
      "x": 55.0,
      "y": 85.0
    }
  ],
  "truckCapacity": 200.0
}
