{
  "bestKnownCost": 9.223372036854776e+18,
  "bestKnownDistance": 9.223372036854776e+18,
  "bestKnownSolution": "",
  "bestKnownTrucks": 9223372036854775807,
  "bestKnownWorkers": 9223372036854775807,
  "bestSolutionTime": "",
  "clients": [
    {
      "demand": 10.0,
      "est": 0.0,
      "id": 1,
      "lst": 3272.0,
      "st": 90.0,
      "x": 52.0,
      "y": 75.0
    },
    {
      "demand": 30.0,
      "est": 0.0,
      "id": 2,
      "lst": 3279.0,
      "st": 90.0,
      "x": 45.0,
      "y": 70.0
    },
    {
      "demand": 10.0,
      "est": 0.0,
      "id": 3,
      "lst": 3270.0,
      "st": 90.0,
      "x": 62.0,
      "y": 69.0
    },
    {
      "demand": 10.0,
      "est": 1261.0,
      "id": 4,
      "lst": 1421.0,
      "st": 90.0,
      "x": 60.0,
      "y": 66.0
    },
    {
      "demand": 10.0,
      "est": 0.0,
      "id": 5,
      "lst": 3284.0,
      "st": 90.0,
      "x": 42.0,
      "y": 65.0
    },
    {
      "demand": 20.0,
      "est": 497.0,
      "id": 6,
      "lst": 657.0,
      "st": 90.0,
      "x": 16.0,
      "y": 42.0
    },
    {
      "demand": 20.0,
      "est": 0.0,
      "id": 7,
      "lst": 3273.0,
      "st": 90.0,
      "x": 58.0,
      "y": 70.0
    },
    {
      "demand": 20.0,
      "est": 2887.0,
      "id": 8,
      "lst": 3047.0,
      "st": 90.0,
      "x": 34.0,
      "y": 60.0
    },
    {
      "demand": 10.0,
      "est": 2601.0,
      "id": 9,
      "lst": 2761.0,
      "st": 90.0,
      "x": 28.0,
      "y": 70.0
    },
    {
      "demand": 10.0,
      "est": 2791.0,
      "id": 10,
      "lst": 2951.0,
      "st": 90.0,
      "x": 35.0,
      "y": 66.0
    },
    {
      "demand": 10.0,
      "est": 2698.0,
      "id": 11,
      "lst": 2858.0,
      "st": 90.0,
      "x": 35.0,
      "y": 69.0
    },
    {
      "demand": 20.0,
      "est": 0.0,
      "id": 12,
      "lst": 3261.0,
      "st": 90.0,
      "x": 25.0,
      "y": 85.0
    },
    {
      "demand": 30.0,
      "est": 2405.0,
      "id": 13,
      "lst": 2565.0,
      "st": 90.0,
      "x": 22.0,
      "y": 75.0
    },
    {
      "demand": 10.0,
      "est": 0.0,
      "id": 14,
      "lst": 3260.0,
      "st": 90.0,
      "x": 22.0,
      "y": 85.0
    },
    {
      "demand": 40.0,
      "est": 2216.0,
      "id": 15,
      "lst": 2376.0,
      "st": 90.0,
      "x": 20.0,
      "y": 80.0
    },
    {
      "demand": 40.0,
      "est": 0.0,
      "id": 16,
      "lst": 3259.0,
      "st": 90.0,
      "x": 20.0,
      "y": 85.0
    },
    {
      "demand": 20.0,
      "est": 2311.0,
      "id": 17,
      "lst": 2471.0,
      "st": 90.0,
      "x": 18.0,
      "y": 75.0
    },
    {
      "demand": 20.0,
      "est": 0.0,
      "id": 18,
      "lst": 3264.0,
      "st": 90.0,
      "x": 15.0,
      "y": 75.0
    },
    {
      "demand": 10.0,
      "est": 0.0,
      "id": 19,
      "lst": 3260.0,
      "st": 90.0,
      "x": 15.0,
      "y": 80.0
    },
    {
      "demand": 10.0,
      "est": 0.0,
      "id": 20,
      "lst": 3290.0,
      "st": 90.0,
      "x": 30.0,
      "y": 50.0
    },
    {
      "demand": 20.0,
      "est": 0.0,
      "id": 21,
      "lst": 3288.0,
      "st": 90.0,
      "x": 30.0,
      "y": 56.0
    },
    {
      "demand": 20.0,
      "est": 22.0,
      "id": 22,
      "lst": 182.0,
      "st": 90.0,
      "x": 28.0,
      "y": 52.0
    },
    {
      "demand": 10.0,
      "est": 1643.0,
      "id": 23,
      "lst": 1803.0,
      "st": 90.0,
      "x": 14.0,
      "y": 66.0
    },
    {
      "demand": 10.0,
      "est": 0.0,
      "id": 24,
      "lst": 3285.0,
      "st": 90.0,
      "x": 25.0,
      "y": 50.0
    },
    {
      "demand": 40.0,
      "est": 2504.0,
      "id": 25,
      "lst": 2664.0,
      "st": 90.0,
      "x": 22.0,
      "y": 66.0
    },
    {
      "demand": 10.0,
      "est": 0.0,
      "id": 26,
      "lst": 3265.0,
      "st": 90.0,
      "x": 8.0,
      "y": 62.0
    },
    {
      "demand": 10.0,
      "est": 209.0,
      "id": 27,
      "lst": 369.0,
      "st": 90.0,
      "x": 23.0,
      "y": 52.0
    },
    {
      "demand": 20.0,
      "est": 0.0,
      "id": 28,
      "lst": 3263.0,
      "st": 90.0,
      "x": 4.0,
      "y": 55.0
    },
    {
      "demand": 10.0,
      "est": 0.0,
      "id": 29,
      "lst": 3280.0,
      "st": 90.0,
      "x": 20.0,
      "y": 50.0
    },
    {
      "demand": 10.0,
      "est": 303.0,
      "id": 30,
      "lst": 463.0,
      "st": 90.0,
      "x": 20.0,
      "y": 55.0
    },
    {
      "demand": 20.0,
      "est": 0.0,
      "id": 31,
      "lst": 3266.0,
      "st": 90.0,
      "x": 10.0,
      "y": 35.0
    },
    {
      "demand": 30.0,
      "est": 0.0,
      "id": 32,
      "lst": 3268.0,
      "st": 90.0,
      "x": 10.0,
      "y": 40.0
    },
    {
      "demand": 40.0,
      "est": 685.0,
      "id": 33,
      "lst": 845.0,
      "st": 90.0,
      "x": 8.0,
      "y": 40.0
    },
    {
      "demand": 20.0,
      "est": 0.0,
      "id": 34,
      "lst": 3267.0,
      "st": 90.0,
      "x": 8.0,
      "y": 45.0
    },
    {
      "demand": 10.0,
      "est": 876.0,
      "id": 35,
      "lst": 1036.0,
      "st": 90.0,
      "x": 5.0,
      "y": 35.0
    },
    {
      "demand": 10.0,
      "est": 1253.0,
      "id": 36,
      "lst": 1413.0,
      "st": 90.0,
      "x": 5.0,
      "y": 45.0
    },
    {
      "demand": 20.0,
      "est": 0.0,
      "id": 37,
      "lst": 3260.0,
      "st": 90.0,
      "x": 2.0,
      "y": 40.0
    },
    {
      "demand": 30.0,
      "est": 1063.0,
      "id": 38,
      "lst": 1223.0,
      "st": 90.0,
      "x": 0.0,
      "y": 40.0
    },
    {
      "demand": 20.0,
      "est": 1158.0,
      "id": 39,
      "lst": 1318.0,
      "st": 90.0,
      "x": 0.0,
      "y": 45.0
    },
    {
      "demand": 10.0,
      "est": 1819.0,
      "id": 40,
      "lst": 1979.0,
      "st": 90.0,
      "x": 36.0,
      "y": 18.0
    },
    {
      "demand": 10.0,
      "est": 2758.0,
      "id": 41,
      "lst": 2918.0,
      "st": 90.0,
      "x": 35.0,
      "y": 32.0
    },
    {
      "demand": 20.0,
      "est": 2666.0,
      "id": 42,
      "lst": 2826.0,
      "st": 90.0,
      "x": 33.0,
      "y": 32.0
    },
    {
      "demand": 10.0,
      "est": 0.0,
      "id": 43,
      "lst": 3283.0,
      "st": 90.0,
      "x": 33.0,
      "y": 35.0
    },
    {
      "demand": 10.0,
      "est": 1913.0,
      "id": 44,
      "lst": 2073.0,
      "st": 90.0,
      "x": 32.0,
      "y": 20.0
    },
    {
      "demand": 10.0,
      "est": 2105.0,
      "id": 45,
      "lst": 2265.0,
      "st": 90.0,
      "x": 30.0,
      "y": 30.0
    },
    {
      "demand": 30.0,
      "est": 0.0,
      "id": 46,
      "lst": 3274.0,
      "st": 90.0,
      "x": 34.0,
      "y": 25.0
    },
    {
      "demand": 10.0,
      "est": 0.0,
      "id": 47,
      "lst": 3281.0,
      "st": 90.0,
      "x": 30.0,
      "y": 35.0
    },
    {
      "demand": 10.0,
      "est": 0.0,
      "id": 48,
      "lst": 3289.0,
      "st": 90.0,
      "x": 36.0,
      "y": 40.0
    },
    {
      "demand": 10.0,
      "est": 967.0,
      "id": 49,
      "lst": 1127.0,
      "st": 90.0,
      "x": 48.0,
      "y": 20.0
    },
    {
      "demand": 10.0,
      "est": 0.0,
      "id": 50,
      "lst": 3277.0,
      "st": 90.0,
      "x": 26.0,
      "y": 32.0
    },
    {
      "demand": 10.0,
      "est": 0.0,
      "id": 51,
      "lst": 3275.0,
      "st": 90.0,
      "x": 25.0,
      "y": 30.0
    },
    {
      "demand": 10.0,
      "est": 0.0,
      "id": 52,
      "lst": 3278.0,
      "st": 90.0,
      "x": 25.0,
      "y": 35.0
    },
    {
      "demand": 20.0,
      "est": 1256.0,
      "id": 53,
      "lst": 1416.0,
      "st": 90.0,
      "x": 44.0,
      "y": 5.0
    },
    {
      "demand": 40.0,
      "est": 0.0,
      "id": 54,
      "lst": 3259.0,
      "st": 90.0,
      "x": 42.0,
      "y": 10.0
    },
    {
      "demand": 10.0,
      "est": 1065.0,
      "id": 55,
      "lst": 1225.0,
      "st": 90.0,
      "x": 42.0,
      "y": 15.0
    },
    {
      "demand": 30.0,
      "est": 1350.0,
      "id": 56,
      "lst": 1510.0,
      "st": 90.0,
      "x": 40.0,
      "y": 5.0
    },
    {
      "demand": 40.0,
      "est": 0.0,
      "id": 57,
      "lst": 3264.0,
      "st": 90.0,
      "x": 38.0,
      "y": 15.0
    },
    {
      "demand": 30.0,
      "est": 1442.0,
      "id": 58,
      "lst": 1602.0,
      "st": 90.0,
      "x": 38.0,
      "y": 5.0
    },
    {
      "demand": 10.0,
      "est": 0.0,
      "id": 59,
      "lst": 3259.0,
      "st": 90.0,
      "x": 38.0,
      "y": 10.0
    },
    {
      "demand": 20.0,
      "est": 0.0,
      "id": 60,
      "lst": 3254.0,
      "st": 90.0,
      "x": 35.0,
      "y": 5.0
    },
    {
      "demand": 10.0,
      "est": 0.0,
      "id": 61,
      "lst": 3277.0,
      "st": 90.0,
      "x": 50.0,
      "y": 30.0
    },
    {
      "demand": 20.0,
      "est": 120.0,
      "id": 62,
      "lst": 280.0,
      "st": 90.0,
      "x": 50.0,
      "y": 35.0
    },
    {
      "demand": 50.0,
      "est": 0.0,
      "id": 63,
      "lst": 3285.0,
      "st": 90.0,
      "x": 50.0,
      "y": 40.0
    },
    {
      "demand": 10.0,
      "est": 493.0,
      "id": 64,
      "lst": 653.0,
      "st": 90.0,
      "x": 48.0,
      "y": 30.0
    },
    {
      "demand": 10.0,
      "est": 871.0,
      "id": 65,
      "lst": 1031.0,
      "st": 90.0,
      "x": 44.0,
      "y": 25.0
    },
    {
      "demand": 10.0,
      "est": 588.0,
      "id": 66,
      "lst": 748.0,
      "st": 90.0,
      "x": 47.0,
      "y": 35.0
    },
    {
      "demand": 10.0,
      "est": 12.0,
      "id": 67,
      "lst": 172.0,
      "st": 90.0,
      "x": 47.0,
      "y": 40.0
    },
    {
      "demand": 10.0,
      "est": 776.0,
      "id": 68,
      "lst": 936.0,
      "st": 90.0,
      "x": 42.0,
      "y": 30.0
    },
    {
      "demand": 10.0,
      "est": 680.0,
      "id": 69,
      "lst": 840.0,
      "st": 90.0,
      "x": 45.0,
      "y": 35.0
    },
    {
      "demand": 30.0,
      "est": 2321.0,
      "id": 70,
      "lst": 2481.0,
      "st": 90.0,
      "x": 95.0,
      "y": 30.0
    },
    {
      "demand": 20.0,
      "est": 0.0,
      "id": 71,
      "lst": 3242.0,
      "st": 90.0,
      "x": 95.0,
      "y": 35.0
    },
    {
      "demand": 10.0,
      "est": 0.0,
      "id": 72,
      "lst": 3276.0,
      "st": 90.0,
      "x": 53.0,
      "y": 30.0
    },
    {
      "demand": 10.0,
      "est": 0.0,
      "id": 73,
      "lst": 3244.0,
      "st": 90.0,
      "x": 92.0,
      "y": 30.0
    },
    {
      "demand": 50.0,
      "est": 213.0,
      "id": 74,
      "lst": 373.0,
      "st": 90.0,
      "x": 53.0,
      "y": 35.0
    },
    {
      "demand": 20.0,
      "est": 0.0,
      "id": 75,
      "lst": 3284.0,
      "st": 90.0,
      "x": 45.0,
      "y": 65.0
    },
    {
      "demand": 10.0,
      "est": 2131.0,
      "id": 76,
      "lst": 2291.0,
      "st": 90.0,
      "x": 90.0,
      "y": 35.0
    },
    {
      "demand": 10.0,
      "est": 2900.0,
      "id": 77,
      "lst": 3060.0,
      "st": 90.0,
      "x": 72.0,
      "y": 45.0
    },
    {
      "demand": 20.0,
      "est": 2802.0,
      "id": 78,
      "lst": 2962.0,
      "st": 90.0,
      "x": 78.0,
      "y": 40.0
    },
    {
      "demand": 10.0,
      "est": 2608.0,
      "id": 79,
      "lst": 2768.0,
      "st": 90.0,
      "x": 87.0,
      "y": 30.0
    },
    {
      "demand": 10.0,
      "est": 2513.0,
      "id": 80,
      "lst": 2673.0,
      "st": 90.0,
      "x": 85.0,
      "y": 25.0
    },
    {
      "demand": 30.0,
      "est": 0.0,
      "id": 81,
      "lst": 3252.0,
      "st": 90.0,
      "x": 85.0,
      "y": 35.0
    },
    {
      "demand": 20.0,
      "est": 0.0,
      "id": 82,
      "lst": 3264.0,
      "st": 90.0,
      "x": 75.0,
      "y": 55.0
    },
    {
      "demand": 10.0,
      "est": 0.0,
      "id": 83,
      "lst": 3267.0,
      "st": 90.0,
      "x": 72.0,
      "y": 55.0
    },
    {
      "demand": 20.0,
      "est": 1641.0,
      "id": 84,
      "lst": 1801.0,
      "st": 90.0,
      "x": 70.0,
      "y": 58.0
    },
    {
      "demand": 30.0,
      "est": 0.0,
      "id": 85,
      "lst": 3253.0,
      "st": 90.0,
      "x": 86.0,
      "y": 46.0
    },
    {
      "demand": 10.0,
      "est": 0.0,
      "id": 86,
      "lst": 3273.0,
      "st": 90.0,
      "x": 66.0,
      "y": 55.0
    },
    {
      "demand": 20.0,
      "est": 3097.0,
      "id": 87,
      "lst": 3257.0,
      "st": 90.0,
      "x": 64.0,
      "y": 46.0
    },
    {
      "demand": 30.0,
      "est": 1546.0,
      "id": 88,
      "lst": 1706.0,
      "st": 90.0,
      "x": 65.0,
      "y": 60.0
    },
    {
      "demand": 10.0,
      "est": 0.0,
      "id": 89,
      "lst": 3278.0,
      "st": 90.0,
      "x": 56.0,
      "y": 64.0
    },
    {
      "demand": 10.0,
      "est": 0.0,
      "id": 90,
      "lst": 3279.0,
      "st": 90.0,
      "x": 60.0,
      "y": 55.0
    },
    {
      "demand": 10.0,
      "est": 0.0,
      "id": 91,
      "lst": 3277.0,
      "st": 90.0,
      "x": 60.0,
      "y": 60.0
    },
    {
      "demand": 20.0,
      "est": 694.0,
      "id": 92,
      "lst": 854.0,
      "st": 90.0,
      "x": 67.0,
      "y": 85.0
    },
    {
      "demand": 40.0,
      "est": 8.0,
      "id": 93,
      "lst": 168.0,
      "st": 90.0,
      "x": 42.0,
      "y": 58.0
    },
    {
      "demand": 10.0,
      "est": 0.0,
      "id": 94,
      "lst": 3259.0,
      "st": 90.0,
      "x": 65.0,
      "y": 82.0
    },
    {
      "demand": 30.0,
      "est": 0.0,
      "id": 95,
      "lst": 3262.0,
      "st": 90.0,
      "x": 62.0,
      "y": 80.0
    },
    {
      "demand": 10.0,
      "est": 0.0,
      "id": 96,
      "lst": 3275.0,
      "st": 90.0,
      "x": 62.0,
      "y": 40.0
    },
    {
      "demand": 30.0,
      "est": 0.0,
      "id": 97,
      "lst": 3259.0,
      "st": 90.0,
      "x": 60.0,
      "y": 85.0
    },
    {
      "demand": 20.0,
      "est": 0.0,
      "id": 98,
      "lst": 3269.0,
      "st": 90.0,
      "x": 58.0,
      "y": 75.0
    },
    {
      "demand": 10.0,
      "est": 407.0,
      "id": 99,
      "lst": 567.0,
      "st": 90.0,
      "x": 55.0,
      "y": 80.0
    },
    {
      "demand": 20.0,
      "est": 502.0,
      "id": 100,
      "lst": 662.0,
      "st": 90.0,
      "x": 55.0,
      "y": 85.0
    }
  ],
  "costDistance": 0.0001,
  "costTruck": 1,
  "costWorker": 0.1,
  "depot": {
    "est": 0.0,
    "id": 0,
    "lst": 3390.0,
    "x": 40.0,
    "y": 50.0
  },
  "description": "",
  "name": "C203",
  "optimumKnown": false,
  "parkings": [
    {
      "id": 101,
      "x": 52.0,
      "y": 75.0
    },
    {
      "id": 102,
      "x": 45.0,
      "y": 70.0
    },
    {
      "id": 103,
      "x": 62.0,
      "y": 69.0
    },
    {
      "id": 104,
      "x": 60.0,
      "y": 66.0
    },
    {
      "id": 105,
      "x": 42.0,
      "y": 65.0
    },
    {
      "id": 106,
      "x": 16.0,
      "y": 42.0
    },
    {
      "id": 107,
      "x": 58.0,
      "y": 70.0
    },
    {
      "id": 108,
      "x": 34.0,
      "y": 60.0
    },
    {
      "id": 109,
      "x": 28.0,
      "y": 70.0
    },
    {
      "id": 110,
      "x": 35.0,
      "y": 66.0
    },
    {
      "id": 111,
      "x": 35.0,
      "y": 69.0
    },
    {
      "id": 112,
      "x": 25.0,
      "y": 85.0
    },
    {
      "id": 113,
      "x": 22.0,
      "y": 75.0
    },
    {
      "id": 114,
      "x": 22.0,
      "y": 85.0
    },
    {
      "id": 115,
      "x": 20.0,
      "y": 80.0
    },
    {
      "id": 116,
      "x": 20.0,
      "y": 85.0
    },
    {
      "id": 117,
      "x": 18.0,
      "y": 75.0
    },
    {
      "id": 118,
      "x": 15.0,
      "y": 75.0
    },
    {
      "id": 119,
      "x": 15.0,
      "y": 80.0
    },
    {
      "id": 120,
      "x": 30.0,
      "y": 50.0
    },
    {
      "id": 121,
      "x": 30.0,
      "y": 56.0
    },
    {
      "id": 122,
      "x": 28.0,
      "y": 52.0
    },
    {
      "id": 123,
      "x": 14.0,
      "y": 66.0
    },
    {
      "id": 124,
      "x": 25.0,
      "y": 50.0
    },
    {
      "id": 125,
      "x": 22.0,
      "y": 66.0
    },
    {
      "id": 126,
      "x": 8.0,
      "y": 62.0
    },
    {
      "id": 127,
      "x": 23.0,
      "y": 52.0
    },
    {
      "id": 128,
      "x": 4.0,
      "y": 55.0
    },
    {
      "id": 129,
      "x": 20.0,
      "y": 50.0
    },
    {
      "id": 130,
      "x": 20.0,
      "y": 55.0
    },
    {
      "id": 131,
      "x": 10.0,
      "y": 35.0
    },
    {
      "id": 132,
      "x": 10.0,
      "y": 40.0
    },
    {
      "id": 133,
      "x": 8.0,
      "y": 40.0
    },
    {
      "id": 134,
      "x": 8.0,
      "y": 45.0
    },
    {
      "id": 135,
      "x": 5.0,
      "y": 35.0
    },
    {
      "id": 136,
      "x": 5.0,
      "y": 45.0
    },
    {
      "id": 137,
      "x": 2.0,
      "y": 40.0
    },
    {
      "id": 138,
      "x": 0.0,
      "y": 40.0
    },
    {
      "id": 139,
      "x": 0.0,
      "y": 45.0
    },
    {
      "id": 140,
      "x": 36.0,
      "y": 18.0
    },
    {
      "id": 141,
      "x": 35.0,
      "y": 32.0
    },
    {
      "id": 142,
      "x": 33.0,
      "y": 32.0
    },
    {
      "id": 143,
      "x": 33.0,
      "y": 35.0
    },
    {
      "id": 144,
      "x": 32.0,
      "y": 20.0
    },
    {
      "id": 145,
      "x": 30.0,
      "y": 30.0
    },
    {
      "id": 146,
      "x": 34.0,
      "y": 25.0
    },
    {
      "id": 147,
      "x": 30.0,
      "y": 35.0
    },
    {
      "id": 148,
      "x": 36.0,
      "y": 40.0
    },
    {
      "id": 149,
      "x": 48.0,
      "y": 20.0
    },
    {
      "id": 150,
      "x": 26.0,
      "y": 32.0
    },
    {
      "id": 151,
      "x": 25.0,
      "y": 30.0
    },
    {
      "id": 152,
      "x": 25.0,
      "y": 35.0
    },
    {
      "id": 153,
      "x": 44.0,
      "y": 5.0
    },
    {
      "id": 154,
      "x": 42.0,
      "y": 10.0
    },
    {
      "id": 155,
      "x": 42.0,
      "y": 15.0
    },
    {
      "id": 156,
      "x": 40.0,
      "y": 5.0
    },
    {
      "id": 157,
      "x": 38.0,
      "y": 15.0
    },
    {
      "id": 158,
      "x": 38.0,
      "y": 5.0
    },
    {
      "id": 159,
      "x": 38.0,
      "y": 10.0
    },
    {
      "id": 160,
      "x": 35.0,
      "y": 5.0
    },
    {
      "id": 161,
      "x": 50.0,
      "y": 30.0
    },
    {
      "id": 162,
      "x": 50.0,
      "y": 35.0
    },
    {
      "id": 163,
      "x": 50.0,
      "y": 40.0
    },
    {
      "id": 164,
      "x": 48.0,
      "y": 30.0
    },
    {
      "id": 165,
      "x": 44.0,
      "y": 25.0
    },
    {
      "id": 166,
      "x": 47.0,
      "y": 35.0
    },
    {
      "id": 167,
      "x": 47.0,
      "y": 40.0
    },
    {
      "id": 168,
      "x": 42.0,
      "y": 30.0
    },
    {
      "id": 169,
      "x": 45.0,
      "y": 35.0
    },
    {
      "id": 170,
      "x": 95.0,
      "y": 30.0
    },
    {
      "id": 171,
      "x": 95.0,
      "y": 35.0
    },
    {
      "id": 172,
      "x": 53.0,
      "y": 30.0
    },
    {
      "id": 173,
      "x": 92.0,
      "y": 30.0
    },
    {
      "id": 174,
      "x": 53.0,
      "y": 35.0
    },
    {
      "id": 175,
      "x": 45.0,
      "y": 65.0
    },
    {
      "id": 176,
      "x": 90.0,
      "y": 35.0
    },
    {
      "id": 177,
      "x": 72.0,
      "y": 45.0
    },
    {
      "id": 178,
      "x": 78.0,
      "y": 40.0
    },
    {
      "id": 179,
      "x": 87.0,
      "y": 30.0
    },
    {
      "id": 180,
      "x": 85.0,
      "y": 25.0
    },
    {
      "id": 181,
      "x": 85.0,
      "y": 35.0
    },
    {
      "id": 182,
      "x": 75.0,
      "y": 55.0
    },
    {
      "id": 183,
      "x": 72.0,
      "y": 55.0
    },
    {
      "id": 184,
      "x": 70.0,
      "y": 58.0
    },
    {
      "id": 185,
      "x": 86.0,
      "y": 46.0
    },
    {
      "id": 186,
      "x": 66.0,
      "y": 55.0
    },
    {
      "id": 187,
      "x": 64.0,
      "y": 46.0
    },
    {
      "id": 188,
      "x": 65.0,
      "y": 60.0
    },
    {
      "id": 189,
      "x": 56.0,
      "y": 64.0
    },
    {
      "id": 190,
      "x": 60.0,
      "y": 55.0
    },
    {
      "id": 191,
      "x": 60.0,
      "y": 60.0
    },
    {
      "id": 192,
      "x": 67.0,
      "y": 85.0
    },
    {
      "id": 193,
      "x": 42.0,
      "y": 58.0
    },
    {
      "id": 194,
      "x": 65.0,
      "y": 82.0
    },
    {
      "id": 195,
      "x": 62.0,
      "y": 80.0
    },
    {
      "id": 196,
      "x": 62.0,
      "y": 40.0
    },
    {
      "id": 197,
      "x": 60.0,
      "y": 85.0
    },
    {
      "id": 198,
      "x": 58.0,
      "y": 75.0
    },
    {
      "id": 199,
      "x": 55.0,
      "y": 80.0
    },
    {
      "id": 200,
      "x": 55.0,
      "y": 85.0
    }
  ],
  "truckCapacity": 700.0
}
