{
  "bestKnownCost": 9.223372036854776e+18,
  "bestKnownDistance": 9.223372036854776e+18,
  "bestKnownSolution": "",
  "bestKnownTrucks": 9223372036854775807,
  "bestKnownWorkers": 9223372036854775807,
  "bestSolutionTime": "",
  "clients": [
    {
      "demand": 10.0,
      "est": 190.0,
      "id": 1,
      "lst": 974.0,
      "st": 10.0,
      "x": 41.0,
      "y": 49.0
    },
    {
      "demand": 7.0,
      "est": 18.0,
      "id": 2,
      "lst": 792.0,
      "st": 10.0,
      "x": 35.0,
      "y": 17.0
    },
    {
      "demand": 13.0,
      "est": 289.0,
      "id": 3,
      "lst": 822.0,
      "st": 10.0,
      "x": 55.0,
      "y": 45.0
    },
    {
      "demand": 19.0,
      "est": 679.0,
      "id": 4,
      "lst": 800.0,
      "st": 10.0,
      "x": 55.0,
      "y": 20.0
    },
    {
      "demand": 26.0,
      "est": 20.0,
      "id": 5,
      "lst": 906.0,
      "st": 10.0,
      "x": 15.0,
      "y": 30.0
    },
    {
      "demand": 3.0,
      "est": 355.0,
      "id": 6,
      "lst": 574.0,
      "st": 10.0,
      "x": 25.0,
      "y": 30.0
    },
    {
      "demand": 5.0,
      "est": 72.0,
      "id": 7,
      "lst": 669.0,
      "st": 10.0,
      "x": 20.0,
      "y": 50.0
    },
    {
      "demand": 9.0,
      "est": 393.0,
      "id": 8,
      "lst": 492.0,
      "st": 10.0,
      "x": 10.0,
      "y": 43.0
    },
    {
      "demand": 16.0,
      "est": 394.0,
      "id": 9,
      "lst": 503.0,
      "st": 10.0,
      "x": 55.0,
      "y": 60.0
    },
    {
      "demand": 16.0,
      "est": 517.0,
      "id": 10,
      "lst": 692.0,
      "st": 10.0,
      "x": 30.0,
      "y": 60.0
    },
    {
      "demand": 12.0,
      "est": 206.0,
      "id": 11,
      "lst": 325.0,
      "st": 10.0,
      "x": 20.0,
      "y": 65.0
    },
    {
      "demand": 19.0,
      "est": 15.0,
      "id": 12,
      "lst": 725.0,
      "st": 10.0,
      "x": 50.0,
      "y": 35.0
    },
    {
      "demand": 23.0,
      "est": 694.0,
      "id": 13,
      "lst": 823.0,
      "st": 10.0,
      "x": 30.0,
      "y": 25.0
    },
    {
      "demand": 20.0,
      "est": 32.0,
      "id": 14,
      "lst": 694.0,
      "st": 10.0,
      "x": 15.0,
      "y": 10.0
    },
    {
      "demand": 8.0,
      "est": 176.0,
      "id": 15,
      "lst": 299.0,
      "st": 10.0,
      "x": 30.0,
      "y": 5.0
    },
    {
      "demand": 19.0,
      "est": 102.0,
      "id": 16,
      "lst": 543.0,
      "st": 10.0,
      "x": 10.0,
      "y": 20.0
    },
    {
      "demand": 2.0,
      "est": 673.0,
      "id": 17,
      "lst": 930.0,
      "st": 10.0,
      "x": 5.0,
      "y": 30.0
    },
    {
      "demand": 12.0,
      "est": 229.0,
      "id": 18,
      "lst": 582.0,
      "st": 10.0,
      "x": 20.0,
      "y": 40.0
    },
    {
      "demand": 17.0,
      "est": 95.0,
      "id": 19,
      "lst": 552.0,
      "st": 10.0,
      "x": 15.0,
      "y": 60.0
    },
    {
      "demand": 9.0,
      "est": 418.0,
      "id": 20,
      "lst": 829.0,
      "st": 10.0,
      "x": 45.0,
      "y": 65.0
    },
    {
      "demand": 11.0,
      "est": 18.0,
      "id": 21,
      "lst": 727.0,
      "st": 10.0,
      "x": 45.0,
      "y": 20.0
    },
    {
      "demand": 18.0,
      "est": 349.0,
      "id": 22,
      "lst": 554.0,
      "st": 10.0,
      "x": 45.0,
      "y": 10.0
    },
    {
      "demand": 29.0,
      "est": 206.0,
      "id": 23,
      "lst": 325.0,
      "st": 10.0,
      "x": 55.0,
      "y": 5.0
    },
    {
      "demand": 3.0,
      "est": 435.0,
      "id": 24,
      "lst": 960.0,
      "st": 10.0,
      "x": 65.0,
      "y": 35.0
    },
    {
      "demand": 6.0,
      "est": 826.0,
      "id": 25,
      "lst": 956.0,
      "st": 10.0,
      "x": 65.0,
      "y": 20.0
    },
    {
      "demand": 17.0,
      "est": 328.0,
      "id": 26,
      "lst": 927.0,
      "st": 10.0,
      "x": 45.0,
      "y": 30.0
    },
    {
      "demand": 16.0,
      "est": 44.0,
      "id": 27,
      "lst": 315.0,
      "st": 10.0,
      "x": 35.0,
      "y": 40.0
    },
    {
      "demand": 16.0,
      "est": 6.0,
      "id": 28,
      "lst": 526.0,
      "st": 10.0,
      "x": 41.0,
      "y": 37.0
    },
    {
      "demand": 9.0,
      "est": 29.0,
      "id": 29,
      "lst": 513.0,
      "st": 10.0,
      "x": 64.0,
      "y": 42.0
    },
    {
      "demand": 21.0,
      "est": 199.0,
      "id": 30,
      "lst": 414.0,
      "st": 10.0,
      "x": 40.0,
      "y": 60.0
    },
    {
      "demand": 27.0,
      "est": 17.0,
      "id": 31,
      "lst": 744.0,
      "st": 10.0,
      "x": 31.0,
      "y": 52.0
    },
    {
      "demand": 23.0,
      "est": 482.0,
      "id": 32,
      "lst": 955.0,
      "st": 10.0,
      "x": 35.0,
      "y": 69.0
    },
    {
      "demand": 11.0,
      "est": 24.0,
      "id": 33,
      "lst": 299.0,
      "st": 10.0,
      "x": 53.0,
      "y": 52.0
    },
    {
      "demand": 14.0,
      "est": 265.0,
      "id": 34,
      "lst": 878.0,
      "st": 10.0,
      "x": 65.0,
      "y": 55.0
    },
    {
      "demand": 8.0,
      "est": 626.0,
      "id": 35,
      "lst": 873.0,
      "st": 10.0,
      "x": 63.0,
      "y": 65.0
    },
    {
      "demand": 5.0,
      "est": 41.0,
      "id": 36,
      "lst": 328.0,
      "st": 10.0,
      "x": 2.0,
      "y": 60.0
    },
    {
      "demand": 8.0,
      "est": 339.0,
      "id": 37,
      "lst": 960.0,
      "st": 10.0,
      "x": 20.0,
      "y": 20.0
    },
    {
      "demand": 16.0,
      "est": 298.0,
      "id": 38,
      "lst": 409.0,
      "st": 10.0,
      "x": 5.0,
      "y": 5.0
    },
    {
      "demand": 31.0,
      "est": 33.0,
      "id": 39,
      "lst": 344.0,
      "st": 10.0,
      "x": 60.0,
      "y": 12.0
    },
    {
      "demand": 9.0,
      "est": 300.0,
      "id": 40,
      "lst": 497.0,
      "st": 10.0,
      "x": 40.0,
      "y": 25.0
    },
    {
      "demand": 5.0,
      "est": 336.0,
      "id": 41,
      "lst": 571.0,
      "st": 10.0,
      "x": 42.0,
      "y": 7.0
    },
    {
      "demand": 5.0,
      "est": 25.0,
      "id": 42,
      "lst": 292.0,
      "st": 10.0,
      "x": 24.0,
      "y": 12.0
    },
    {
      "demand": 7.0,
      "est": 458.0,
      "id": 43,
      "lst": 867.0,
      "st": 10.0,
      "x": 23.0,
      "y": 3.0
    },
    {
      "demand": 18.0,
      "est": 230.0,
      "id": 44,
      "lst": 343.0,
      "st": 10.0,
      "x": 11.0,
      "y": 14.0
    },
    {
      "demand": 16.0,
      "est": 29.0,
      "id": 45,
      "lst": 309.0,
      "st": 10.0,
      "x": 6.0,
      "y": 38.0
    },
    {
      "demand": 1.0,
      "est": 338.0,
      "id": 46,
      "lst": 805.0,
      "st": 10.0,
      "x": 2.0,
      "y": 48.0
    },
    {
      "demand": 27.0,
      "est": 34.0,
      "id": 47,
      "lst": 602.0,
      "st": 10.0,
      "x": 8.0,
      "y": 56.0
    },
    {
      "demand": 36.0,
      "est": 200.0,
      "id": 48,
      "lst": 962.0,
      "st": 10.0,
      "x": 13.0,
      "y": 52.0
    },
    {
      "demand": 30.0,
      "est": 441.0,
      "id": 49,
      "lst": 600.0,
      "st": 10.0,
      "x": 6.0,
      "y": 68.0
    },
    {
      "demand": 13.0,
      "est": 272.0,
      "id": 50,
      "lst": 917.0,
      "st": 10.0,
      "x": 47.0,
      "y": 47.0
    },
    {
      "demand": 10.0,
      "est": 176.0,
      "id": 51,
      "lst": 625.0,
      "st": 10.0,
      "x": 49.0,
      "y": 58.0
    },
    {
      "demand": 9.0,
      "est": 11.0,
      "id": 52,
      "lst": 748.0,
      "st": 10.0,
      "x": 27.0,
      "y": 43.0
    },
    {
      "demand": 14.0,
      "est": 403.0,
      "id": 53,
      "lst": 500.0,
      "st": 10.0,
      "x": 37.0,
      "y": 31.0
    },
    {
      "demand": 18.0,
      "est": 475.0,
      "id": 54,
      "lst": 900.0,
      "st": 10.0,
      "x": 57.0,
      "y": 29.0
    },
    {
      "demand": 2.0,
      "est": 620.0,
      "id": 55,
      "lst": 739.0,
      "st": 10.0,
      "x": 63.0,
      "y": 23.0
    },
    {
      "demand": 6.0,
      "est": 525.0,
      "id": 56,
      "lst": 752.0,
      "st": 10.0,
      "x": 53.0,
      "y": 12.0
    },
    {
      "demand": 7.0,
      "est": 246.0,
      "id": 57,
      "lst": 705.0,
      "st": 10.0,
      "x": 32.0,
      "y": 12.0
    },
    {
      "demand": 18.0,
      "est": 854.0,
      "id": 58,
      "lst": 980.0,
      "st": 10.0,
      "x": 36.0,
      "y": 26.0
    },
    {
      "demand": 28.0,
      "est": 17.0,
      "id": 59,
      "lst": 972.0,
      "st": 10.0,
      "x": 21.0,
      "y": 24.0
    },
    {
      "demand": 3.0,
      "est": 449.0,
      "id": 60,
      "lst": 971.0,
      "st": 10.0,
      "x": 17.0,
      "y": 34.0
    },
    {
      "demand": 13.0,
      "est": 126.0,
      "id": 61,
      "lst": 541.0,
      "st": 10.0,
      "x": 12.0,
      "y": 24.0
    },
    {
      "demand": 19.0,
      "est": 168.0,
      "id": 62,
      "lst": 297.0,
      "st": 10.0,
      "x": 24.0,
      "y": 58.0
    },
    {
      "demand": 10.0,
      "est": 34.0,
      "id": 63,
      "lst": 588.0,
      "st": 10.0,
      "x": 27.0,
      "y": 69.0
    },
    {
      "demand": 9.0,
      "est": 154.0,
      "id": 64,
      "lst": 393.0,
      "st": 10.0,
      "x": 15.0,
      "y": 77.0
    },
    {
      "demand": 20.0,
      "est": 49.0,
      "id": 65,
      "lst": 308.0,
      "st": 10.0,
      "x": 62.0,
      "y": 77.0
    },
    {
      "demand": 25.0,
      "est": 532.0,
      "id": 66,
      "lst": 753.0,
      "st": 10.0,
      "x": 49.0,
      "y": 73.0
    },
    {
      "demand": 25.0,
      "est": 291.0,
      "id": 67,
      "lst": 404.0,
      "st": 10.0,
      "x": 67.0,
      "y": 5.0
    },
    {
      "demand": 36.0,
      "est": 577.0,
      "id": 68,
      "lst": 812.0,
      "st": 10.0,
      "x": 56.0,
      "y": 39.0
    },
    {
      "demand": 6.0,
      "est": 165.0,
      "id": 69,
      "lst": 290.0,
      "st": 10.0,
      "x": 37.0,
      "y": 47.0
    },
    {
      "demand": 5.0,
      "est": 668.0,
      "id": 70,
      "lst": 968.0,
      "st": 10.0,
      "x": 37.0,
      "y": 56.0
    },
    {
      "demand": 15.0,
      "est": 98.0,
      "id": 71,
      "lst": 537.0,
      "st": 10.0,
      "x": 57.0,
      "y": 68.0
    },
    {
      "demand": 25.0,
      "est": 22.0,
      "id": 72,
      "lst": 915.0,
      "st": 10.0,
      "x": 47.0,
      "y": 16.0
    },
    {
      "demand": 9.0,
      "est": 143.0,
      "id": 73,
      "lst": 564.0,
      "st": 10.0,
      "x": 44.0,
      "y": 17.0
    },
    {
      "demand": 8.0,
      "est": 681.0,
      "id": 74,
      "lst": 802.0,
      "st": 10.0,
      "x": 46.0,
      "y": 13.0
    },
    {
      "demand": 18.0,
      "est": 27.0,
      "id": 75,
      "lst": 711.0,
      "st": 10.0,
      "x": 49.0,
      "y": 11.0
    },
    {
      "demand": 13.0,
      "est": 281.0,
      "id": 76,
      "lst": 382.0,
      "st": 10.0,
      "x": 49.0,
      "y": 42.0
    },
    {
      "demand": 14.0,
      "est": 821.0,
      "id": 77,
      "lst": 948.0,
      "st": 10.0,
      "x": 53.0,
      "y": 43.0
    },
    {
      "demand": 3.0,
      "est": 324.0,
      "id": 78,
      "lst": 559.0,
      "st": 10.0,
      "x": 61.0,
      "y": 52.0
    },
    {
      "demand": 23.0,
      "est": 377.0,
      "id": 79,
      "lst": 476.0,
      "st": 10.0,
      "x": 57.0,
      "y": 48.0
    },
    {
      "demand": 6.0,
      "est": 719.0,
      "id": 80,
      "lst": 968.0,
      "st": 10.0,
      "x": 56.0,
      "y": 37.0
    },
    {
      "demand": 26.0,
      "est": 268.0,
      "id": 81,
      "lst": 599.0,
      "st": 10.0,
      "x": 55.0,
      "y": 54.0
    },
    {
      "demand": 16.0,
      "est": 23.0,
      "id": 82,
      "lst": 761.0,
      "st": 10.0,
      "x": 15.0,
      "y": 47.0
    },
    {
      "demand": 11.0,
      "est": 21.0,
      "id": 83,
      "lst": 842.0,
      "st": 10.0,
      "x": 14.0,
      "y": 37.0
    },
    {
      "demand": 7.0,
      "est": 425.0,
      "id": 84,
      "lst": 522.0,
      "st": 10.0,
      "x": 11.0,
      "y": 31.0
    },
    {
      "demand": 41.0,
      "est": 110.0,
      "id": 85,
      "lst": 727.0,
      "st": 10.0,
      "x": 16.0,
      "y": 22.0
    },
    {
      "demand": 35.0,
      "est": 230.0,
      "id": 86,
      "lst": 623.0,
      "st": 10.0,
      "x": 4.0,
      "y": 18.0
    },
    {
      "demand": 26.0,
      "est": 397.0,
      "id": 87,
      "lst": 470.0,
      "st": 10.0,
      "x": 28.0,
      "y": 18.0
    },
    {
      "demand": 9.0,
      "est": 219.0,
      "id": 88,
      "lst": 448.0,
      "st": 10.0,
      "x": 26.0,
      "y": 52.0
    },
    {
      "demand": 15.0,
      "est": 409.0,
      "id": 89,
      "lst": 981.0,
      "st": 10.0,
      "x": 26.0,
      "y": 35.0
    },
    {
      "demand": 3.0,
      "est": 225.0,
      "id": 90,
      "lst": 654.0,
      "st": 10.0,
      "x": 31.0,
      "y": 67.0
    },
    {
      "demand": 1.0,
      "est": 222.0,
      "id": 91,
      "lst": 964.0,
      "st": 10.0,
      "x": 15.0,
      "y": 19.0
    },
    {
      "demand": 2.0,
      "est": 18.0,
      "id": 92,
      "lst": 159.0,
      "st": 10.0,
      "x": 22.0,
      "y": 22.0
    },
    {
      "demand": 22.0,
      "est": 691.0,
      "id": 93,
      "lst": 969.0,
      "st": 10.0,
      "x": 18.0,
      "y": 24.0
    },
    {
      "demand": 27.0,
      "est": 190.0,
      "id": 94,
      "lst": 749.0,
      "st": 10.0,
      "x": 26.0,
      "y": 27.0
    },
    {
      "demand": 20.0,
      "est": 14.0,
      "id": 95,
      "lst": 793.0,
      "st": 10.0,
      "x": 25.0,
      "y": 24.0
    },
    {
      "demand": 11.0,
      "est": 344.0,
      "id": 96,
      "lst": 953.0,
      "st": 10.0,
      "x": 22.0,
      "y": 27.0
    },
    {
      "demand": 12.0,
      "est": 462.0,
      "id": 97,
      "lst": 823.0,
      "st": 10.0,
      "x": 25.0,
      "y": 21.0
    },
    {
      "demand": 10.0,
      "est": 21.0,
      "id": 98,
      "lst": 748.0,
      "st": 10.0,
      "x": 19.0,
      "y": 21.0
    },
    {
      "demand": 9.0,
      "est": 328.0,
      "id": 99,
      "lst": 437.0,
      "st": 10.0,
      "x": 20.0,
      "y": 26.0
    },
    {
      "demand": 17.0,
      "est": 821.0,
      "id": 100,
      "lst": 965.0,
      "st": 10.0,
      "x": 18.0,
      "y": 18.0
    }
  ],
  "costDistance": 0.0001,
  "costTruck": 1,
  "costWorker": 0.1,
  "depot": {
    "est": 0.0,
    "id": 0,
    "lst": 1000.0,
    "x": 35.0,
    "y": 35.0
  },
  "description": "",
  "name": "R210",
  "optimumKnown": false,
  "parkings": [
    {
      "id": 101,
      "x": 41.0,
      "y": 49.0
    },
    {
      "id": 102,
      "x": 35.0,
      "y": 17.0
    },
    {
      "id": 103,
      "x": 55.0,
      "y": 45.0
    },
    {
      "id": 104,
      "x": 55.0,
      "y": 20.0
    },
    {
      "id": 105,
      "x": 15.0,
      "y": 30.0
    },
    {
      "id": 106,
      "x": 25.0,
      "y": 30.0
    },
    {
      "id": 107,
      "x": 20.0,
      "y": 50.0
    },
    {
      "id": 108,
      "x": 10.0,
      "y": 43.0
    },
    {
      "id": 109,
      "x": 55.0,
      "y": 60.0
    },
    {
      "id": 110,
      "x": 30.0,
      "y": 60.0
    },
    {
      "id": 111,
      "x": 20.0,
      "y": 65.0
    },
    {
      "id": 112,
      "x": 50.0,
      "y": 35.0
    },
    {
      "id": 113,
      "x": 30.0,
      "y": 25.0
    },
    {
      "id": 114,
      "x": 15.0,
      "y": 10.0
    },
    {
      "id": 115,
      "x": 30.0,
      "y": 5.0
    },
    {
      "id": 116,
      "x": 10.0,
      "y": 20.0
    },
    {
      "id": 117,
      "x": 5.0,
      "y": 30.0
    },
    {
      "id": 118,
      "x": 20.0,
      "y": 40.0
    },
    {
      "id": 119,
      "x": 15.0,
      "y": 60.0
    },
    {
      "id": 120,
      "x": 45.0,
      "y": 65.0
    },
    {
      "id": 121,
      "x": 45.0,
      "y": 20.0
    },
    {
      "id": 122,
      "x": 45.0,
      "y": 10.0
    },
    {
      "id": 123,
      "x": 55.0,
      "y": 5.0
    },
    {
      "id": 124,
      "x": 65.0,
      "y": 35.0
    },
    {
      "id": 125,
      "x": 65.0,
      "y": 20.0
    },
    {
      "id": 126,
      "x": 45.0,
      "y": 30.0
    },
    {
      "id": 127,
      "x": 35.0,
      "y": 40.0
    },
    {
      "id": 128,
      "x": 41.0,
      "y": 37.0
    },
    {
      "id": 129,
      "x": 64.0,
      "y": 42.0
    },
    {
      "id": 130,
      "x": 40.0,
      "y": 60.0
    },
    {
      "id": 131,
      "x": 31.0,
      "y": 52.0
    },
    {
      "id": 132,
      "x": 35.0,
      "y": 69.0
    },
    {
      "id": 133,
      "x": 53.0,
      "y": 52.0
    },
    {
      "id": 134,
      "x": 65.0,
      "y": 55.0
    },
    {
      "id": 135,
      "x": 63.0,
      "y": 65.0
    },
    {
      "id": 136,
      "x": 2.0,
      "y": 60.0
    },
    {
      "id": 137,
      "x": 20.0,
      "y": 20.0
    },
    {
      "id": 138,
      "x": 5.0,
      "y": 5.0
    },
    {
      "id": 139,
      "x": 60.0,
      "y": 12.0
    },
    {
      "id": 140,
      "x": 40.0,
      "y": 25.0
    },
    {
      "id": 141,
      "x": 42.0,
      "y": 7.0
    },
    {
      "id": 142,
      "x": 24.0,
      "y": 12.0
    },
    {
      "id": 143,
      "x": 23.0,
      "y": 3.0
    },
    {
      "id": 144,
      "x": 11.0,
      "y": 14.0
    },
    {
      "id": 145,
      "x": 6.0,
      "y": 38.0
    },
    {
      "id": 146,
      "x": 2.0,
      "y": 48.0
    },
    {
      "id": 147,
      "x": 8.0,
      "y": 56.0
    },
    {
      "id": 148,
      "x": 13.0,
      "y": 52.0
    },
    {
      "id": 149,
      "x": 6.0,
      "y": 68.0
    },
    {
      "id": 150,
      "x": 47.0,
      "y": 47.0
    },
    {
      "id": 151,
      "x": 49.0,
      "y": 58.0
    },
    {
      "id": 152,
      "x": 27.0,
      "y": 43.0
    },
    {
      "id": 153,
      "x": 37.0,
      "y": 31.0
    },
    {
      "id": 154,
      "x": 57.0,
      "y": 29.0
    },
    {
      "id": 155,
      "x": 63.0,
      "y": 23.0
    },
    {
      "id": 156,
      "x": 53.0,
      "y": 12.0
    },
    {
      "id": 157,
      "x": 32.0,
      "y": 12.0
    },
    {
      "id": 158,
      "x": 36.0,
      "y": 26.0
    },
    {
      "id": 159,
      "x": 21.0,
      "y": 24.0
    },
    {
      "id": 160,
      "x": 17.0,
      "y": 34.0
    },
    {
      "id": 161,
      "x": 12.0,
      "y": 24.0
    },
    {
      "id": 162,
      "x": 24.0,
      "y": 58.0
    },
    {
      "id": 163,
      "x": 27.0,
      "y": 69.0
    },
    {
      "id": 164,
      "x": 15.0,
      "y": 77.0
    },
    {
      "id": 165,
      "x": 62.0,
      "y": 77.0
    },
    {
      "id": 166,
      "x": 49.0,
      "y": 73.0
    },
    {
      "id": 167,
      "x": 67.0,
      "y": 5.0
    },
    {
      "id": 168,
      "x": 56.0,
      "y": 39.0
    },
    {
      "id": 169,
      "x": 37.0,
      "y": 47.0
    },
    {
      "id": 170,
      "x": 37.0,
      "y": 56.0
    },
    {
      "id": 171,
      "x": 57.0,
      "y": 68.0
    },
    {
      "id": 172,
      "x": 47.0,
      "y": 16.0
    },
    {
      "id": 173,
      "x": 44.0,
      "y": 17.0
    },
    {
      "id": 174,
      "x": 46.0,
      "y": 13.0
    },
    {
      "id": 175,
      "x": 49.0,
      "y": 11.0
    },
    {
      "id": 176,
      "x": 49.0,
      "y": 42.0
    },
    {
      "id": 177,
      "x": 53.0,
      "y": 43.0
    },
    {
      "id": 178,
      "x": 61.0,
      "y": 52.0
    },
    {
      "id": 179,
      "x": 57.0,
      "y": 48.0
    },
    {
      "id": 180,
      "x": 56.0,
      "y": 37.0
    },
    {
      "id": 181,
      "x": 55.0,
      "y": 54.0
    },
    {
      "id": 182,
      "x": 15.0,
      "y": 47.0
    },
    {
      "id": 183,
      "x": 14.0,
      "y": 37.0
    },
    {
      "id": 184,
      "x": 11.0,
      "y": 31.0
    },
    {
      "id": 185,
      "x": 16.0,
      "y": 22.0
    },
    {
      "id": 186,
      "x": 4.0,
      "y": 18.0
    },
    {
      "id": 187,
      "x": 28.0,
      "y": 18.0
    },
    {
      "id": 188,
      "x": 26.0,
      "y": 52.0
    },
    {
      "id": 189,
      "x": 26.0,
      "y": 35.0
    },
    {
      "id": 190,
      "x": 31.0,
      "y": 67.0
    },
    {
      "id": 191,
      "x": 15.0,
      "y": 19.0
    },
    {
      "id": 192,
      "x": 22.0,
      "y": 22.0
    },
    {
      "id": 193,
      "x": 18.0,
      "y": 24.0
    },
    {
      "id": 194,
      "x": 26.0,
      "y": 27.0
    },
    {
      "id": 195,
      "x": 25.0,
      "y": 24.0
    },
    {
      "id": 196,
      "x": 22.0,
      "y": 27.0
    },
    {
      "id": 197,
      "x": 25.0,
      "y": 21.0
    },
    {
      "id": 198,
      "x": 19.0,
      "y": 21.0
    },
    {
      "id": 199,
      "x": 20.0,
      "y": 26.0
    },
    {
      "id": 200,
      "x": 18.0,
      "y": 18.0
    }
  ],
  "truckCapacity": 1000.0
}
