{
  "bestKnownCost": 9.223372036854776e+18,
  "bestKnownDistance": 9.223372036854776e+18,
  "bestKnownSolution": "",
  "bestKnownTrucks": 9223372036854775807,
  "bestKnownWorkers": 9223372036854775807,
  "bestSolutionTime": "",
  "clients": [
    {
      "demand": 20.0,
      "est": 388.0,
      "id": 1,
      "lst": 911.0,
      "st": 10.0,
      "x": 25.0,
      "y": 85.0
    },
    {
      "demand": 30.0,
      "est": 30.0,
      "id": 2,
      "lst": 546.0,
      "st": 10.0,
      "x": 22.0,
      "y": 75.0
    },
    {
      "demand": 10.0,
      "est": 353.0,
      "id": 3,
      "lst": 708.0,
      "st": 10.0,
      "x": 22.0,
      "y": 85.0
    },
    {
      "demand": 40.0,
      "est": 425.0,
      "id": 4,
      "lst": 913.0,
      "st": 10.0,
      "x": 20.0,
      "y": 80.0
    },
    {
      "demand": 20.0,
      "est": 40.0,
      "id": 5,
      "lst": 630.0,
      "st": 10.0,
      "x": 20.0,
      "y": 85.0
    },
    {
      "demand": 20.0,
      "est": 228.0,
      "id": 6,
      "lst": 667.0,
      "st": 10.0,
      "x": 18.0,
      "y": 75.0
    },
    {
      "demand": 20.0,
      "est": 161.0,
      "id": 7,
      "lst": 558.0,
      "st": 10.0,
      "x": 15.0,
      "y": 75.0
    },
    {
      "demand": 10.0,
      "est": 229.0,
      "id": 8,
      "lst": 624.0,
      "st": 10.0,
      "x": 15.0,
      "y": 80.0
    },
    {
      "demand": 20.0,
      "est": 213.0,
      "id": 9,
      "lst": 648.0,
      "st": 10.0,
      "x": 10.0,
      "y": 35.0
    },
    {
      "demand": 30.0,
      "est": 404.0,
      "id": 10,
      "lst": 753.0,
      "st": 10.0,
      "x": 10.0,
      "y": 40.0
    },
    {
      "demand": 40.0,
      "est": 33.0,
      "id": 11,
      "lst": 511.0,
      "st": 10.0,
      "x": 8.0,
      "y": 40.0
    },
    {
      "demand": 20.0,
      "est": 46.0,
      "id": 12,
      "lst": 519.0,
      "st": 10.0,
      "x": 8.0,
      "y": 45.0
    },
    {
      "demand": 10.0,
      "est": 395.0,
      "id": 13,
      "lst": 911.0,
      "st": 10.0,
      "x": 5.0,
      "y": 35.0
    },
    {
      "demand": 10.0,
      "est": 35.0,
      "id": 14,
      "lst": 697.0,
      "st": 10.0,
      "x": 5.0,
      "y": 45.0
    },
    {
      "demand": 20.0,
      "est": 39.0,
      "id": 15,
      "lst": 528.0,
      "st": 10.0,
      "x": 2.0,
      "y": 40.0
    },
    {
      "demand": 20.0,
      "est": 94.0,
      "id": 16,
      "lst": 535.0,
      "st": 10.0,
      "x": 0.0,
      "y": 40.0
    },
    {
      "demand": 20.0,
      "est": 394.0,
      "id": 17,
      "lst": 909.0,
      "st": 10.0,
      "x": 0.0,
      "y": 45.0
    },
    {
      "demand": 20.0,
      "est": 218.0,
      "id": 18,
      "lst": 571.0,
      "st": 10.0,
      "x": 44.0,
      "y": 5.0
    },
    {
      "demand": 40.0,
      "est": 85.0,
      "id": 19,
      "lst": 542.0,
      "st": 10.0,
      "x": 42.0,
      "y": 10.0
    },
    {
      "demand": 10.0,
      "est": 391.0,
      "id": 20,
      "lst": 802.0,
      "st": 10.0,
      "x": 42.0,
      "y": 15.0
    },
    {
      "demand": 10.0,
      "est": 45.0,
      "id": 21,
      "lst": 517.0,
      "st": 10.0,
      "x": 40.0,
      "y": 5.0
    },
    {
      "demand": 40.0,
      "est": 229.0,
      "id": 22,
      "lst": 640.0,
      "st": 10.0,
      "x": 40.0,
      "y": 15.0
    },
    {
      "demand": 30.0,
      "est": 45.0,
      "id": 23,
      "lst": 523.0,
      "st": 10.0,
      "x": 38.0,
      "y": 5.0
    },
    {
      "demand": 10.0,
      "est": 389.0,
      "id": 24,
      "lst": 914.0,
      "st": 10.0,
      "x": 38.0,
      "y": 15.0
    },
    {
      "demand": 20.0,
      "est": 386.0,
      "id": 25,
      "lst": 904.0,
      "st": 10.0,
      "x": 35.0,
      "y": 5.0
    },
    {
      "demand": 30.0,
      "est": 389.0,
      "id": 26,
      "lst": 788.0,
      "st": 10.0,
      "x": 95.0,
      "y": 30.0
    },
    {
      "demand": 20.0,
      "est": 57.0,
      "id": 27,
      "lst": 600.0,
      "st": 10.0,
      "x": 95.0,
      "y": 35.0
    },
    {
      "demand": 10.0,
      "est": 55.0,
      "id": 28,
      "lst": 575.0,
      "st": 10.0,
      "x": 92.0,
      "y": 30.0
    },
    {
      "demand": 10.0,
      "est": 52.0,
      "id": 29,
      "lst": 536.0,
      "st": 10.0,
      "x": 90.0,
      "y": 35.0
    },
    {
      "demand": 10.0,
      "est": 90.0,
      "id": 30,
      "lst": 521.0,
      "st": 10.0,
      "x": 88.0,
      "y": 30.0
    },
    {
      "demand": 20.0,
      "est": 50.0,
      "id": 31,
      "lst": 534.0,
      "st": 10.0,
      "x": 88.0,
      "y": 35.0
    },
    {
      "demand": 10.0,
      "est": 425.0,
      "id": 32,
      "lst": 898.0,
      "st": 10.0,
      "x": 87.0,
      "y": 30.0
    },
    {
      "demand": 10.0,
      "est": 51.0,
      "id": 33,
      "lst": 602.0,
      "st": 10.0,
      "x": 85.0,
      "y": 25.0
    },
    {
      "demand": 30.0,
      "est": 342.0,
      "id": 34,
      "lst": 751.0,
      "st": 10.0,
      "x": 85.0,
      "y": 35.0
    },
    {
      "demand": 20.0,
      "est": 410.0,
      "id": 35,
      "lst": 905.0,
      "st": 10.0,
      "x": 67.0,
      "y": 85.0
    },
    {
      "demand": 40.0,
      "est": 43.0,
      "id": 36,
      "lst": 617.0,
      "st": 10.0,
      "x": 65.0,
      "y": 85.0
    },
    {
      "demand": 10.0,
      "est": 410.0,
      "id": 37,
      "lst": 823.0,
      "st": 10.0,
      "x": 65.0,
      "y": 82.0
    },
    {
      "demand": 30.0,
      "est": 114.0,
      "id": 38,
      "lst": 561.0,
      "st": 10.0,
      "x": 62.0,
      "y": 80.0
    },
    {
      "demand": 10.0,
      "est": 36.0,
      "id": 39,
      "lst": 658.0,
      "st": 10.0,
      "x": 60.0,
      "y": 80.0
    },
    {
      "demand": 30.0,
      "est": 191.0,
      "id": 40,
      "lst": 586.0,
      "st": 10.0,
      "x": 60.0,
      "y": 85.0
    },
    {
      "demand": 20.0,
      "est": 201.0,
      "id": 41,
      "lst": 670.0,
      "st": 10.0,
      "x": 58.0,
      "y": 75.0
    },
    {
      "demand": 10.0,
      "est": 33.0,
      "id": 42,
      "lst": 568.0,
      "st": 10.0,
      "x": 55.0,
      "y": 80.0
    },
    {
      "demand": 20.0,
      "est": 429.0,
      "id": 43,
      "lst": 838.0,
      "st": 10.0,
      "x": 55.0,
      "y": 85.0
    },
    {
      "demand": 10.0,
      "est": 49.0,
      "id": 44,
      "lst": 504.0,
      "st": 10.0,
      "x": 55.0,
      "y": 82.0
    },
    {
      "demand": 10.0,
      "est": 37.0,
      "id": 45,
      "lst": 597.0,
      "st": 10.0,
      "x": 20.0,
      "y": 82.0
    },
    {
      "demand": 10.0,
      "est": 315.0,
      "id": 46,
      "lst": 782.0,
      "st": 10.0,
      "x": 18.0,
      "y": 80.0
    },
    {
      "demand": 10.0,
      "est": 38.0,
      "id": 47,
      "lst": 606.0,
      "st": 10.0,
      "x": 2.0,
      "y": 45.0
    },
    {
      "demand": 10.0,
      "est": 396.0,
      "id": 48,
      "lst": 904.0,
      "st": 10.0,
      "x": 42.0,
      "y": 5.0
    },
    {
      "demand": 10.0,
      "est": 341.0,
      "id": 49,
      "lst": 658.0,
      "st": 10.0,
      "x": 42.0,
      "y": 12.0
    },
    {
      "demand": 30.0,
      "est": 351.0,
      "id": 50,
      "lst": 782.0,
      "st": 10.0,
      "x": 72.0,
      "y": 35.0
    },
    {
      "demand": 19.0,
      "est": 161.0,
      "id": 51,
      "lst": 610.0,
      "st": 10.0,
      "x": 55.0,
      "y": 20.0
    },
    {
      "demand": 3.0,
      "est": 25.0,
      "id": 52,
      "lst": 516.0,
      "st": 10.0,
      "x": 25.0,
      "y": 30.0
    },
    {
      "demand": 5.0,
      "est": 239.0,
      "id": 53,
      "lst": 630.0,
      "st": 10.0,
      "x": 20.0,
      "y": 50.0
    },
    {
      "demand": 16.0,
      "est": 448.0,
      "id": 54,
      "lst": 873.0,
      "st": 10.0,
      "x": 55.0,
      "y": 60.0
    },
    {
      "demand": 16.0,
      "est": 420.0,
      "id": 55,
      "lst": 897.0,
      "st": 10.0,
      "x": 30.0,
      "y": 60.0
    },
    {
      "demand": 19.0,
      "est": 390.0,
      "id": 56,
      "lst": 843.0,
      "st": 10.0,
      "x": 50.0,
      "y": 35.0
    },
    {
      "demand": 23.0,
      "est": 227.0,
      "id": 57,
      "lst": 686.0,
      "st": 10.0,
      "x": 30.0,
      "y": 25.0
    },
    {
      "demand": 20.0,
      "est": 401.0,
      "id": 58,
      "lst": 902.0,
      "st": 10.0,
      "x": 15.0,
      "y": 10.0
    },
    {
      "demand": 19.0,
      "est": 42.0,
      "id": 59,
      "lst": 706.0,
      "st": 10.0,
      "x": 10.0,
      "y": 20.0
    },
    {
      "demand": 17.0,
      "est": 401.0,
      "id": 60,
      "lst": 923.0,
      "st": 10.0,
      "x": 15.0,
      "y": 60.0
    },
    {
      "demand": 9.0,
      "est": 110.0,
      "id": 61,
      "lst": 525.0,
      "st": 10.0,
      "x": 45.0,
      "y": 65.0
    },
    {
      "demand": 3.0,
      "est": 29.0,
      "id": 62,
      "lst": 548.0,
      "st": 10.0,
      "x": 65.0,
      "y": 35.0
    },
    {
      "demand": 6.0,
      "est": 39.0,
      "id": 63,
      "lst": 593.0,
      "st": 10.0,
      "x": 65.0,
      "y": 20.0
    },
    {
      "demand": 17.0,
      "est": 20.0,
      "id": 64,
      "lst": 498.0,
      "st": 10.0,
      "x": 45.0,
      "y": 30.0
    },
    {
      "demand": 16.0,
      "est": 11.0,
      "id": 65,
      "lst": 530.0,
      "st": 10.0,
      "x": 35.0,
      "y": 40.0
    },
    {
      "demand": 16.0,
      "est": 404.0,
      "id": 66,
      "lst": 847.0,
      "st": 10.0,
      "x": 41.0,
      "y": 37.0
    },
    {
      "demand": 9.0,
      "est": 100.0,
      "id": 67,
      "lst": 555.0,
      "st": 10.0,
      "x": 64.0,
      "y": 42.0
    },
    {
      "demand": 21.0,
      "est": 436.0,
      "id": 68,
      "lst": 907.0,
      "st": 10.0,
      "x": 40.0,
      "y": 60.0
    },
    {
      "demand": 27.0,
      "est": 9.0,
      "id": 69,
      "lst": 510.0,
      "st": 10.0,
      "x": 31.0,
      "y": 52.0
    },
    {
      "demand": 23.0,
      "est": 330.0,
      "id": 70,
      "lst": 930.0,
      "st": 10.0,
      "x": 35.0,
      "y": 69.0
    },
    {
      "demand": 14.0,
      "est": 81.0,
      "id": 71,
      "lst": 520.0,
      "st": 10.0,
      "x": 65.0,
      "y": 55.0
    },
    {
      "demand": 8.0,
      "est": 27.0,
      "id": 72,
      "lst": 622.0,
      "st": 10.0,
      "x": 63.0,
      "y": 65.0
    },
    {
      "demand": 5.0,
      "est": 135.0,
      "id": 73,
      "lst": 556.0,
      "st": 10.0,
      "x": 2.0,
      "y": 60.0
    },
    {
      "demand": 8.0,
      "est": 430.0,
      "id": 74,
      "lst": 913.0,
      "st": 10.0,
      "x": 20.0,
      "y": 20.0
    },
    {
      "demand": 16.0,
      "est": 63.0,
      "id": 75,
      "lst": 520.0,
      "st": 10.0,
      "x": 5.0,
      "y": 5.0
    },
    {
      "demand": 31.0,
      "est": 125.0,
      "id": 76,
      "lst": 530.0,
      "st": 10.0,
      "x": 60.0,
      "y": 12.0
    },
    {
      "demand": 7.0,
      "est": 390.0,
      "id": 77,
      "lst": 900.0,
      "st": 10.0,
      "x": 23.0,
      "y": 3.0
    },
    {
      "demand": 27.0,
      "est": 190.0,
      "id": 78,
      "lst": 659.0,
      "st": 10.0,
      "x": 8.0,
      "y": 56.0
    },
    {
      "demand": 30.0,
      "est": 215.0,
      "id": 79,
      "lst": 608.0,
      "st": 10.0,
      "x": 6.0,
      "y": 68.0
    },
    {
      "demand": 13.0,
      "est": 444.0,
      "id": 80,
      "lst": 942.0,
      "st": 10.0,
      "x": 47.0,
      "y": 47.0
    },
    {
      "demand": 10.0,
      "est": 249.0,
      "id": 81,
      "lst": 580.0,
      "st": 10.0,
      "x": 49.0,
      "y": 58.0
    },
    {
      "demand": 9.0,
      "est": 14.0,
      "id": 82,
      "lst": 506.0,
      "st": 10.0,
      "x": 27.0,
      "y": 43.0
    },
    {
      "demand": 14.0,
      "est": 19.0,
      "id": 83,
      "lst": 566.0,
      "st": 10.0,
      "x": 37.0,
      "y": 31.0
    },
    {
      "demand": 18.0,
      "est": 259.0,
      "id": 84,
      "lst": 650.0,
      "st": 10.0,
      "x": 57.0,
      "y": 29.0
    },
    {
      "demand": 2.0,
      "est": 198.0,
      "id": 85,
      "lst": 609.0,
      "st": 10.0,
      "x": 63.0,
      "y": 23.0
    },
    {
      "demand": 28.0,
      "est": 212.0,
      "id": 86,
      "lst": 605.0,
      "st": 10.0,
      "x": 21.0,
      "y": 24.0
    },
    {
      "demand": 13.0,
      "est": 272.0,
      "id": 87,
      "lst": 565.0,
      "st": 10.0,
      "x": 12.0,
      "y": 24.0
    },
    {
      "demand": 19.0,
      "est": 90.0,
      "id": 88,
      "lst": 549.0,
      "st": 10.0,
      "x": 24.0,
      "y": 58.0
    },
    {
      "demand": 25.0,
      "est": 325.0,
      "id": 89,
      "lst": 897.0,
      "st": 10.0,
      "x": 67.0,
      "y": 5.0
    },
    {
      "demand": 6.0,
      "est": 204.0,
      "id": 90,
      "lst": 633.0,
      "st": 10.0,
      "x": 37.0,
      "y": 47.0
    },
    {
      "demand": 13.0,
      "est": 442.0,
      "id": 91,
      "lst": 937.0,
      "st": 10.0,
      "x": 49.0,
      "y": 42.0
    },
    {
      "demand": 14.0,
      "est": 14.0,
      "id": 92,
      "lst": 581.0,
      "st": 10.0,
      "x": 53.0,
      "y": 43.0
    },
    {
      "demand": 3.0,
      "est": 373.0,
      "id": 93,
      "lst": 928.0,
      "st": 10.0,
      "x": 61.0,
      "y": 52.0
    },
    {
      "demand": 23.0,
      "est": 265.0,
      "id": 94,
      "lst": 638.0,
      "st": 10.0,
      "x": 57.0,
      "y": 48.0
    },
    {
      "demand": 6.0,
      "est": 20.0,
      "id": 95,
      "lst": 539.0,
      "st": 10.0,
      "x": 56.0,
      "y": 37.0
    },
    {
      "demand": 26.0,
      "est": 418.0,
      "id": 96,
      "lst": 825.0,
      "st": 10.0,
      "x": 55.0,
      "y": 54.0
    },
    {
      "demand": 35.0,
      "est": 426.0,
      "id": 97,
      "lst": 787.0,
      "st": 10.0,
      "x": 4.0,
      "y": 18.0
    },
    {
      "demand": 9.0,
      "est": 14.0,
      "id": 98,
      "lst": 499.0,
      "st": 10.0,
      "x": 26.0,
      "y": 52.0
    },
    {
      "demand": 15.0,
      "est": 149.0,
      "id": 99,
      "lst": 586.0,
      "st": 10.0,
      "x": 26.0,
      "y": 35.0
    },
    {
      "demand": 3.0,
      "est": 356.0,
      "id": 100,
      "lst": 930.0,
      "st": 10.0,
      "x": 31.0,
      "y": 67.0
    }
  ],
  "costDistance": 0.0001,
  "costTruck": 1,
  "costWorker": 0.1,
  "depot": {
    "est": 0.0,
    "id": 0,
    "lst": 960.0,
    "x": 40.0,
    "y": 50.0
  },
  "description": "",
  "name": "RC208",
  "optimumKnown": false,
  "parkings": [
    {
      "id": 101,
      "x": 25.0,
      "y": 85.0
    },
    {
      "id": 102,
      "x": 22.0,
      "y": 75.0
    },
    {
      "id": 103,
      "x": 22.0,
      "y": 85.0
    },
    {
      "id": 104,
      "x": 20.0,
      "y": 80.0
    },
    {
      "id": 105,
      "x": 20.0,
      "y": 85.0
    },
    {
      "id": 106,
      "x": 18.0,
      "y": 75.0
    },
    {
      "id": 107,
      "x": 15.0,
      "y": 75.0
    },
    {
      "id": 108,
      "x": 15.0,
      "y": 80.0
    },
    {
      "id": 109,
      "x": 10.0,
      "y": 35.0
    },
    {
      "id": 110,
      "x": 10.0,
      "y": 40.0
    },
    {
      "id": 111,
      "x": 8.0,
      "y": 40.0
    },
    {
      "id": 112,
      "x": 8.0,
      "y": 45.0
    },
    {
      "id": 113,
      "x": 5.0,
      "y": 35.0
    },
    {
      "id": 114,
      "x": 5.0,
      "y": 45.0
    },
    {
      "id": 115,
      "x": 2.0,
      "y": 40.0
    },
    {
      "id": 116,
      "x": 0.0,
      "y": 40.0
    },
    {
      "id": 117,
      "x": 0.0,
      "y": 45.0
    },
    {
      "id": 118,
      "x": 44.0,
      "y": 5.0
    },
    {
      "id": 119,
      "x": 42.0,
      "y": 10.0
    },
    {
      "id": 120,
      "x": 42.0,
      "y": 15.0
    },
    {
      "id": 121,
      "x": 40.0,
      "y": 5.0
    },
    {
      "id": 122,
      "x": 40.0,
      "y": 15.0
    },
    {
      "id": 123,
      "x": 38.0,
      "y": 5.0
    },
    {
      "id": 124,
      "x": 38.0,
      "y": 15.0
    },
    {
      "id": 125,
      "x": 35.0,
      "y": 5.0
    },
    {
      "id": 126,
      "x": 95.0,
      "y": 30.0
    },
    {
      "id": 127,
      "x": 95.0,
      "y": 35.0
    },
    {
      "id": 128,
      "x": 92.0,
      "y": 30.0
    },
    {
      "id": 129,
      "x": 90.0,
      "y": 35.0
    },
    {
      "id": 130,
      "x": 88.0,
      "y": 30.0
    },
    {
      "id": 131,
      "x": 88.0,
      "y": 35.0
    },
    {
      "id": 132,
      "x": 87.0,
      "y": 30.0
    },
    {
      "id": 133,
      "x": 85.0,
      "y": 25.0
    },
    {
      "id": 134,
      "x": 85.0,
      "y": 35.0
    },
    {
      "id": 135,
      "x": 67.0,
      "y": 85.0
    },
    {
      "id": 136,
      "x": 65.0,
      "y": 85.0
    },
    {
      "id": 137,
      "x": 65.0,
      "y": 82.0
    },
    {
      "id": 138,
      "x": 62.0,
      "y": 80.0
    },
    {
      "id": 139,
      "x": 60.0,
      "y": 80.0
    },
    {
      "id": 140,
      "x": 60.0,
      "y": 85.0
    },
    {
      "id": 141,
      "x": 58.0,
      "y": 75.0
    },
    {
      "id": 142,
      "x": 55.0,
      "y": 80.0
    },
    {
      "id": 143,
      "x": 55.0,
      "y": 85.0
    },
    {
      "id": 144,
      "x": 55.0,
      "y": 82.0
    },
    {
      "id": 145,
      "x": 20.0,
      "y": 82.0
    },
    {
      "id": 146,
      "x": 18.0,
      "y": 80.0
    },
    {
      "id": 147,
      "x": 2.0,
      "y": 45.0
    },
    {
      "id": 148,
      "x": 42.0,
      "y": 5.0
    },
    {
      "id": 149,
      "x": 42.0,
      "y": 12.0
    },
    {
      "id": 150,
      "x": 72.0,
      "y": 35.0
    },
    {
      "id": 151,
      "x": 55.0,
      "y": 20.0
    },
    {
      "id": 152,
      "x": 25.0,
      "y": 30.0
    },
    {
      "id": 153,
      "x": 20.0,
      "y": 50.0
    },
    {
      "id": 154,
      "x": 55.0,
      "y": 60.0
    },
    {
      "id": 155,
      "x": 30.0,
      "y": 60.0
    },
    {
      "id": 156,
      "x": 50.0,
      "y": 35.0
    },
    {
      "id": 157,
      "x": 30.0,
      "y": 25.0
    },
    {
      "id": 158,
      "x": 15.0,
      "y": 10.0
    },
    {
      "id": 159,
      "x": 10.0,
      "y": 20.0
    },
    {
      "id": 160,
      "x": 15.0,
      "y": 60.0
    },
    {
      "id": 161,
      "x": 45.0,
      "y": 65.0
    },
    {
      "id": 162,
      "x": 65.0,
      "y": 35.0
    },
    {
      "id": 163,
      "x": 65.0,
      "y": 20.0
    },
    {
      "id": 164,
      "x": 45.0,
      "y": 30.0
    },
    {
      "id": 165,
      "x": 35.0,
      "y": 40.0
    },
    {
      "id": 166,
      "x": 41.0,
      "y": 37.0
    },
    {
      "id": 167,
      "x": 64.0,
      "y": 42.0
    },
    {
      "id": 168,
      "x": 40.0,
      "y": 60.0
    },
    {
      "id": 169,
      "x": 31.0,
      "y": 52.0
    },
    {
      "id": 170,
      "x": 35.0,
      "y": 69.0
    },
    {
      "id": 171,
      "x": 65.0,
      "y": 55.0
    },
    {
      "id": 172,
      "x": 63.0,
      "y": 65.0
    },
    {
      "id": 173,
      "x": 2.0,
      "y": 60.0
    },
    {
      "id": 174,
      "x": 20.0,
      "y": 20.0
    },
    {
      "id": 175,
      "x": 5.0,
      "y": 5.0
    },
    {
      "id": 176,
      "x": 60.0,
      "y": 12.0
    },
    {
      "id": 177,
      "x": 23.0,
      "y": 3.0
    },
    {
      "id": 178,
      "x": 8.0,
      "y": 56.0
    },
    {
      "id": 179,
      "x": 6.0,
      "y": 68.0
    },
    {
      "id": 180,
      "x": 47.0,
      "y": 47.0
    },
    {
      "id": 181,
      "x": 49.0,
      "y": 58.0
    },
    {
      "id": 182,
      "x": 27.0,
      "y": 43.0
    },
    {
      "id": 183,
      "x": 37.0,
      "y": 31.0
    },
    {
      "id": 184,
      "x": 57.0,
      "y": 29.0
    },
    {
      "id": 185,
      "x": 63.0,
      "y": 23.0
    },
    {
      "id": 186,
      "x": 21.0,
      "y": 24.0
    },
    {
      "id": 187,
      "x": 12.0,
      "y": 24.0
    },
    {
      "id": 188,
      "x": 24.0,
      "y": 58.0
    },
    {
      "id": 189,
      "x": 67.0,
      "y": 5.0
    },
    {
      "id": 190,
      "x": 37.0,
      "y": 47.0
    },
    {
      "id": 191,
      "x": 49.0,
      "y": 42.0
    },
    {
      "id": 192,
      "x": 53.0,
      "y": 43.0
    },
    {
      "id": 193,
      "x": 61.0,
      "y": 52.0
    },
    {
      "id": 194,
      "x": 57.0,
      "y": 48.0
    },
    {
      "id": 195,
      "x": 56.0,
      "y": 37.0
    },
    {
      "id": 196,
      "x": 55.0,
      "y": 54.0
    },
    {
      "id": 197,
      "x": 4.0,
      "y": 18.0
    },
    {
      "id": 198,
      "x": 26.0,
      "y": 52.0
    },
    {
      "id": 199,
      "x": 26.0,
      "y": 35.0
    },
    {
      "id": 200,
      "x": 31.0,
      "y": 67.0
    }
  ],
  "truckCapacity": 1000.0
}
