Heuristic

VEHICLE
NUMBER     CAPACITY
  10         50

CUSTOMER
CUST NO.  XCOORD.   YCOORD.    DEMAND   READY TIME  DUE DATE   SERVICE   TIME

    0       0          0          0          0        380          0
    1     5.5          2          0          0          0          0
    2     1.5          2          0          0          0          0
    3      -2        0.5          0          0          0          0
    4    -3.5        1.5          0          0          0          0
    5    -1.5          3          0          0          0          0
    6      -2         -2          0          0          0          0
    7     5.5          2          0          0          0          0
    8       1        0.5         10          0         35          5
    9       0          2         10          0         25          5
   10      -1         -1         10         20         50          5
   11       1         -2         10         50        100          5
   12       4          0         10        120        150          5
   13       2          3         10         55         75          5
   14     1.5        3.5         10          0        100          5
   15       1          3         10         55         65          5
   16    -1.5          4         10          5         35          5
   17    -2.5        2.5         10         15         50          5
   18      -3          1         10          0        180          5
